# total sequences,component sequences,cluster sequences,total ic,median window size,gini coefficient
16843.000000 4450.000000 364.000000 7.119384 14.000000 0.130071
16843.000000 3483.000000 343.000000 7.146996 12.000000 0.182759
16843.000000 8910.000000 1489.000000 3.537726 11.000000 0.188177
