# total sequences,component sequences,cluster sequences,total ic,median window size,gini coefficient
16843.000000 1578.000000 22.000000 -2.000000 -2.000000 -2.000000
16843.000000 689.000000 4.000000 -2.000000 -2.000000 -2.000000
16843.000000 6316.000000 155.000000 8.962279 5.000000 0.482118
16843.000000 6441.000000 324.000000 8.964396 3.000000 0.662474
16843.000000 1281.000000 77.000000 29.844553 14.000000 0.219033
16843.000000 538.000000 3.000000 -2.000000 -2.000000 -2.000000
