# total sequences,component sequences,cluster sequences,total ic,median window size,gini coefficient
16843.000000 4288.000000 403.000000 7.674903 13.000000 0.131972
16843.000000 3653.000000 373.000000 7.395751 12.000000 0.165029
16843.000000 4251.000000 512.000000 5.047088 11.000000 0.177789
16843.000000 4651.000000 454.000000 6.164665 12.000000 0.169787
