# total sequences,component sequences,cluster sequences,total ic,median window size,gini coefficient
35153.000000 9262.000000 620.000000 7.626903 5.000000 0.538570
35153.000000 4571.000000 147.000000 10.547434 7.000000 0.425976
35153.000000 3030.000000 103.000000 16.193309 11.000000 0.205125
35153.000000 6276.000000 290.000000 8.911145 10.000000 0.362535
35153.000000 5328.000000 183.000000 11.335747 13.000000 0.171158
35153.000000 6686.000000 305.000000 9.718063 15.000000 0.241676
