ID	name	Binom_Genome_Fraction	Binom_Expected	Binom_Observed_Region_Hits	Binom_Fold_Enrichment	Binom_Region_Set_Coverage	Binom_Raw_PValue	Binom_Adjp_BH	Hyper_Total_Genes	Hyper_Expected	Hyper_Observed_Gene_Hits	Hyper_Fold_Enrichment	Hyper_Gene_Set_Coverage	Hyper_Term_Gene_Coverage	Hyper_Raw_PValue	Hyper_Adjp_BH
MP:0005397	hematopoietic system phenotype	0.255168	273.5401	361	1.319734	0.3367537	1.646175e-09	1.5074024475e-05	3056	281.5615	351	1.246619	0.2028902	0.114856	2.183075e-06	0.000454327676704545
MP:0005387	immune system phenotype	0.2561631	274.6068	359	1.307324	0.3348881	5.752006e-09	1.964421220825e-05	3054	281.3772	351	1.247436	0.2028902	0.1149312	2.050262e-06	0.000436610444976744
MP:0013693	abnormal hemopoiesis	0.07277362	78.01332	131	1.6792	0.1222015	6.600722e-09	1.964421220825e-05	735	67.71849	115	1.698207	0.06647399	0.1564626	9.020859e-09	9.31567046111111e-06
MP:0001790	abnormal immune system physiology	0.1739026	186.4236	260	1.394673	0.2425373	8.581069e-09	1.964421220825e-05	2028	186.8477	236	1.263061	0.1364162	0.1163708	6.110393e-05	0.00499579184830357
MP:0002123	abnormal definitive hematopoiesis	0.06985071	74.87996	126	1.682693	0.1175373	1.183549e-08	2.1675516386e-05	706	65.0466	112	1.721843	0.06473988	0.1586402	6.505423e-09	8.51002263014286e-06
MP:0013657	abnormal blood cell morphology	0.1416758	151.8765	219	1.441961	0.204291	1.468756e-08	2.17109853714286e-05	1574	145.0189	198	1.365339	0.1144509	0.1257942	2.278047e-06	0.000454535365065217
MP:0012382	abnormal blood cell physiology	0.1110951	119.094	180	1.511412	0.1679104	1.65968e-08	2.17109853714286e-05	1323	121.8933	160	1.312624	0.09248555	0.1209373	0.0001725999	0.0111254668426573
MP:0011182	decreased hematopoietic cell number	0.1154691	123.7829	185	1.494553	0.1725746	2.23196e-08	2.554757215e-05	1298	119.5899	168	1.404801	0.09710983	0.1294299	2.681872e-06	0.000522508551148936
MP:0005376	homeostasis/metabolism phenotype	0.3787605	406.0312	493	1.214192	0.4598881	3.617627e-08	3.68073449322222e-05	4275	393.8728	490	1.244056	0.283237	0.1146199	9.15595e-09	9.31567046111111e-06
MP:0001545	abnormal hematopoietic system physiology	0.1189127	127.4744	188	1.474806	0.1753731	4.307473e-08	3.9443530261e-05	1384	127.5134	168	1.317508	0.09710983	0.1213873	9.776703e-05	0.00725186621137097
MP:0002429	abnormal blood cell morphology/development	0.08371506	89.74254	142	1.582304	0.1324627	5.264694e-08	4.38261845072727e-05	859	79.1431	126	1.592053	0.07283237	0.1466822	8.242473e-08	3.43074205731818e-05
MP:0002619	abnormal lymphocyte morphology	0.1045406	112.0675	169	1.508019	0.1576493	5.800447e-08	4.42622443158333e-05	1167	107.5204	164	1.525292	0.09479769	0.1405313	1.774188e-08	1.18774858335714e-05
MP:0002420	abnormal adaptive immunity	0.1060093	113.642	169	1.487126	0.1576493	1.426787e-07	0.000100500681223077	1270	117.0102	152	1.299032	0.08786127	0.119685	0.0004031311	0.0191267952471503
MP:0005016	decreased lymphocyte cell number	0.07492508	80.31969	128	1.593632	0.119403	1.790496e-07	0.000109945962366667	812	74.8128	117	1.563903	0.06763006	0.1440887	6.166583e-07	0.000156853890363889
MP:0013656	abnormal hematopoietic cell morphology	0.1975941	211.8208	281	1.326593	0.2621269	1.801015e-07	0.000109945962366667	2334	215.0407	271	1.260226	0.1566474	0.1161097	1.871854e-05	0.00212898215111111
MP:0002421	abnormal cell-mediated immunity	0.1042158	111.7193	166	1.485866	0.1548507	1.986417e-07	0.00011368512793125	1250	115.1675	150	1.302451	0.0867052	0.12	0.0003916508	0.01887550724
MP:0001819	abnormal immune cell physiology	0.1036361	111.0979	164	1.476175	0.1529851	3.564049e-07	0.000183061198927778	1238	114.0619	148	1.297541	0.08554913	0.1195477	0.0005046914	0.0222185536048077
MP:0011180	abnormal hematopoietic cell number	0.1542419	165.3474	227	1.372867	0.2117537	3.598451e-07	0.000183061198927778	1751	161.3266	212	1.314104	0.1225434	0.1210737	1.32086e-05	0.00165686507123288
MP:0002444	abnormal T cell physiology	0.04511125	48.35926	85	1.757678	0.07929104	6.177867e-07	0.000289536602335	525	48.37035	80	1.653906	0.04624277	0.152381	4.736498e-06	0.000742308945728814
MP:0000221	decreased leukocyte cell number	0.09522692	102.0833	152	1.488981	0.141791	6.323831e-07	0.000289536602335	1071	98.67551	140	1.418792	0.08092486	0.130719	1.150116e-05	0.00146272391833333
MP:0002442	abnormal leukocyte physiology	0.102853	110.2584	161	1.460206	0.1501866	8.848909e-07	0.000385854570061905	1215	111.9428	146	1.304237	0.08439306	0.1201646	0.0004408538	0.0204918692720812
MP:0002396	abnormal hematopoietic system morphology/development	0.2284878	244.9389	312	1.273787	0.2910448	1.225409e-06	0.000510048646045455	2664	245.445	304	1.238567	0.1757225	0.1141141	2.130921e-05	0.00235094501168675
MP:0009642	abnormal blood homeostasis	0.2519191	270.0573	338	1.251586	0.3152985	1.787161e-06	0.000711523185956522	2780	256.1325	314	1.225928	0.1815029	0.1129496	3.449682e-05	0.00333922439242105
MP:0001823	thymus hypoplasia	0.01621858	17.38632	40	2.300659	0.03731343	1.887753e-06	0.000720256425875	142	13.08303	33	2.522352	0.01907514	0.2323944	4.964906e-07	0.000129896126405714
MP:0000717	abnormal lymphocyte cell number	0.09741422	104.428	152	1.455548	0.141791	2.245173e-06	0.00082236196644	1075	99.04404	144	1.453899	0.08323699	0.1339535	2.283349e-06	0.000454535365065217
MP:0001764	abnormal homeostasis	0.3383173	362.6761	435	1.199417	0.4057836	2.384746e-06	0.000828772926035714	3764	346.7924	428	1.234168	0.2473988	0.1137088	3.307702e-07	9.1783718830303e-05
MP:0002401	abnormal lymphopoiesis	0.04602465	49.33843	84	1.702527	0.07835821	2.447222e-06	0.000828772926035714	435	40.07829	74	1.846386	0.04277457	0.1701149	1.58668e-07	5.38119583703704e-05
MP:0005460	abnormal leukopoiesis	0.05259985	56.38704	93	1.649315	0.08675373	2.534197e-06	0.000828772926035714	514	47.35687	83	1.75265	0.04797688	0.1614786	2.857235e-07	8.1761565296875e-05
MP:0008247	abnormal mononuclear cell morphology	0.1294688	138.7905	191	1.376174	0.1781716	3.394556e-06	0.00107186032041379	1464	134.8842	188	1.393788	0.1086705	0.1284153	1.098149e-06	0.000264625010342105
MP:0003945	abnormal lymphocyte physiology	0.07494375	80.3397	122	1.518552	0.113806	3.745129e-06	0.00114313820843333	863	79.51164	111	1.396022	0.06416185	0.1286211	0.0001787812	0.0113246278322148
MP:0008037	abnormal T cell morphology	0.07356975	78.86677	119	1.508874	0.1110075	6.657877e-06	0.00196665095770968	831	76.56335	115	1.502024	0.06647399	0.1383875	5.537637e-06	0.000831281016540984
MP:0000685	abnormal immune system morphology	0.1916859	205.4873	263	1.279885	0.2453358	8.815119e-06	0.00252250139634375	2192	201.9577	260	1.287398	0.150289	0.1186131	5.918882e-06	0.000860304801174603
MP:0001828	abnormal T cell activation	0.02525601	27.07445	52	1.92063	0.04850746	1.002659e-05	0.00274169467676471	289	26.62672	46	1.727588	0.0265896	0.1591696	0.0001729516	0.0111254668426573
MP:0002221	abnormal lymph organ size	0.07659599	82.1109	122	1.485795	0.113806	1.017993e-05	0.00274169467676471	829	76.37908	110	1.440185	0.06358382	0.13269	5.467337e-05	0.00476803856276191
MP:0010768	mortality/aging	0.4177233	447.7994	517	1.154535	0.4822761	1.160813e-05	0.00303701846885714	4407	406.0345	509	1.253588	0.2942197	0.1154981	1.235989e-09	2.82948781825e-06
MP:0000217	abnormal leukocyte cell number	0.1322917	141.8167	191	1.346809	0.1781716	1.257567e-05	0.00319876139416667	1509	139.0302	184	1.323453	0.1063584	0.1219351	3.464304e-05	0.00333922439242105
MP:0008987	abnormal liver lobule morphology	0.01452842	15.57447	35	2.247267	0.03264925	1.317042e-05	0.00325950097135135	178	16.39985	26	1.58538	0.0150289	0.1460674	0.012473	0.193194018494983
MP:0005018	decreased T cell number	0.05199388	55.73743	89	1.596772	0.08302239	1.41012e-05	0.00339801811578947	577	53.16131	83	1.561286	0.04797688	0.1438475	2.829806e-05	0.00291152062269663
MP:0000716	abnormal immune system cell morphology	0.1494755	160.2377	211	1.316793	0.1968284	1.650439e-05	0.00383999481775	1728	159.2075	207	1.30019	0.1196532	0.1197917	3.289578e-05	0.00326863250419355
MP:0006387	abnormal T cell number	0.06893162	73.8947	111	1.502138	0.1035448	1.677403e-05	0.00383999481775	771	71.03531	105	1.478138	0.06069364	0.1361868	2.793892e-05	0.00290723511863636
MP:0002435	abnormal effector T cell morphology	0.05453683	58.46348	92	1.573632	0.0858209	1.737055e-05	0.00387956405731707	593	54.63546	88	1.610676	0.05086705	0.148398	4.782814e-06	0.000742308945728814
MP:0008246	abnormal leukocyte morphology	0.1482066	158.8775	209	1.315479	0.1949627	1.947287e-05	0.0042455492997619	1709	157.457	205	1.301943	0.1184971	0.1199532	3.319677e-05	0.00326863250419355
MP:0005094	abnormal T cell proliferation	0.0232377	24.91082	48	1.926874	0.04477612	2.010408e-05	0.00428123396651163	261	24.04697	42	1.746582	0.02427746	0.1609195	0.0002554478	0.0143505245680982
MP:0000706	small thymus	0.0275182	29.49951	54	1.830539	0.05037313	2.476136e-05	0.00515317667090909	247	22.7571	46	2.021347	0.0265896	0.1862348	2.964748e-06	0.000554044845632653
MP:0011241	abnormal fetal derived definitive erythrocyte cell number	0.001063334	1.139894	8	7.018195	0.007462687	2.534896e-05	0.00515823170488889	8	0.7370719	3	4.070159	0.001734104	0.375	0.03069958	0.32461438113164
MP:0000119	abnormal tooth eruption	0.002993123	3.208628	13	4.051575	0.01212687	3.069206e-05	0.0060044845406383	27	2.487618	12	4.823892	0.006936416	0.4444444	1.679307e-06	0.00037191591547619
MP:0000703	abnormal thymus morphology	0.04420439	47.38711	77	1.624914	0.07182836	3.081913e-05	0.0060044845406383	440	40.53896	70	1.726734	0.04046243	0.1590909	4.124465e-06	0.000699402333425926
MP:0006298	abnormal platelet activation	0.007149434	7.664193	21	2.740014	0.01958955	4.820787e-05	0.00910554700387755	85	7.831389	15	1.915369	0.00867052	0.1764706	0.01035103	0.174556872394107
MP:0012762	abnormal alpha-beta T cell morphology	0.05687545	60.97048	93	1.525328	0.08675373	4.872467e-05	0.00910554700387755	619	57.03094	88	1.543022	0.05086705	0.1421648	2.566532e-05	0.00270134868091954
MP:0002398	abnormal bone marrow cell morphology/development	0.04723173	50.63241	80	1.580016	0.07462687	5.440345e-05	0.00981821260607843	453	41.7367	71	1.701141	0.04104046	0.1567329	6.018503e-06	0.000861116124546875
MP:0005621	abnormal cell physiology	0.2671989	286.4372	344	1.200961	0.3208955	5.468263e-05	0.00981821260607843	2750	253.3685	316	1.247195	0.182659	0.1149091	7.83002e-06	0.00107014168865672
MP:0000121	failure of tooth eruption	0.00192011	2.058357	10	4.858243	0.009328358	5.730363e-05	0.00998362312283019	17	1.566278	9	5.746107	0.005202312	0.5294118	5.741861e-06	0.000848035825435484
MP:0012765	decreased alpha-beta T cell number	0.02843758	30.48508	54	1.771358	0.05037313	5.778443e-05	0.00998362312283019	303	27.9166	47	1.683586	0.02716763	0.1551155	0.0002724738	0.0148514439678571
MP:0008986	abnormal liver parenchyma morphology	0.01578839	16.92515	35	2.067928	0.03264925	6.836775e-05	0.0115933979027778	189	17.41332	26	1.493109	0.0150289	0.1375661	0.02516881	0.289536172324121
MP:0012763	abnormal alpha-beta T cell number	0.04763365	51.06327	80	1.566684	0.07462687	7.141313e-05	0.0117124359575439	517	47.63327	74	1.553536	0.04277457	0.1431335	8.876965e-05	0.00677386404208333
MP:0011181	increased hematopoietic cell number	0.09376182	100.5127	139	1.38291	0.1296642	7.260477e-05	0.0117124359575439	1084	99.87325	127	1.271612	0.0734104	0.1171587	0.002586759	0.0700130714100295
MP:0005370	liver/biliary system phenotype	0.1051125	112.6806	153	1.35782	0.1427239	7.290694e-05	0.0117124359575439	1109	102.1766	137	1.340816	0.07919075	0.1235347	0.0002045215	0.0120826024225806
MP:0002138	abnormal hepatobiliary system morphology	0.09557924	102.4609	141	1.376134	0.1315299	7.995803e-05	0.012623718632931	976	89.92278	124	1.378961	0.0716763	0.1270492	0.0001284845	0.00898116462977099
MP:0009548	abnormal platelet aggregation	0.006875657	7.370704	20	2.713445	0.01865672	8.209325e-05	0.0127411506822034	78	7.186452	14	1.94811	0.008092486	0.1794872	0.01122799	0.185921707830018
MP:0001876	decreased inflammatory response	0.01729433	18.53952	37	1.995737	0.03451493	8.731515e-05	0.0131971029263934	248	22.84923	30	1.312955	0.01734104	0.1209677	0.07473599	0.496991619774873
MP:0010191	abnormal choroid melanocyte morphology	0.0004039255	0.4330081	5	11.54713	0.004664179	8.791343e-05	0.0131971029263934	4	0.368536	2	5.426879	0.001156069	0.5	0.04487389	0.388925158687151
MP:0000598	abnormal liver morphology	0.08857946	94.95719	132	1.3901	0.1231343	9.000501e-05	0.0132931592995161	893	82.27566	114	1.385586	0.06589595	0.1276596	0.0001977891	0.0118376129980392
MP:0004939	abnormal B cell morphology	0.05562518	59.6302	90	1.509302	0.08395522	9.267628e-05	0.0134704237453968	553	50.9501	79	1.550537	0.04566474	0.1428571	5.556149e-05	0.004799778905
MP:0008073	abnormal CD4-positive, alpha beta T cell number	0.03192725	34.22602	58	1.694617	0.05410448	0.000100489	0.014377777703125	358	32.98397	54	1.637159	0.03121387	0.150838	0.0002068741	0.0121432444467949
MP:0002432	abnormal CD4-positive, alpha beta T cell morphology	0.03644958	39.07395	64	1.63792	0.05970149	0.0001150446	0.0162071292646154	403	37.13	61	1.642876	0.03526012	0.1513648	7.50898e-05	0.00597910694434783
MP:0004945	abnormal bone resorption	0.005970233	6.400089	18	2.812461	0.01679104	0.0001182207	0.0163242646970588	61	5.620174	17	3.024818	0.00982659	0.2786885	2.40734e-05	0.00259878999611765
MP:0005464	abnormal platelet physiology	0.009985469	10.70442	25	2.335483	0.0233209	0.0001208358	0.0163242646970588	110	10.13474	18	1.776069	0.01040462	0.1636364	0.01157671	0.18762466100885
MP:0006208	lethality throughout fetal growth and development	0.0469299	50.30886	78	1.550423	0.07276119	0.0001212242	0.0163242646970588	349	32.15476	65	2.021473	0.03757225	0.1862464	2.892369e-08	1.62260154735294e-05
MP:0010770	preweaning lethality	0.3598862	385.798	444	1.150861	0.4141791	0.0001367987	0.0181545753028986	3611	332.6959	421	1.26542	0.2433526	0.1165882	2.171509e-08	1.32563386086667e-05
MP:0011256	abnormal neural fold morphology	0.006051218	6.486906	18	2.77482	0.01679104	0.0001391572	0.01820374972	47	4.330298	11	2.540241	0.006358382	0.2340426	0.003041839	0.0761041522486339
MP:0010769	abnormal survival	0.3970518	425.6395	484	1.137112	0.4514925	0.0001655165	0.0213469660633803	4049	373.0505	475	1.273286	0.2745665	0.1173129	6.516578e-10	2.82948781825e-06
MP:0011099	lethality throughout fetal growth and development, complete penetrance	0.0291265	31.22361	53	1.697434	0.0494403	0.0001897648	0.0241343926888889	202	18.61107	42	2.256722	0.02427746	0.2079208	3.97664e-07	0.000107100272
MP:0002364	abnormal thymus size	0.03279738	35.15879	58	1.649658	0.05410448	0.0001987435	0.0246991637256757	331	30.49635	51	1.672331	0.02947977	0.1540785	0.0001813237	0.0113246278322148
MP:0000245	abnormal erythropoiesis	0.01218884	13.06644	28	2.142894	0.0261194	0.0001996001	0.0246991637256757	110	10.13474	20	1.97341	0.01156069	0.1818182	0.00237666	0.0651589090419162
MP:0008549	abnormal circulating interferon-alpha level	0.0007630471	0.8179865	6	7.335084	0.005597015	0.0002053347	0.025069997972	16	1.474144	5	3.391799	0.002890173	0.3125	0.0121436	0.193194018494983
MP:0000691	enlarged spleen	0.03286867	35.23522	58	1.64608	0.05410448	0.0002097803	0.0252757658828947	384	35.37945	51	1.441515	0.02947977	0.1328125	0.005031734	0.111025513826506
MP:0000607	abnormal hepatocyte morphology	0.01100716	11.79967	26	2.203451	0.02425373	0.0002184409	0.0259774457311688	129	11.88529	18	1.514478	0.01040462	0.1395349	0.04925796	0.409888489854941
MP:0010935	increased airway resistance	0.0007788361	0.8349123	6	7.186383	0.005597015	0.0002289072	0.0268731183384615	8	0.7370719	3	4.070159	0.001734104	0.375	0.03069958	0.32461438113164
MP:0001654	hepatic necrosis	0.006930146	7.429117	19	2.557505	0.01772388	0.0002543179	0.0291117535209877	68	6.265112	12	1.915369	0.006936416	0.1764706	0.02051861	0.258487287969822
MP:0002397	abnormal bone marrow morphology	0.00421976	4.523582	14	3.094892	0.0130597	0.0002547178	0.0291117535209877	43	3.961762	11	2.776543	0.006358382	0.255814	0.001413829	0.0467380222129964
MP:0009549	decreased platelet aggregation	0.004742408	5.083862	15	2.950513	0.01399254	0.0002575136	0.0291117535209877	60	5.52804	10	1.80896	0.005780347	0.1666667	0.04627368	0.390007571268382
MP:0012542	abnormal neuropore morphology	0.008720833	9.348733	22	2.35326	0.02052239	0.000271074	0.0302710319268293	70	6.44938	15	2.325805	0.00867052	0.2142857	0.001528825	0.0494680230565371
MP:0014001	abnormal vertebral artery topology	0.002346597	2.515552	10	3.97527	0.009328358	0.0002842616	0.0313612466409639	24	2.211216	8	3.617919	0.004624277	0.3333333	0.0009764979	0.0356246664155379
MP:0013658	abnormal myeloid cell morphology	0.1367438	146.5894	187	1.275672	0.1744403	0.000294281	0.0320801323452381	1547	142.5313	168	1.178689	0.09710983	0.1085973	0.01220627	0.193194018494983
MP:0013560	abnormal endocrine gland morphology	0.08630145	92.51516	126	1.361939	0.1175373	0.0002980049	0.03210389258	777	71.58811	110	1.536568	0.06358382	0.1415701	3.116209e-06	0.00057070251626
MP:0004721	abnormal platelet dense granule morphology	0.002365511	2.535828	10	3.943486	0.009328358	0.000302561	0.0322157101976744	25	2.30335	6	2.604902	0.003468208	0.24	0.02326964	0.278943800191083
MP:0003720	abnormal neural tube closure	0.03419701	36.6592	59	1.609419	0.05503731	0.000325148	0.0342227613333333	283	26.07392	48	1.84092	0.02774566	0.1696113	2.48833e-05	0.00264949276860465
MP:0001930	abnormal meiosis	0.01387801	14.87723	30	2.016505	0.02798507	0.0003298779	0.0343260446625	175	16.12345	24	1.488515	0.01387283	0.1371429	0.03152659	0.330307762734554
MP:0002993	arthritis	0.00827847	8.87452	21	2.366325	0.01958955	0.0003437614	0.0353687993235955	117	10.77968	16	1.484274	0.009248555	0.1367521	0.07077029	0.483975762158327
MP:0005461	abnormal dendritic cell morphology	0.008890317	9.53042	22	2.308398	0.02052239	0.000350202	0.0356311079333333	116	10.68754	15	1.403503	0.00867052	0.1293103	0.1128088	0.562018597170838
MP:0005605	increased bone mass	0.007138277	7.652233	19	2.482935	0.01772388	0.0003637565	0.036603497478022	68	6.265112	17	2.713439	0.00982659	0.25	0.0001082766	0.00774695792421875
MP:0004867	decreased platelet calcium level	0.00030561	0.3276139	4	12.20949	0.003731343	0.000368145	0.0366424322282609	5	0.46067	3	6.512254	0.001734104	0.6	0.006770806	0.135906230354486
MP:0010868	increased bone trabecula number	0.003872565	4.15139	13	3.131481	0.01212687	0.0003738515	0.0368103030698925	40	3.68536	12	3.256127	0.006936416	0.3	0.0001737405	0.0111254668426573
MP:0002933	joint inflammation	0.008943548	9.587484	22	2.294658	0.02052239	0.000378913	0.0369117695851064	125	11.51675	17	1.476111	0.00982659	0.136	0.06673884	0.483120707642643
MP:0004837	abnormal neural fold formation	0.003886959	4.16682	13	3.119885	0.01212687	0.0003869275	0.0372957380789474	28	2.579752	8	3.101073	0.004624277	0.2857143	0.002958456	0.0756720156201117
MP:0002722	abnormal immune system organ morphology	0.1042417	111.7471	147	1.315471	0.1371269	0.0004109749	0.0392010120760417	1142	105.217	138	1.311575	0.07976879	0.1208406	0.0004998691	0.0222185536048077
MP:0010193	abnormal choroid melanin granule morphology	0.0003176447	0.3405151	4	11.74691	0.003731343	0.0004253038	0.0401495556350515	3	0.276402	1	3.617919	0.0005780347	0.3333333	0.2517302	0.752708379824276
MP:0000599	enlarged liver	0.01682815	18.03978	34	1.884724	0.03171642	0.0004546985	0.0424864710663265	175	16.12345	30	1.860644	0.01734104	0.1714286	0.0006439471	0.0263242124763393
MP:0005169	abnormal male meiosis	0.01159027	12.42477	26	2.092594	0.02425373	0.0004685991	0.0433430500878788	148	13.63583	20	1.466724	0.01156069	0.1351351	0.05283387	0.425254356064572
MP:0000928	incomplete rostral neuropore closure	0.00848973	9.10099	21	2.307441	0.01958955	0.0004739202	0.0433712238663366	67	6.172978	14	2.267949	0.008092486	0.2089552	0.00277549	0.0734542252312139
MP:0008195	abnormal professional antigen presenting cell morphology	0.07925522	84.9616	116	1.365323	0.108209	0.0004783765	0.0433712238663366	819	75.45774	104	1.378255	0.06011561	0.1269841	0.0004509154	0.020645161589
MP:0013661	abnormal myeloid cell number	0.04543299	48.70416	73	1.498845	0.06809701	0.0005116213	0.0459305514127451	448	41.27603	61	1.477855	0.03526012	0.1361607	0.001277282	0.0431589345904059
MP:0003560	osteoarthritis	0.001664936	1.784811	8	4.482266	0.007462687	0.0005233879	0.0465307087407767	18	1.658412	6	3.617919	0.003468208	0.3333333	0.004255313	0.0981508844861461
MP:0003799	impaired macrophage chemotaxis	0.003520861	3.774363	12	3.179344	0.01119403	0.0005423416	0.0477521349153846	39	3.593226	10	2.783015	0.005780347	0.2564103	0.002261678	0.0629488919331307
MP:0002224	abnormal spleen size	0.05646446	60.5299	87	1.437306	0.08115672	0.0005614495	0.0489637435380952	602	55.46466	77	1.388271	0.04450867	0.127907	0.001943765	0.0581089201140065
