ID	name	Binom_Genome_Fraction	Binom_Expected	Binom_Observed_Region_Hits	Binom_Fold_Enrichment	Binom_Region_Set_Coverage	Binom_Raw_PValue	Binom_Adjp_BH	Hyper_Total_Genes	Hyper_Expected	Hyper_Observed_Gene_Hits	Hyper_Fold_Enrichment	Hyper_Gene_Set_Coverage	Hyper_Term_Gene_Coverage	Hyper_Raw_PValue	Hyper_Adjp_BH
17914	PLEKHF2	8.245158e-05	0.08838809	4	45.25496	0.003731343	2.35711e-06	0.025563327009	1	0.09213399	1	10.85376	0.0005780347	1	0.09213399	0.99999995967052
837	C1orf52	2.384334e-05	0.02556006	3	117.3706	0.002798507	2.722834e-06	0.025563327009	1	0.09213399	1	10.85376	0.0005780347	1	0.09213399	0.99999995967052
