AR	HS_D737_C261_J4_T1_AR,HS_D740_C298_J4_T1_AR,HS_D751_C261_J4_T1_AR,HS_D750_C261_J4_T1_AR,HS_D810_C261_J4_T1_AR,HS_D811_C471_J4_T1_AR,HS_D812_C471_J4_T1_AR,HS_D851_C471_J4_T1_AR,HS_D853_C471_J4_T1_AR,HS_D855_C261_J4_T1_AR,HS_D856_C261_J4_T1_AR,HS_D857_C471_J4_T1_AR,HS_D858_C471_J4_T1_AR,HS_D861_C307_J4_T1_AR,HS_D930_C261_J4_T1_AR,HS_D931_C261_J4_T1_AR,HS_D934_C261_J4_T1_AR,HS_D935_C261_J4_T1_AR,HS_D936_C471_J4_T1_AR,HS_D958_C471_J4_T1_AR,HS_D959_C473_J4_T1_AR,HS_D1007_C261_J4_T1_AR,HS_D1008_C261_J4_T1_AR,HS_D1009_C261_J4_T1_AR,HS_D1013_C261_J4_T1_AR,HS_D1015_C261_J4_T1_AR,HS_D1018_C261_J4_T1_AR,HS_D1020_C261_J4_T1_AR,HS_D1021_C261_J4_T1_AR,HS_D1023_C185_J4_T1_AR,HS_D1024_C185_J4_T1_AR,HS_D1029_C261_J4_T1_AR,HS_D1042_C262_J4_T1_AR,HS_D1043_C261_J4_T1_AR,HS_D1044_C261_J4_T1_AR,HS_D1052_C356_J4_T1_AR,HS_D1073_C75_J4_T1_AR,HS_D1074_C75_J4_T1_AR,HS_D1075_C75_J4_T1_AR,HS_D1076_C75_J4_T1_AR,HS_D1085_C262_J4_T1_AR,HS_D1086_C261_J4_T1_AR,HS_D1087_C261_J4_T1_AR,HS_D1088_C31_J4_T1_AR,HS_D1133_C471_J4_T1_AR,HS_D1134_C471_J4_T1_AR,HS_D1137_C261_J4_T1_AR,HS_D1138_C261_J4_T1_AR,HS_D1168_C261_J4_T1_AR,HS_D1169_C261_J4_T1_AR,HS_D1170_C261_J4_T1_AR,HS_D1171_C261_J4_T1_AR,HS_D1282_C261_J4_T1_AR,HS_D1283_C261_J4_T1_AR,HS_D1306_C261_J4_T1_AR,HS_D1307_C261_J4_T1_AR,HS_D1430_C471_J4_T1_AR,HS_D1431_C261_J4_T1_AR,HS_D1432_C261_J4_T1_AR,HS_D1507_C3_J4_T1_AR,HS_D1554_C471_J4_T1_AR,HS_D1744_C40_J4_T1_AR,HS_D1745_C282_J4_T1_AR,HS_D1919_C261_J4_T1_AR,HS_D1920_C261_J4_T1_AR,HS_D1929_C184_J4_T1_AR,HS_D1930_C184_J4_T1_AR,HS_D2075_C265_J4_T1_AR,HS_D2082_C3_J4_T1_AR,HS_D2083_C3_J4_T1_AR,HS_D2084_C3_J4_T1_AR,HS_D2097_C261_J4_T1_AR,HS_D2098_C261_J4_T1_AR,HS_D2102_C3_J4_T1_AR,HS_D2107_C3_J4_T1_AR,HS_D2125_C3_J4_T1_AR,HS_D2126_C3_J4_T1_AR,HS_D2127_C3_J4_T1_AR,HS_D2130_C261_J4_T1_AR,HS_D2131_C261_J4_T1_AR,HS_D2132_C261_J4_T1_AR,HS_D2133_C261_J4_T1_AR,HS_D2134_C261_J4_T1_AR,HS_D2135_C261_J4_T1_AR,HS_D2136_C261_J4_T1_AR,HS_D2137_C261_J4_T1_AR,HS_D2167_C3_J4_T1_AR,HS_D2168_C3_J4_T1_AR,HS_D2169_C3_J4_T1_AR,HS_D2170_C3_J4_T1_AR,HS_D2171_C472_J4_T1_AR,HS_D2172_C472_J4_T1_AR,HS_D2173_C274_J4_T1_AR,HS_D2191_C261_J4_T1_AR,HS_D2201_C385_J4_T1_AR,HS_D2256_C266_J4_T1_AR,HS_D2257_C266_J4_T1_AR,HS_D2258_C266_J4_T1_AR,HS_D2259_C266_J4_T1_AR,HS_D2260_C266_J4_T1_AR,HS_D2261_C266_J4_T1_AR,HS_D2262_C266_J4_T1_AR,HS_D2267_C261_J4_T1_AR,HS_D2268_C261_J4_T1_AR,HS_D2269_C261_J4_T1_AR,HS_D2303_C261_J4_T1_AR,HS_D2304_C261_J4_T1_AR,HS_D2311_C380_J4_T1_AR,HS_D2316_C380_J4_T1_AR,HS_D2366_C261_J4_T1_AR,HS_D2472_C261_J4_T1_AR,HS_D2473_C261_J4_T1_AR,HS_D2524_C471_J4_T1_AR,HS_D2520_C471_J4_T1_AR,HS_D2522_C471_J4_T1_AR,HS_D2544_C261_J4_T1_AR,HS_D2541_C261_J4_T1_AR,HS_D2566_C471_J4_T1_AR,HS_D2565_C471_J4_T1_AR,HS_D2561_C471_J4_T1_AR,HS_D2562_C471_J4_T1_AR,HS_D2563_C471_J4_T1_AR,HS_D2564_C471_J4_T1_AR,HS_D2612_C263_J4_T1_AR,HS_D2615_C1_J4_T1_AR,HS_D2651_C261_J4_T1_AR,HS_D2653_C1_J4_T1_AR,HS_D2665_C1_J4_T1_AR,HS_D2691_C261_J4_T1_AR,HS_D2700_C89_J4_T1_AR,HS_D2695_C89_J4_T1_AR,HS_D2697_C89_J4_T1_AR,HS_D2766_C261_J4_T1_AR,HS_D2767_C261_J4_T1_AR,HS_D2775_C366_J4_T1_AR,HS_D2774_C366_J4_T1_AR,HS_D2782_C1_J4_T1_AR,HS_D2783_C1_J4_T1_AR,HS_D2797_C471_J4_T1_AR,HS_D2795_C471_J4_T1_AR,HS_D2798_C259_J4_T1_AR,HS_D2799_C259_J4_T1_AR,HS_D2802_C1_J4_T1_AR,HS_D2804_C381_J4_T1_AR,HS_D2803_C381_J4_T1_AR,HS_D2829_C261_J4_T1_AR,HS_D2835_C471_J4_T1_AR,HS_D2832_C471_J4_T1_AR,HS_D2833_C471_J4_T1_AR,HS_D2834_C471_J4_T1_AR,HS_D2838_C1_J4_T1_AR,HS_D2839_C1_J4_T1_AR,HS_D2899_C263_J4_T1_AR,HS_D2900_C261_J4_T1_AR,HS_D2901_C261_J4_T1_AR,HS_D2902_C261_J4_T1_AR,HS_D2904_C381_J4_T1_AR,HS_D2917_C261_J4_T1_AR,HS_D2918_C261_J4_T1_AR,HS_D2919_C261_J4_T1_AR,HS_D2931_C261_J4_T1_AR,HS_D2942_C261_J4_T1_AR,HS_D2949_C381_J4_T1_AR,HS_D2950_C381_J4_T1_AR,HS_D3004_C261_J4_T1_AR,HS_D3005_C261_J4_T1_AR,HS_D3032_C298_J4_T1_AR,HS_D3033_C298_J4_T1_AR,HS_D3043_C90_J4_T1_AR,HS_D3057_C1_J4_T1_AR,HS_D3058_C1_J4_T1_AR,HS_D3083_C263_J4_T1_AR,HS_D3088_C298_J4_T1_AR,HS_D3089_C298_J4_T1_AR,HS_D3117_C471_J4_T1_AR,HS_D3119_C471_J4_T1_AR,HS_D3120_C471_J4_T1_AR,HS_D3122_C471_J4_T1_AR,HS_D3123_C471_J4_T1_AR,HS_D3125_C471_J4_T1_AR,HS_D3126_C471_J4_T1_AR,HS_D3146_C261_J4_T1_AR,HS_D3143_C261_J4_T1_AR,HS_D3153_C471_J4_T1_AR,HS_D3154_C471_J4_T1_AR
ARNT	HS_D598_C148_J3_T2_ARNT,HS_D1250_C391_J3_T2_ARNT,HS_D2861_C440_J3_T2_ARNT,HS_D2969_C1_J3_T2_ARNT
ASCL1	HS_D1405_C121_J212_T3_ASCL1,HS_D2898_C1_J212_T3_ASCL1,HS_D2897_C1_J212_T3_ASCL1,HS_D3007_C328_J212_T3_ASCL1,HS_D3008_C329_J212_T3_ASCL1,HS_D3010_C335_J212_T3_ASCL1,HS_D3011_C336_J212_T3_ASCL1
ASCL1-VAR2	HS_D937_C117_J256_T3_ASCL1-VAR2
ATF2	HS_D459_C194_J257_T4_ATF2,HS_D674_C241_J257_T4_ATF2,HS_D692_C148_J257_T4_ATF2,HS_D1681_C185_J257_T4_ATF2
ATF3	HS_D64_C148_J129_T5_ATF3,HS_D67_C474_J129_T5_ATF3,HS_D69_C194_J129_T5_ATF3,HS_D113_C241_J129_T5_ATF3,HS_D122_C10_J129_T5_ATF3,HS_D185_C181_J129_T5_ATF3,HS_D453_C241_J129_T5_ATF3,HS_D499_C260_J129_T5_ATF3,HS_D561_C260_J129_T5_ATF3,HS_D961_C128_J129_T5_ATF3,HS_D1314_C84_J129_T5_ATF3,HS_D1602_C241_J129_T5_ATF3,HS_D3090_C181_J129_T5_ATF3
ATF4	HS_D487_C241_J197_T6_ATF4,HS_D1092_C173_J197_T6_ATF4,HS_D1093_C173_J197_T6_ATF4,HS_D1094_C173_J197_T6_ATF4
ATF7	HS_D446_C148_J198_T7_ATF7,HS_D584_C194_J198_T7_ATF7,HS_D672_C288_J198_T7_ATF7
BACH2	HS_D1733_C26_J213_T8_BACH2,HS_D1734_C26_J213_T8_BACH2,HS_D2660_C353_J213_T8_BACH2,HS_D3017_C88_J213_T8_BACH2,HS_D3021_C353_J213_T8_BACH2
BATF3	HS_D1523_C148_J199_T9_BATF3,HS_D2174_C426_J199_T9_BATF3,HS_D2175_C251_J199_T9_BATF3
BCL6	HS_D1739_C350_J70_T10_BCL6,HS_D2264_C350_J70_T10_BCL6,HS_D2265_C350_J70_T10_BCL6,HS_D2855_C1_J70_T10_BCL6
BCL6B	HS_D614_C185_J156_T11_BCL6B
BHLHE22	HS_D2656_C49_J192_T12_BHLHE22
BHLHE40	HS_D43_C194_J71_T13_BHLHE40,HS_D321_C10_J71_T13_BHLHE40,HS_D359_C194_J71_T13_BHLHE40,HS_D395_C241_J71_T13_BHLHE40,HS_D578_C148_J71_T13_BHLHE40,HS_D702_C148_J71_T13_BHLHE40,HS_D1689_C229_J71_T13_BHLHE40
CDX2	HS_D1176_C216_J72_T14_CDX2,HS_D1514_C272_J72_T14_CDX2,HS_D2456_C478_J72_T14_CDX2,HS_D2457_C321_J72_T14_CDX2,HS_D2495_C48_J72_T14_CDX2,HS_D2540_C66_J72_T14_CDX2,HS_D2558_C273_J72_T14_CDX2,HS_D2555_C273_J72_T14_CDX2
CEBPA	HS_D707_C194_J43_T15_CEBPA,HS_D746_C260_J43_T15_CEBPA,HS_D776_C462_J43_T15_CEBPA,HS_D823_C306_J43_T15_CEBPA,HS_D896_C462_J43_T15_CEBPA,HS_D897_C462_J43_T15_CEBPA,HS_D949_C194_J43_T15_CEBPA,HS_D1397_C420_J43_T15_CEBPA,HS_D1407_C316_J43_T15_CEBPA,HS_D1724_C194_J43_T15_CEBPA,HS_D1829_C420_J43_T15_CEBPA,HS_D1830_C420_J43_T15_CEBPA,HS_D1831_C243_J43_T15_CEBPA,HS_D1832_C243_J43_T15_CEBPA,HS_D2328_C462_J43_T15_CEBPA,HS_D2336_C448_J43_T15_CEBPA,HS_D2337_C448_J43_T15_CEBPA,HS_D2338_C448_J43_T15_CEBPA,HS_D2339_C448_J43_T15_CEBPA,HS_D2340_C448_J43_T15_CEBPA,HS_D2341_C448_J43_T15_CEBPA,HS_D2455_C243_J43_T15_CEBPA,HS_D2636_C409_J43_T15_CEBPA,HS_D2867_C243_J43_T15_CEBPA
CEBPB	HS_D130_C194_J73_T16_CEBPB,HS_D143_C241_J73_T16_CEBPB,HS_D149_C181_J73_T16_CEBPB,HS_D161_C288_J73_T16_CEBPB,HS_D179_C235_J73_T16_CEBPB,HS_D182_C10_J73_T16_CEBPB,HS_D320_C10_J73_T16_CEBPB,HS_D339_C474_J73_T16_CEBPB,HS_D352_C192_J73_T16_CEBPB,HS_D365_C194_J73_T16_CEBPB,HS_D372_C194_J73_T16_CEBPB,HS_D378_C229_J73_T16_CEBPB,HS_D398_C241_J73_T16_CEBPB,HS_D616_C148_J73_T16_CEBPB,HS_D1400_C433_J73_T16_CEBPB,HS_D1401_C433_J73_T16_CEBPB,HS_D1402_C433_J73_T16_CEBPB,HS_D1403_C433_J73_T16_CEBPB,HS_D1408_C316_J73_T16_CEBPB,HS_D1530_C313_J73_T16_CEBPB,HS_D1531_C313_J73_T16_CEBPB,HS_D1616_C10_J73_T16_CEBPB,HS_D1618_C10_J73_T16_CEBPB,HS_D1624_C10_J73_T16_CEBPB,HS_D1625_C10_J73_T16_CEBPB,HS_D1626_C10_J73_T16_CEBPB,HS_D1669_C10_J73_T16_CEBPB,HS_D1677_C10_J73_T16_CEBPB,HS_D1688_C10_J73_T16_CEBPB,HS_D1691_C10_J73_T16_CEBPB,HS_D1717_C10_J73_T16_CEBPB,HS_D1722_C10_J73_T16_CEBPB,HS_D1725_C10_J73_T16_CEBPB,HS_D1741_C313_J73_T16_CEBPB,HS_D1742_C349_J73_T16_CEBPB,HS_D1743_C349_J73_T16_CEBPB,HS_D1761_C202_J73_T16_CEBPB,HS_D1875_C448_J73_T16_CEBPB,HS_D1876_C448_J73_T16_CEBPB,HS_D1877_C448_J73_T16_CEBPB,HS_D1878_C448_J73_T16_CEBPB,HS_D1932_C184_J73_T16_CEBPB,HS_D1933_C184_J73_T16_CEBPB,HS_D1934_C184_J73_T16_CEBPB,HS_D1935_C184_J73_T16_CEBPB,HS_D2322_C236_J73_T16_CEBPB,HS_D2323_C236_J73_T16_CEBPB,HS_D2325_C428_J73_T16_CEBPB,HS_D2326_C428_J73_T16_CEBPB,HS_D2554_C1_J73_T16_CEBPB,HS_D2559_C273_J73_T16_CEBPB,HS_D2556_C273_J73_T16_CEBPB,HS_D2961_C1_J73_T16_CEBPB,HS_D2994_C1_J73_T16_CEBPB,HS_D2992_C1_J73_T16_CEBPB,HS_D2993_C1_J73_T16_CEBPB,HS_D3141_C198_J73_T16_CEBPB
CEBPD	HS_D1415_C172_J200_T17_CEBPD
CEBPG	HS_D566_C241_J201_T18_CEBPG,HS_D604_C241_J201_T18_CEBPG,HS_D1610_C194_J201_T18_CEBPG
CREB1	HS_D134_C10_J8_T19_CREB1,HS_D135_C10_J8_T19_CREB1,HS_D157_C474_J8_T19_CREB1,HS_D158_C241_J8_T19_CREB1,HS_D184_C148_J8_T19_CREB1,HS_D192_C235_J8_T19_CREB1,HS_D207_C194_J8_T19_CREB1,HS_D476_C194_J8_T19_CREB1,HS_D603_C288_J8_T19_CREB1,HS_D678_C288_J8_T19_CREB1,HS_D1939_C293_J8_T19_CREB1,HS_D1940_C293_J8_T19_CREB1,HS_D2929_C265_J8_T19_CREB1,HS_D2926_C261_J8_T19_CREB1,HS_D3091_C248_J8_T19_CREB1
CREM	HS_D468_C241_J130_T20_CREM,HS_D662_C148_J130_T20_CREM,HS_D1699_C194_J130_T20_CREM
CTCF	HS_D1_C288_J56_T21_CTCF,HS_D2_C148_J56_T21_CTCF,HS_D3_C241_J56_T21_CTCF,HS_D4_C225_J56_T21_CTCF,HS_D5_C246_J56_T21_CTCF,HS_D6_C281_J56_T21_CTCF,HS_D7_C194_J56_T21_CTCF,HS_D8_C474_J56_T21_CTCF,HS_D9_C419_J56_T21_CTCF,HS_D10_C346_J56_T21_CTCF,HS_D11_C319_J56_T21_CTCF,HS_D12_C192_J56_T21_CTCF,HS_D13_C25_J56_T21_CTCF,HS_D14_C355_J56_T21_CTCF,HS_D15_C114_J56_T21_CTCF,HS_D16_C87_J56_T21_CTCF,HS_D18_C52_J56_T21_CTCF,HS_D19_C10_J56_T21_CTCF,HS_D20_C10_J56_T21_CTCF,HS_D21_C26_J56_T21_CTCF,HS_D40_C10_J56_T21_CTCF,HS_D41_C10_J56_T21_CTCF,HS_D44_C194_J56_T21_CTCF,HS_D89_C418_J56_T21_CTCF,HS_D105_C474_J56_T21_CTCF,HS_D110_C440_J56_T21_CTCF,HS_D119_C241_J56_T21_CTCF,HS_D128_C235_J56_T21_CTCF,HS_D150_C181_J56_T21_CTCF,HS_D214_C79_J56_T21_CTCF,HS_D215_C132_J56_T21_CTCF,HS_D216_C133_J56_T21_CTCF,HS_D218_C148_J56_T21_CTCF,HS_D219_C149_J56_T21_CTCF,HS_D220_C150_J56_T21_CTCF,HS_D221_C151_J56_T21_CTCF,HS_D222_C160_J56_T21_CTCF,HS_D223_C161_J56_T21_CTCF,HS_D224_C162_J56_T21_CTCF,HS_D225_C163_J56_T21_CTCF,HS_D226_C474_J56_T21_CTCF,HS_D228_C192_J56_T21_CTCF,HS_D230_C194_J56_T21_CTCF,HS_D232_C225_J56_T21_CTCF,HS_D233_C241_J56_T21_CTCF,HS_D234_C249_J56_T21_CTCF,HS_D235_C264_J56_T21_CTCF,HS_D236_C264_J56_T21_CTCF,HS_D237_C277_J56_T21_CTCF,HS_D238_C288_J56_T21_CTCF,HS_D239_C288_J56_T21_CTCF,HS_D242_C288_J56_T21_CTCF,HS_D243_C288_J56_T21_CTCF,HS_D244_C288_J56_T21_CTCF,HS_D245_C303_J56_T21_CTCF,HS_D246_C10_J56_T21_CTCF,HS_D247_C246_J56_T21_CTCF,HS_D248_C363_J56_T21_CTCF,HS_D249_C425_J56_T21_CTCF,HS_D262_C10_J56_T21_CTCF,HS_D263_C16_J56_T21_CTCF,HS_D264_C17_J56_T21_CTCF,HS_D265_C18_J56_T21_CTCF,HS_D266_C19_J56_T21_CTCF,HS_D267_C20_J56_T21_CTCF,HS_D268_C23_J56_T21_CTCF,HS_D269_C28_J56_T21_CTCF,HS_D270_C34_J56_T21_CTCF,HS_D271_C48_J56_T21_CTCF,HS_D272_C131_J56_T21_CTCF,HS_D273_C135_J56_T21_CTCF,HS_D274_C136_J56_T21_CTCF,HS_D275_C137_J56_T21_CTCF,HS_D276_C138_J56_T21_CTCF,HS_D277_C139_J56_T21_CTCF,HS_D278_C140_J56_T21_CTCF,HS_D279_C141_J56_T21_CTCF,HS_D280_C142_J56_T21_CTCF,HS_D281_C144_J56_T21_CTCF,HS_D282_C145_J56_T21_CTCF,HS_D283_C146_J56_T21_CTCF,HS_D284_C147_J56_T21_CTCF,HS_D285_C219_J56_T21_CTCF,HS_D286_C220_J56_T21_CTCF,HS_D287_C221_J56_T21_CTCF,HS_D288_C222_J56_T21_CTCF,HS_D289_C180_J56_T21_CTCF,HS_D290_C181_J56_T21_CTCF,HS_D291_C109_J56_T21_CTCF,HS_D292_C185_J56_T21_CTCF,HS_D293_C192_J56_T21_CTCF,HS_D294_C194_J56_T21_CTCF,HS_D295_C379_J56_T21_CTCF,HS_D296_C197_J56_T21_CTCF,HS_D297_C202_J56_T21_CTCF,HS_D298_C281_J56_T21_CTCF,HS_D299_C115_J56_T21_CTCF,HS_D300_C116_J56_T21_CTCF,HS_D301_C346_J56_T21_CTCF,HS_D302_C250_J56_T21_CTCF,HS_D303_C393_J56_T21_CTCF,HS_D304_C225_J56_T21_CTCF,HS_D305_C224_J56_T21_CTCF,HS_D306_C241_J56_T21_CTCF,HS_D307_C288_J56_T21_CTCF,HS_D308_C325_J56_T21_CTCF,HS_D309_C379_J56_T21_CTCF,HS_D310_C246_J56_T21_CTCF,HS_D311_C346_J56_T21_CTCF,HS_D312_C105_J56_T21_CTCF,HS_D313_C43_J56_T21_CTCF,HS_D314_C418_J56_T21_CTCF,HS_D315_C476_J56_T21_CTCF,HS_D316_C477_J56_T21_CTCF,HS_D318_C10_J56_T21_CTCF,HS_D377_C229_J56_T21_CTCF,HS_D389_C241_J56_T21_CTCF,HS_D408_C418_J56_T21_CTCF,HS_D443_C111_J56_T21_CTCF,HS_D445_C15_J56_T21_CTCF,HS_D451_C466_J56_T21_CTCF,HS_D452_C353_J56_T21_CTCF,HS_D454_C425_J56_T21_CTCF,HS_D456_C119_J56_T21_CTCF,HS_D457_C435_J56_T21_CTCF,HS_D461_C33_J56_T21_CTCF,HS_D463_C398_J56_T21_CTCF,HS_D465_C122_J56_T21_CTCF,HS_D466_C350_J56_T21_CTCF,HS_D467_C110_J56_T21_CTCF,HS_D470_C88_J56_T21_CTCF,HS_D471_C354_J56_T21_CTCF,HS_D474_C454_J56_T21_CTCF,HS_D477_C242_J56_T21_CTCF,HS_D481_C431_J56_T21_CTCF,HS_D482_C339_J56_T21_CTCF,HS_D488_C123_J56_T21_CTCF,HS_D490_C427_J56_T21_CTCF,HS_D491_C70_J56_T21_CTCF,HS_D494_C123_J56_T21_CTCF,HS_D496_C104_J56_T21_CTCF,HS_D498_C362_J56_T21_CTCF,HS_D500_C123_J56_T21_CTCF,HS_D502_C412_J56_T21_CTCF,HS_D503_C354_J56_T21_CTCF,HS_D504_C425_J56_T21_CTCF,HS_D505_C454_J56_T21_CTCF,HS_D508_C181_J56_T21_CTCF,HS_D509_C367_J56_T21_CTCF,HS_D510_C193_J56_T21_CTCF,HS_D511_C269_J56_T21_CTCF,HS_D512_C260_J56_T21_CTCF,HS_D513_C422_J56_T21_CTCF,HS_D515_C471_J56_T21_CTCF,HS_D516_C363_J56_T21_CTCF,HS_D522_C403_J56_T21_CTCF,HS_D523_C39_J56_T21_CTCF,HS_D524_C363_J56_T21_CTCF,HS_D526_C261_J56_T21_CTCF,HS_D530_C110_J56_T21_CTCF,HS_D531_C366_J56_T21_CTCF,HS_D535_C369_J56_T21_CTCF,HS_D539_C369_J56_T21_CTCF,HS_D540_C468_J56_T21_CTCF,HS_D541_C311_J56_T21_CTCF,HS_D543_C363_J56_T21_CTCF,HS_D545_C369_J56_T21_CTCF,HS_D547_C122_J56_T21_CTCF,HS_D548_C252_J56_T21_CTCF,HS_D549_C452_J56_T21_CTCF,HS_D552_C15_J56_T21_CTCF,HS_D553_C111_J56_T21_CTCF,HS_D555_C263_J56_T21_CTCF,HS_D556_C267_J56_T21_CTCF,HS_D557_C452_J56_T21_CTCF,HS_D562_C425_J56_T21_CTCF,HS_D563_C363_J56_T21_CTCF,HS_D567_C450_J56_T21_CTCF,HS_D568_C357_J56_T21_CTCF,HS_D570_C441_J56_T21_CTCF,HS_D577_C435_J56_T21_CTCF,HS_D581_C418_J56_T21_CTCF,HS_D583_C183_J56_T21_CTCF,HS_D586_C357_J56_T21_CTCF,HS_D587_C427_J56_T21_CTCF,HS_D589_C454_J56_T21_CTCF,HS_D590_C110_J56_T21_CTCF,HS_D591_C288_J56_T21_CTCF,HS_D595_C363_J56_T21_CTCF,HS_D599_C470_J56_T21_CTCF,HS_D600_C454_J56_T21_CTCF,HS_D601_C11_J56_T21_CTCF,HS_D602_C427_J56_T21_CTCF,HS_D607_C170_J56_T21_CTCF,HS_D609_C470_J56_T21_CTCF,HS_D610_C39_J56_T21_CTCF,HS_D611_C123_J56_T21_CTCF,HS_D613_C447_J56_T21_CTCF,HS_D615_C261_J56_T21_CTCF,HS_D618_C425_J56_T21_CTCF,HS_D619_C39_J56_T21_CTCF,HS_D620_C451_J56_T21_CTCF,HS_D623_C222_J56_T21_CTCF,HS_D627_C383_J56_T21_CTCF,HS_D628_C412_J56_T21_CTCF,HS_D636_C450_J56_T21_CTCF,HS_D638_C435_J56_T21_CTCF,HS_D639_C111_J56_T21_CTCF,HS_D641_C454_J56_T21_CTCF,HS_D642_C15_J56_T21_CTCF,HS_D643_C111_J56_T21_CTCF,HS_D646_C340_J56_T21_CTCF,HS_D648_C183_J56_T21_CTCF,HS_D652_C468_J56_T21_CTCF,HS_D653_C369_J56_T21_CTCF,HS_D654_C119_J56_T21_CTCF,HS_D655_C119_J56_T21_CTCF,HS_D656_C338_J56_T21_CTCF,HS_D657_C452_J56_T21_CTCF,HS_D658_C383_J56_T21_CTCF,HS_D659_C454_J56_T21_CTCF,HS_D661_C111_J56_T21_CTCF,HS_D665_C3_J56_T21_CTCF,HS_D668_C404_J56_T21_CTCF,HS_D669_C3_J56_T21_CTCF,HS_D681_C15_J56_T21_CTCF,HS_D682_C454_J56_T21_CTCF,HS_D684_C399_J56_T21_CTCF,HS_D686_C412_J56_T21_CTCF,HS_D690_C450_J56_T21_CTCF,HS_D691_C24_J56_T21_CTCF,HS_D693_C466_J56_T21_CTCF,HS_D695_C466_J56_T21_CTCF,HS_D696_C466_J56_T21_CTCF,HS_D700_C441_J56_T21_CTCF,HS_D701_C164_J56_T21_CTCF,HS_D706_C122_J56_T21_CTCF,HS_D708_C194_J56_T21_CTCF,HS_D710_C288_J56_T21_CTCF,HS_D711_C288_J56_T21_CTCF,HS_D725_C288_J56_T21_CTCF,HS_D716_C288_J56_T21_CTCF,HS_D720_C288_J56_T21_CTCF,HS_D730_C193_J56_T21_CTCF,HS_D731_C284_J56_T21_CTCF,HS_D732_C288_J56_T21_CTCF,HS_D734_C480_J56_T21_CTCF,HS_D743_C1_J56_T21_CTCF,HS_D744_C148_J56_T21_CTCF,HS_D758_C364_J56_T21_CTCF,HS_D774_C1_J56_T21_CTCF,HS_D775_C202_J56_T21_CTCF,HS_D832_C474_J56_T21_CTCF,HS_D833_C192_J56_T21_CTCF,HS_D834_C225_J56_T21_CTCF,HS_D835_C241_J56_T21_CTCF,HS_D836_C345_J56_T21_CTCF,HS_D875_C279_J56_T21_CTCF,HS_D876_C279_J56_T21_CTCF,HS_D877_C279_J56_T21_CTCF,HS_D878_C279_J56_T21_CTCF,HS_D879_C279_J56_T21_CTCF,HS_D880_C279_J56_T21_CTCF,HS_D887_C56_J56_T21_CTCF,HS_D888_C60_J56_T21_CTCF,HS_D889_C60_J56_T21_CTCF,HS_D903_C194_J56_T21_CTCF,HS_D908_C288_J56_T21_CTCF,HS_D910_C113_J56_T21_CTCF,HS_D912_C112_J56_T21_CTCF,HS_D913_C79_J56_T21_CTCF,HS_D919_C143_J56_T21_CTCF,HS_D920_C148_J56_T21_CTCF,HS_D921_C474_J56_T21_CTCF,HS_D922_C194_J56_T21_CTCF,HS_D923_C281_J56_T21_CTCF,HS_D924_C419_J56_T21_CTCF,HS_D925_C225_J56_T21_CTCF,HS_D926_C241_J56_T21_CTCF,HS_D927_C345_J56_T21_CTCF,HS_D928_C346_J56_T21_CTCF,HS_D939_C63_J56_T21_CTCF,HS_D940_C190_J56_T21_CTCF,HS_D941_C239_J56_T21_CTCF,HS_D945_C288_J56_T21_CTCF,HS_D946_C288_J56_T21_CTCF,HS_D947_C288_J56_T21_CTCF,HS_D948_C194_J56_T21_CTCF,HS_D964_C57_J56_T21_CTCF,HS_D968_C375_J56_T21_CTCF,HS_D969_C261_J56_T21_CTCF,HS_D1001_C181_J56_T21_CTCF,HS_D1002_C181_J56_T21_CTCF,HS_D1003_C181_J56_T21_CTCF,HS_D1004_C181_J56_T21_CTCF,HS_D1005_C241_J56_T21_CTCF,HS_D1006_C241_J56_T21_CTCF,HS_D1025_C448_J56_T21_CTCF,HS_D1027_C366_J56_T21_CTCF,HS_D1028_C241_J56_T21_CTCF,HS_D1030_C108_J56_T21_CTCF,HS_D1031_C440_J56_T21_CTCF,HS_D1032_C440_J56_T21_CTCF,HS_D1049_C29_J56_T21_CTCF,HS_D1050_C29_J56_T21_CTCF,HS_D1105_C97_J56_T21_CTCF,HS_D1124_C185_J56_T21_CTCF,HS_D1177_C216_J56_T21_CTCF,HS_D1178_C216_J56_T21_CTCF,HS_D1179_C216_J56_T21_CTCF,HS_D1180_C216_J56_T21_CTCF,HS_D1213_C216_J56_T21_CTCF,HS_D1241_C353_J56_T21_CTCF,HS_D1242_C353_J56_T21_CTCF,HS_D1243_C233_J56_T21_CTCF,HS_D1244_C233_J56_T21_CTCF,HS_D1245_C88_J56_T21_CTCF,HS_D1246_C88_J56_T21_CTCF,HS_D1247_C367_J56_T21_CTCF,HS_D1248_C367_J56_T21_CTCF,HS_D1251_C311_J56_T21_CTCF,HS_D1252_C311_J56_T21_CTCF,HS_D1253_C193_J56_T21_CTCF,HS_D1254_C193_J56_T21_CTCF,HS_D1255_C193_J56_T21_CTCF,HS_D1258_C340_J56_T21_CTCF,HS_D1259_C340_J56_T21_CTCF,HS_D1264_C2_J56_T21_CTCF,HS_D1327_C67_J56_T21_CTCF,HS_D1331_C396_J56_T21_CTCF,HS_D1341_C103_J56_T21_CTCF,HS_D1342_C103_J56_T21_CTCF,HS_D1343_C103_J56_T21_CTCF,HS_D1345_C288_J56_T21_CTCF,HS_D1346_C288_J56_T21_CTCF,HS_D1388_C91_J56_T21_CTCF,HS_D1389_C92_J56_T21_CTCF,HS_D1390_C93_J56_T21_CTCF,HS_D1391_C94_J56_T21_CTCF,HS_D1392_C394_J56_T21_CTCF,HS_D1406_C460_J56_T21_CTCF,HS_D1449_C241_J56_T21_CTCF,HS_D1450_C241_J56_T21_CTCF,HS_D1451_C181_J56_T21_CTCF,HS_D1551_C284_J56_T21_CTCF,HS_D1552_C286_J56_T21_CTCF,HS_D1553_C287_J56_T21_CTCF,HS_D1565_C288_J56_T21_CTCF,HS_D1571_C288_J56_T21_CTCF,HS_D1572_C288_J56_T21_CTCF,HS_D1604_C10_J56_T21_CTCF,HS_D1605_C10_J56_T21_CTCF,HS_D1606_C10_J56_T21_CTCF,HS_D1607_C10_J56_T21_CTCF,HS_D1611_C10_J56_T21_CTCF,HS_D1642_C33_J56_T21_CTCF,HS_D1663_C10_J56_T21_CTCF,HS_D1670_C10_J56_T21_CTCF,HS_D1674_C10_J56_T21_CTCF,HS_D1707_C185_J56_T21_CTCF,HS_D1708_C10_J56_T21_CTCF,HS_D1709_C10_J56_T21_CTCF,HS_D1710_C10_J56_T21_CTCF,HS_D1712_C164_J56_T21_CTCF,HS_D1726_C10_J56_T21_CTCF,HS_D1727_C411_J56_T21_CTCF,HS_D1728_C416_J56_T21_CTCF,HS_D1729_C326_J56_T21_CTCF,HS_D1730_C58_J56_T21_CTCF,HS_D1731_C58_J56_T21_CTCF,HS_D1735_C191_J56_T21_CTCF,HS_D1736_C191_J56_T21_CTCF,HS_D1737_C191_J56_T21_CTCF,HS_D1738_C191_J56_T21_CTCF,HS_D1752_C182_J56_T21_CTCF,HS_D1753_C182_J56_T21_CTCF,HS_D1759_C56_J56_T21_CTCF,HS_D1849_C448_J56_T21_CTCF,HS_D1850_C448_J56_T21_CTCF,HS_D1851_C448_J56_T21_CTCF,HS_D1852_C448_J56_T21_CTCF,HS_D1853_C448_J56_T21_CTCF,HS_D1854_C448_J56_T21_CTCF,HS_D1855_C448_J56_T21_CTCF,HS_D1856_C448_J56_T21_CTCF,HS_D1857_C448_J56_T21_CTCF,HS_D1858_C448_J56_T21_CTCF,HS_D1859_C448_J56_T21_CTCF,HS_D1860_C448_J56_T21_CTCF,HS_D1861_C448_J56_T21_CTCF,HS_D1862_C448_J56_T21_CTCF,HS_D1863_C448_J56_T21_CTCF,HS_D1864_C448_J56_T21_CTCF,HS_D1865_C448_J56_T21_CTCF,HS_D1866_C448_J56_T21_CTCF,HS_D1867_C448_J56_T21_CTCF,HS_D1868_C448_J56_T21_CTCF,HS_D1869_C448_J56_T21_CTCF,HS_D1870_C448_J56_T21_CTCF,HS_D1871_C448_J56_T21_CTCF,HS_D1872_C448_J56_T21_CTCF,HS_D1873_C448_J56_T21_CTCF,HS_D1874_C448_J56_T21_CTCF,HS_D1885_C301_J56_T21_CTCF,HS_D1886_C301_J56_T21_CTCF,HS_D1887_C301_J56_T21_CTCF,HS_D1888_C301_J56_T21_CTCF,HS_D1897_C475_J56_T21_CTCF,HS_D1898_C475_J56_T21_CTCF,HS_D1904_C475_J56_T21_CTCF,HS_D1905_C475_J56_T21_CTCF,HS_D1915_C190_J56_T21_CTCF,HS_D1916_C190_J56_T21_CTCF,HS_D1917_C190_J56_T21_CTCF,HS_D1918_C190_J56_T21_CTCF,HS_D1922_C192_J56_T21_CTCF,HS_D1923_C192_J56_T21_CTCF,HS_D1924_C192_J56_T21_CTCF,HS_D1925_C192_J56_T21_CTCF,HS_D1966_C276_J56_T21_CTCF,HS_D1967_C276_J56_T21_CTCF,HS_D2044_C181_J56_T21_CTCF,HS_D2049_C301_J56_T21_CTCF,HS_D2050_C301_J56_T21_CTCF,HS_D2051_C301_J56_T21_CTCF,HS_D2060_C362_J56_T21_CTCF,HS_D2065_C226_J56_T21_CTCF,HS_D2066_C227_J56_T21_CTCF,HS_D2067_C226_J56_T21_CTCF,HS_D2071_C228_J56_T21_CTCF,HS_D2113_C308_J56_T21_CTCF,HS_D2204_C216_J56_T21_CTCF,HS_D2205_C216_J56_T21_CTCF,HS_D2248_C153_J56_T21_CTCF,HS_D2249_C148_J56_T21_CTCF,HS_D2275_C440_J56_T21_CTCF,HS_D2276_C440_J56_T21_CTCF,HS_D2277_C440_J56_T21_CTCF,HS_D2278_C440_J56_T21_CTCF,HS_D2279_C440_J56_T21_CTCF,HS_D2280_C440_J56_T21_CTCF,HS_D2281_C440_J56_T21_CTCF,HS_D2282_C440_J56_T21_CTCF,HS_D2283_C440_J56_T21_CTCF,HS_D2284_C440_J56_T21_CTCF,HS_D2285_C440_J56_T21_CTCF,HS_D2286_C440_J56_T21_CTCF,HS_D2287_C440_J56_T21_CTCF,HS_D2296_C101_J56_T21_CTCF,HS_D2297_C312_J56_T21_CTCF,HS_D2298_C438_J56_T21_CTCF,HS_D2299_C239_J56_T21_CTCF,HS_D2300_C457_J56_T21_CTCF,HS_D2345_C206_J56_T21_CTCF,HS_D2346_C194_J56_T21_CTCF,HS_D2347_C474_J56_T21_CTCF,HS_D2348_C343_J56_T21_CTCF,HS_D2349_C225_J56_T21_CTCF,HS_D2350_C241_J56_T21_CTCF,HS_D2351_C204_J56_T21_CTCF,HS_D2352_C342_J56_T21_CTCF,HS_D2353_C148_J56_T21_CTCF,HS_D2354_C210_J56_T21_CTCF,HS_D2355_C320_J56_T21_CTCF,HS_D2356_C211_J56_T21_CTCF,HS_D2357_C355_J56_T21_CTCF,HS_D2358_C192_J56_T21_CTCF,HS_D2359_C87_J56_T21_CTCF,HS_D2360_C53_J56_T21_CTCF,HS_D2362_C400_J56_T21_CTCF,HS_D2363_C10_J56_T21_CTCF,HS_D2364_C10_J56_T21_CTCF,HS_D2369_C134_J56_T21_CTCF,HS_D2370_C154_J56_T21_CTCF,HS_D2371_C155_J56_T21_CTCF,HS_D2372_C156_J56_T21_CTCF,HS_D2373_C158_J56_T21_CTCF,HS_D2374_C159_J56_T21_CTCF,HS_D2395_C173_J56_T21_CTCF,HS_D2396_C173_J56_T21_CTCF,HS_D2405_C291_J56_T21_CTCF,HS_D2407_C291_J56_T21_CTCF,HS_D2409_C291_J56_T21_CTCF,HS_D2411_C291_J56_T21_CTCF,HS_D2413_C291_J56_T21_CTCF,HS_D2415_C292_J56_T21_CTCF,HS_D2458_C418_J56_T21_CTCF,HS_D2459_C188_J56_T21_CTCF,HS_D2460_C294_J56_T21_CTCF,HS_D2478_C213_J56_T21_CTCF,HS_D2479_C213_J56_T21_CTCF,HS_D2480_C213_J56_T21_CTCF,HS_D2481_C213_J56_T21_CTCF,HS_D2489_C195_J56_T21_CTCF,HS_D2491_C174_J56_T21_CTCF,HS_D2502_C364_J56_T21_CTCF,HS_D2552_C35_J56_T21_CTCF,HS_D2553_C36_J56_T21_CTCF,HS_D2598_C27_J56_T21_CTCF,HS_D2624_C469_J56_T21_CTCF,HS_D2645_C229_J56_T21_CTCF,HS_D2646_C1_J56_T21_CTCF,HS_D2652_C311_J56_T21_CTCF,HS_D2673_C433_J56_T21_CTCF,HS_D2683_C1_J56_T21_CTCF,HS_D2720_C1_J56_T21_CTCF,HS_D2721_C1_J56_T21_CTCF,HS_D2722_C1_J56_T21_CTCF,HS_D2723_C1_J56_T21_CTCF,HS_D2724_C1_J56_T21_CTCF,HS_D2725_C1_J56_T21_CTCF,HS_D2726_C1_J56_T21_CTCF,HS_D2727_C1_J56_T21_CTCF,HS_D2728_C1_J56_T21_CTCF,HS_D2729_C1_J56_T21_CTCF,HS_D2730_C1_J56_T21_CTCF,HS_D2731_C1_J56_T21_CTCF,HS_D2732_C1_J56_T21_CTCF,HS_D2733_C1_J56_T21_CTCF,HS_D2734_C1_J56_T21_CTCF,HS_D2735_C1_J56_T21_CTCF,HS_D2736_C1_J56_T21_CTCF,HS_D2737_C1_J56_T21_CTCF,HS_D2738_C1_J56_T21_CTCF,HS_D2743_C165_J56_T21_CTCF,HS_D2740_C165_J56_T21_CTCF,HS_D2761_C474_J56_T21_CTCF,HS_D2763_C474_J56_T21_CTCF,HS_D2762_C474_J56_T21_CTCF,HS_D2764_C474_J56_T21_CTCF,HS_D2765_C474_J56_T21_CTCF,HS_D2974_C107_J56_T21_CTCF,HS_D2996_C185_J56_T21_CTCF,HS_D2997_C239_J56_T21_CTCF,HS_D3025_C195_J56_T21_CTCF,HS_D3027_C195_J56_T21_CTCF,HS_D3030_C448_J56_T21_CTCF,HS_D3029_C448_J56_T21_CTCF,HS_D3034_C241_J56_T21_CTCF,HS_D3044_C83_J56_T21_CTCF,HS_D3046_C241_J56_T21_CTCF,HS_D3048_C288_J56_T21_CTCF,HS_D3049_C360_J56_T21_CTCF,HS_D3107_C418_J56_T21_CTCF,HS_D3114_C288_J56_T21_CTCF,HS_D3115_C288_J56_T21_CTCF,HS_D3116_C388_J56_T21_CTCF,HS_D3152_C471_J56_T21_CTCF,HS_D3155_C471_J56_T21_CTCF
CTCFL	HS_D108_C241_J214_T22_CTCFL,HS_D3045_C83_J214_T22_CTCFL,HS_D3047_C241_J214_T22_CTCFL,HS_D3050_C360_J214_T22_CTCFL
CUX1	HS_D379_C241_J169_T23_CUX1,HS_D447_C288_J169_T23_CUX1,HS_D1452_C241_J169_T23_CUX1,HS_D1453_C241_J169_T23_CUX1,HS_D1454_C241_J169_T23_CUX1
DUX4	HS_D793_C318_J74_T24_DUX4,HS_D1145_C258_J74_T24_DUX4,HS_D1505_C230_J74_T24_DUX4,HS_D3097_C185_J74_T24_DUX4
E2F1	HS_D416_C192_J9_T25_E2F1,HS_D593_C241_J9_T25_E2F1,HS_D626_C241_J9_T25_E2F1,HS_D842_C288_J9_T25_E2F1,HS_D843_C288_J9_T25_E2F1,HS_D844_C288_J9_T25_E2F1,HS_D845_C288_J9_T25_E2F1,HS_D982_C350_J9_T25_E2F1,HS_D1010_C261_J9_T25_E2F1,HS_D1011_C261_J9_T25_E2F1,HS_D1012_C261_J9_T25_E2F1,HS_D1014_C261_J9_T25_E2F1,HS_D1016_C261_J9_T25_E2F1,HS_D1017_C261_J9_T25_E2F1,HS_D1019_C261_J9_T25_E2F1,HS_D1022_C261_J9_T25_E2F1,HS_D1111_C387_J9_T25_E2F1,HS_D1113_C387_J9_T25_E2F1,HS_D1312_C311_J9_T25_E2F1,HS_D2185_C261_J9_T25_E2F1,HS_D2186_C261_J9_T25_E2F1,HS_D2209_C461_J9_T25_E2F1,HS_D2914_C1_J9_T25_E2F1,HS_D2975_C265_J9_T25_E2F1,HS_D3109_C1_J9_T25_E2F1
E2F4	HS_D258_C284_J75_T26_E2F4,HS_D418_C192_J75_T26_E2F4,HS_D822_C306_J75_T26_E2F4,HS_D2367_C288_J75_T26_E2F4,HS_D2633_C288_J75_T26_E2F4
E2F6	HS_D82_C241_J76_T27_E2F6,HS_D152_C474_J76_T27_E2F6,HS_D417_C192_J76_T27_E2F6,HS_D425_C241_J76_T27_E2F6,HS_D784_C241_J76_T27_E2F6
EBF1	HS_D30_C148_J64_T28_EBF1,HS_D326_C148_J64_T28_EBF1,HS_D2781_C174_J64_T28_EBF1,HS_D3095_C257_J64_T28_EBF1,HS_D3096_C1_J64_T28_EBF1
EBF3	HS_D1429_C418_J258_T29_EBF3
EGR1	HS_D51_C474_J66_T30_EGR1,HS_D97_C148_J66_T30_EGR1,HS_D103_C241_J66_T30_EGR1,HS_D139_C148_J66_T30_EGR1,HS_D146_C181_J66_T30_EGR1,HS_D160_C235_J66_T30_EGR1,HS_D196_C288_J66_T30_EGR1,HS_D450_C241_J66_T30_EGR1,HS_D501_C241_J66_T30_EGR1,HS_D519_C260_J66_T30_EGR1,HS_D631_C260_J66_T30_EGR1,HS_D1906_C202_J66_T30_EGR1,HS_D1907_C202_J66_T30_EGR1
EGR2	HS_D1123_C185_J77_T31_EGR2,HS_D1621_C185_J77_T31_EGR2
EGR3	HS_D1117_C185_J157_T32_EGR3
EHF	HS_D1344_C103_J127_T33_EHF,HS_D1351_C43_J127_T33_EHF,HS_D2021_C403_J127_T33_EHF
ELF1	HS_D90_C148_J78_T34_ELF1,HS_D91_C241_J78_T34_ELF1,HS_D102_C194_J78_T34_ELF1,HS_D123_C10_J78_T34_ELF1,HS_D162_C288_J78_T34_ELF1,HS_D169_C418_J78_T34_ELF1,HS_D203_C181_J78_T34_ELF1,HS_D560_C288_J78_T34_ELF1,HS_D572_C288_J78_T34_ELF1,HS_D663_C148_J78_T34_ELF1,HS_D697_C241_J78_T34_ELF1,HS_D1334_C423_J78_T34_ELF1,HS_D1335_C66_J78_T34_ELF1,HS_D2905_C417_J78_T34_ELF1,HS_D2907_C417_J78_T34_ELF1
ELF3	HS_D1719_C194_J133_T35_ELF3,HS_D2937_C1_J133_T35_ELF3,HS_D2939_C1_J133_T35_ELF3
ELF4	HS_D608_C241_J134_T36_ELF4,HS_D644_C188_J134_T36_ELF4
ELK1	HS_D346_C192_J11_T37_ELK1,HS_D382_C241_J11_T37_ELK1,HS_D528_C241_J11_T37_ELK1,HS_D537_C288_J11_T37_ELK1,HS_D824_C192_J11_T37_ELK1,HS_D1627_C229_J11_T37_ELK1
ELK4	HS_D415_C192_J30_T38_ELK4,HS_D783_C185_J30_T38_ELK4,HS_D826_C192_J30_T38_ELK4
EOMES	HS_D1181_C216_J184_T39_EOMES,HS_D1214_C216_J184_T39_EOMES,HS_D1215_C216_J184_T39_EOMES,HS_D2513_C195_J184_T39_EOMES
ERF	HS_D1556_C471_J171_T40_ERF,HS_D1557_C471_J171_T40_ERF
ERG	HS_D852_C471_J79_T41_ERG,HS_D854_C471_J79_T41_ERG,HS_D859_C471_J79_T41_ERG,HS_D860_C382_J79_T41_ERG,HS_D862_C307_J79_T41_ERG,HS_D976_C56_J79_T41_ERG,HS_D1053_C471_J79_T41_ERG,HS_D1054_C471_J79_T41_ERG,HS_D1281_C471_J79_T41_ERG,HS_D1303_C243_J79_T41_ERG,HS_D1419_C172_J79_T41_ERG,HS_D1423_C172_J79_T41_ERG,HS_D1555_C471_J79_T41_ERG,HS_D1950_C225_J79_T41_ERG,HS_D1951_C225_J79_T41_ERG,HS_D1952_C225_J79_T41_ERG,HS_D1953_C225_J79_T41_ERG,HS_D2020_C403_J79_T41_ERG,HS_D2274_C225_J79_T41_ERG,HS_D2499_C421_J79_T41_ERG,HS_D2525_C471_J79_T41_ERG,HS_D2521_C471_J79_T41_ERG,HS_D2523_C471_J79_T41_ERG,HS_D2591_C403_J79_T41_ERG,HS_D2670_C302_J79_T41_ERG,HS_D2706_C239_J79_T41_ERG,HS_D2884_C455_J79_T41_ERG,HS_D2883_C455_J79_T41_ERG,HS_D3118_C471_J79_T41_ERG,HS_D3121_C471_J79_T41_ERG,HS_D3124_C471_J79_T41_ERG,HS_D3127_C471_J79_T41_ERG
ESR1	HS_D50_C235_J48_T42_ESR1,HS_D62_C440_J48_T42_ESR1,HS_D71_C235_J48_T42_ESR1,HS_D73_C440_J48_T42_ESR1,HS_D84_C440_J48_T42_ESR1,HS_D127_C440_J48_T42_ESR1,HS_D713_C288_J48_T42_ESR1,HS_D712_C288_J48_T42_ESR1,HS_D717_C288_J48_T42_ESR1,HS_D714_C288_J48_T42_ESR1,HS_D718_C288_J48_T42_ESR1,HS_D719_C288_J48_T42_ESR1,HS_D721_C288_J48_T42_ESR1,HS_D724_C288_J48_T42_ESR1,HS_D723_C288_J48_T42_ESR1,HS_D728_C480_J48_T42_ESR1,HS_D733_C288_J48_T42_ESR1,HS_D735_C480_J48_T42_ESR1,HS_D736_C288_J48_T42_ESR1,HS_D745_C288_J48_T42_ESR1,HS_D753_C1_J48_T42_ESR1,HS_D757_C288_J48_T42_ESR1,HS_D786_C288_J48_T42_ESR1,HS_D791_C288_J48_T42_ESR1,HS_D821_C288_J48_T42_ESR1,HS_D881_C288_J48_T42_ESR1,HS_D882_C440_J48_T42_ESR1,HS_D883_C235_J48_T42_ESR1,HS_D884_C95_J48_T42_ESR1,HS_D906_C167_J48_T42_ESR1,HS_D907_C167_J48_T42_ESR1,HS_D942_C288_J48_T42_ESR1,HS_D943_C288_J48_T42_ESR1,HS_D987_C288_J48_T42_ESR1,HS_D988_C288_J48_T42_ESR1,HS_D1055_C284_J48_T42_ESR1,HS_D1060_C275_J48_T42_ESR1,HS_D1061_C275_J48_T42_ESR1,HS_D1068_C288_J48_T42_ESR1,HS_D1069_C288_J48_T42_ESR1,HS_D1070_C288_J48_T42_ESR1,HS_D1071_C288_J48_T42_ESR1,HS_D1072_C288_J48_T42_ESR1,HS_D1090_C288_J48_T42_ESR1,HS_D1091_C288_J48_T42_ESR1,HS_D1104_C440_J48_T42_ESR1,HS_D1106_C288_J48_T42_ESR1,HS_D1107_C440_J48_T42_ESR1,HS_D1108_C288_J48_T42_ESR1,HS_D1109_C440_J48_T42_ESR1,HS_D1127_C288_J48_T42_ESR1,HS_D1146_C288_J48_T42_ESR1,HS_D1147_C288_J48_T42_ESR1,HS_D1148_C288_J48_T42_ESR1,HS_D1149_C288_J48_T42_ESR1,HS_D1157_C440_J48_T42_ESR1,HS_D1158_C440_J48_T42_ESR1,HS_D1159_C288_J48_T42_ESR1,HS_D1160_C100_J48_T42_ESR1,HS_D1162_C100_J48_T42_ESR1,HS_D1163_C100_J48_T42_ESR1,HS_D1165_C100_J48_T42_ESR1,HS_D1266_C460_J48_T42_ESR1,HS_D1269_C288_J48_T42_ESR1,HS_D1270_C288_J48_T42_ESR1,HS_D1272_C288_J48_T42_ESR1,HS_D1273_C288_J48_T42_ESR1,HS_D1274_C288_J48_T42_ESR1,HS_D1318_C288_J48_T42_ESR1,HS_D1319_C288_J48_T42_ESR1,HS_D1320_C288_J48_T42_ESR1,HS_D1336_C440_J48_T42_ESR1,HS_D1338_C440_J48_T42_ESR1,HS_D1349_C288_J48_T42_ESR1,HS_D1350_C288_J48_T42_ESR1,HS_D1380_C288_J48_T42_ESR1,HS_D1381_C289_J48_T42_ESR1,HS_D1382_C288_J48_T42_ESR1,HS_D1383_C288_J48_T42_ESR1,HS_D1384_C365_J48_T42_ESR1,HS_D1461_C41_J48_T42_ESR1,HS_D1462_C41_J48_T42_ESR1,HS_D1468_C288_J48_T42_ESR1,HS_D1469_C288_J48_T42_ESR1,HS_D1470_C288_J48_T42_ESR1,HS_D1471_C288_J48_T42_ESR1,HS_D1472_C288_J48_T42_ESR1,HS_D1473_C288_J48_T42_ESR1,HS_D1474_C288_J48_T42_ESR1,HS_D1475_C288_J48_T42_ESR1,HS_D1476_C288_J48_T42_ESR1,HS_D1477_C288_J48_T42_ESR1,HS_D1478_C100_J48_T42_ESR1,HS_D1479_C100_J48_T42_ESR1,HS_D1480_C100_J48_T42_ESR1,HS_D1481_C288_J48_T42_ESR1,HS_D1482_C288_J48_T42_ESR1,HS_D1483_C288_J48_T42_ESR1,HS_D1484_C288_J48_T42_ESR1,HS_D1485_C288_J48_T42_ESR1,HS_D1486_C288_J48_T42_ESR1,HS_D1487_C288_J48_T42_ESR1,HS_D1488_C288_J48_T42_ESR1,HS_D1489_C288_J48_T42_ESR1,HS_D1490_C288_J48_T42_ESR1,HS_D1491_C440_J48_T42_ESR1,HS_D1492_C440_J48_T42_ESR1,HS_D1493_C440_J48_T42_ESR1,HS_D1494_C288_J48_T42_ESR1,HS_D1495_C288_J48_T42_ESR1,HS_D1496_C288_J48_T42_ESR1,HS_D1497_C288_J48_T42_ESR1,HS_D1498_C288_J48_T42_ESR1,HS_D1499_C288_J48_T42_ESR1,HS_D1500_C288_J48_T42_ESR1,HS_D1559_C288_J48_T42_ESR1,HS_D1560_C289_J48_T42_ESR1,HS_D1566_C288_J48_T42_ESR1,HS_D1567_C288_J48_T42_ESR1,HS_D1568_C288_J48_T42_ESR1,HS_D1569_C288_J48_T42_ESR1,HS_D1573_C288_J48_T42_ESR1,HS_D1574_C440_J48_T42_ESR1,HS_D1577_C288_J48_T42_ESR1,HS_D1578_C289_J48_T42_ESR1,HS_D1579_C45_J48_T42_ESR1,HS_D1580_C480_J48_T42_ESR1,HS_D1581_C288_J48_T42_ESR1,HS_D1582_C42_J48_T42_ESR1,HS_D1583_C40_J48_T42_ESR1,HS_D1588_C284_J48_T42_ESR1,HS_D1747_C40_J48_T42_ESR1,HS_D1751_C40_J48_T42_ESR1,HS_D1769_C288_J48_T42_ESR1,HS_D1770_C288_J48_T42_ESR1,HS_D1771_C288_J48_T42_ESR1,HS_D1772_C288_J48_T42_ESR1,HS_D1773_C288_J48_T42_ESR1,HS_D1774_C288_J48_T42_ESR1,HS_D1775_C288_J48_T42_ESR1,HS_D1776_C288_J48_T42_ESR1,HS_D1777_C288_J48_T42_ESR1,HS_D1778_C288_J48_T42_ESR1,HS_D1779_C288_J48_T42_ESR1,HS_D1780_C288_J48_T42_ESR1,HS_D1781_C288_J48_T42_ESR1,HS_D1826_C288_J48_T42_ESR1,HS_D1827_C288_J48_T42_ESR1,HS_D1828_C288_J48_T42_ESR1,HS_D1833_C288_J48_T42_ESR1,HS_D1834_C288_J48_T42_ESR1,HS_D1835_C288_J48_T42_ESR1,HS_D1836_C288_J48_T42_ESR1,HS_D1837_C288_J48_T42_ESR1,HS_D1838_C288_J48_T42_ESR1,HS_D1839_C288_J48_T42_ESR1,HS_D1840_C288_J48_T42_ESR1,HS_D1841_C288_J48_T42_ESR1,HS_D1842_C288_J48_T42_ESR1,HS_D1843_C288_J48_T42_ESR1,HS_D1844_C288_J48_T42_ESR1,HS_D1936_C293_J48_T42_ESR1,HS_D1937_C293_J48_T42_ESR1,HS_D1938_C293_J48_T42_ESR1,HS_D1968_C235_J48_T42_ESR1,HS_D1970_C235_J48_T42_ESR1,HS_D2033_C288_J48_T42_ESR1,HS_D2034_C288_J48_T42_ESR1,HS_D2035_C288_J48_T42_ESR1,HS_D2036_C288_J48_T42_ESR1,HS_D2037_C288_J48_T42_ESR1,HS_D2038_C288_J48_T42_ESR1,HS_D2039_C288_J48_T42_ESR1,HS_D2040_C288_J48_T42_ESR1,HS_D2041_C288_J48_T42_ESR1,HS_D2043_C440_J48_T42_ESR1,HS_D2045_C288_J48_T42_ESR1,HS_D2052_C288_J48_T42_ESR1,HS_D2053_C288_J48_T42_ESR1,HS_D2054_C288_J48_T42_ESR1,HS_D2055_C288_J48_T42_ESR1,HS_D2056_C288_J48_T42_ESR1,HS_D2187_C295_J48_T42_ESR1,HS_D2188_C295_J48_T42_ESR1,HS_D2211_C440_J48_T42_ESR1,HS_D2212_C440_J48_T42_ESR1,HS_D2213_C440_J48_T42_ESR1,HS_D2214_C440_J48_T42_ESR1,HS_D2228_C288_J48_T42_ESR1,HS_D2229_C288_J48_T42_ESR1,HS_D2230_C288_J48_T42_ESR1,HS_D2231_C288_J48_T42_ESR1,HS_D2232_C288_J48_T42_ESR1,HS_D2233_C288_J48_T42_ESR1,HS_D2234_C288_J48_T42_ESR1,HS_D2235_C288_J48_T42_ESR1,HS_D2307_C288_J48_T42_ESR1,HS_D2308_C288_J48_T42_ESR1,HS_D2313_C376_J48_T42_ESR1,HS_D2315_C377_J48_T42_ESR1,HS_D2330_C288_J48_T42_ESR1,HS_D2331_C288_J48_T42_ESR1,HS_D2332_C288_J48_T42_ESR1,HS_D2333_C288_J48_T42_ESR1,HS_D2404_C291_J48_T42_ESR1,HS_D2406_C291_J48_T42_ESR1,HS_D2408_C291_J48_T42_ESR1,HS_D2410_C291_J48_T42_ESR1,HS_D2412_C291_J48_T42_ESR1,HS_D2414_C292_J48_T42_ESR1,HS_D2465_C288_J48_T42_ESR1,HS_D2466_C288_J48_T42_ESR1,HS_D2484_C288_J48_T42_ESR1,HS_D2515_C288_J48_T42_ESR1,HS_D2560_C167_J48_T42_ESR1,HS_D2617_C288_J48_T42_ESR1,HS_D2619_C288_J48_T42_ESR1,HS_D2622_C480_J48_T42_ESR1,HS_D2623_C1_J48_T42_ESR1,HS_D2634_C288_J48_T42_ESR1,HS_D2657_C471_J48_T42_ESR1,HS_D2669_C288_J48_T42_ESR1,HS_D2703_C288_J48_T42_ESR1,HS_D2776_C288_J48_T42_ESR1,HS_D2777_C288_J48_T42_ESR1,HS_D2778_C288_J48_T42_ESR1,HS_D2779_C288_J48_T42_ESR1,HS_D2780_C288_J48_T42_ESR1,HS_D2791_C288_J48_T42_ESR1,HS_D2849_C288_J48_T42_ESR1,HS_D2847_C288_J48_T42_ESR1,HS_D2851_C288_J48_T42_ESR1,HS_D2852_C288_J48_T42_ESR1,HS_D2880_C288_J48_T42_ESR1,HS_D2872_C288_J48_T42_ESR1,HS_D2877_C288_J48_T42_ESR1,HS_D2876_C288_J48_T42_ESR1,HS_D2878_C288_J48_T42_ESR1,HS_D2879_C288_J48_T42_ESR1,HS_D2984_C288_J48_T42_ESR1,HS_D2982_C288_J48_T42_ESR1,HS_D2983_C288_J48_T42_ESR1,HS_D2987_C440_J48_T42_ESR1,HS_D2985_C440_J48_T42_ESR1,HS_D2986_C440_J48_T42_ESR1,HS_D2988_C288_J48_T42_ESR1,HS_D2989_C288_J48_T42_ESR1,HS_D2991_C440_J48_T42_ESR1,HS_D2990_C1_J48_T42_ESR1,HS_D3054_C288_J48_T42_ESR1,HS_D3068_C288_J48_T42_ESR1,HS_D3066_C288_J48_T42_ESR1,HS_D3073_C440_J48_T42_ESR1,HS_D3071_C440_J48_T42_ESR1,HS_D3079_C480_J48_T42_ESR1,HS_D3077_C480_J48_T42_ESR1
ESR2	HS_D787_C460_J68_T43_ESR2,HS_D788_C460_J68_T43_ESR2,HS_D1926_C296_J68_T43_ESR2,HS_D1927_C296_J68_T43_ESR2,HS_D1928_C296_J68_T43_ESR2,HS_D2702_C288_J68_T43_ESR2
ESRRA	HS_D559_C10_J124_T44_ESRRA,HS_D689_C288_J124_T44_ESRRA,HS_D3098_C45_J124_T44_ESRRA,HS_D3139_C45_J124_T44_ESRRA,HS_D3140_C415_J124_T44_ESRRA
ETS1	HS_D65_C148_J40_T45_ETS1,HS_D580_C164_J40_T45_ETS1,HS_D796_C240_J40_T45_ETS1,HS_D993_C62_J40_T45_ETS1,HS_D994_C62_J40_T45_ETS1,HS_D995_C62_J40_T45_ETS1,HS_D996_C61_J40_T45_ETS1,HS_D997_C61_J40_T45_ETS1,HS_D1370_C388_J40_T45_ETS1,HS_D1455_C225_J40_T45_ETS1,HS_D1456_C225_J40_T45_ETS1,HS_D1457_C225_J40_T45_ETS1,HS_D1458_C225_J40_T45_ETS1,HS_D1459_C225_J40_T45_ETS1,HS_D1460_C225_J40_T45_ETS1,HS_D1946_C225_J40_T45_ETS1,HS_D1947_C225_J40_T45_ETS1,HS_D1948_C225_J40_T45_ETS1,HS_D1949_C225_J40_T45_ETS1,HS_D2631_C225_J40_T45_ETS1,HS_D2628_C225_J40_T45_ETS1,HS_D2629_C225_J40_T45_ETS1,HS_D2630_C225_J40_T45_ETS1
ETV1	HS_D2076_C126_J172_T46_ETV1,HS_D2077_C127_J172_T46_ETV1,HS_D2078_C8_J172_T46_ETV1,HS_D2079_C68_J172_T46_ETV1,HS_D2493_C1_J172_T46_ETV1,HS_D2692_C261_J172_T46_ETV1
ETV4	HS_D624_C194_J173_T47_ETV4
ETV5	HS_D472_C194_J174_T48_ETV5
ETV6	HS_D442_C241_J135_T49_ETV6,HS_D480_C241_J135_T49_ETV6,HS_D605_C148_J135_T49_ETV6,HS_D1525_C148_J135_T49_ETV6,HS_D1526_C148_J135_T49_ETV6
FLI1	HS_D785_C225_J80_T50_FLI1,HS_D806_C304_J80_T50_FLI1,HS_D977_C56_J80_T50_FLI1,HS_D1302_C243_J80_T50_FLI1,HS_D1448_C5_J80_T50_FLI1,HS_D1908_C5_J80_T50_FLI1,HS_D1909_C5_J80_T50_FLI1,HS_D1910_C5_J80_T50_FLI1,HS_D1911_C5_J80_T50_FLI1,HS_D1954_C225_J80_T50_FLI1,HS_D1955_C225_J80_T50_FLI1,HS_D1956_C225_J80_T50_FLI1,HS_D1957_C225_J80_T50_FLI1,HS_D2236_C5_J80_T50_FLI1,HS_D2237_C5_J80_T50_FLI1,HS_D2238_C5_J80_T50_FLI1,HS_D2239_C5_J80_T50_FLI1,HS_D2272_C225_J80_T50_FLI1,HS_D2273_C225_J80_T50_FLI1,HS_D2498_C325_J80_T50_FLI1,HS_D2501_C1_J80_T50_FLI1,HS_D2500_C1_J80_T50_FLI1,HS_D2909_C417_J80_T50_FLI1,HS_D2906_C417_J80_T50_FLI1,HS_D2908_C417_J80_T50_FLI1
FOS	HS_D213_C241_J81_T51_FOS,HS_D254_C284_J81_T51_FOS,HS_D255_C284_J81_T51_FOS,HS_D256_C284_J81_T51_FOS,HS_D260_C284_J81_T51_FOS,HS_D421_C225_J81_T51_FOS,HS_D439_C241_J81_T51_FOS,HS_D479_C229_J81_T51_FOS,HS_D594_C288_J81_T51_FOS,HS_D801_C241_J81_T51_FOS,HS_D814_C148_J81_T51_FOS,HS_D831_C241_J81_T51_FOS,HS_D839_C288_J81_T51_FOS,HS_D846_C225_J81_T51_FOS,HS_D1883_C448_J81_T51_FOS,HS_D1884_C448_J81_T51_FOS,HS_D2023_C285_J81_T51_FOS,HS_D2024_C285_J81_T51_FOS,HS_D2946_C316_J81_T51_FOS
FOSL1	HS_D99_C241_J82_T52_FOSL1,HS_D171_C181_J82_T52_FOSL1,HS_D507_C241_J82_T52_FOSL1,HS_D1504_C300_J82_T52_FOSL1,HS_D2674_C46_J82_T52_FOSL1
FOSL2	HS_D37_C194_J83_T53_FOSL2,HS_D131_C10_J83_T53_FOSL2,HS_D186_C288_J83_T53_FOSL2,HS_D199_C418_J83_T53_FOSL2,HS_D585_C288_J83_T53_FOSL2,HS_D1609_C10_J83_T53_FOSL2,HS_D1619_C10_J83_T53_FOSL2,HS_D1623_C10_J83_T53_FOSL2,HS_D1634_C10_J83_T53_FOSL2,HS_D1636_C10_J83_T53_FOSL2,HS_D1639_C10_J83_T53_FOSL2,HS_D1648_C10_J83_T53_FOSL2,HS_D1651_C10_J83_T53_FOSL2,HS_D1660_C10_J83_T53_FOSL2,HS_D1672_C10_J83_T53_FOSL2,HS_D1718_C10_J83_T53_FOSL2,HS_D1723_C10_J83_T53_FOSL2,HS_D2437_C271_J83_T53_FOSL2,HS_D3014_C195_J83_T53_FOSL2,HS_D3142_C198_J83_T53_FOSL2
FOXA1	HS_D78_C235_J61_T54_FOXA1,HS_D79_C440_J61_T54_FOXA1,HS_D80_C194_J61_T54_FOXA1,HS_D96_C194_J61_T54_FOXA1,HS_D125_C10_J61_T54_FOXA1,HS_D136_C10_J61_T54_FOXA1,HS_D484_C288_J61_T54_FOXA1,HS_D726_C288_J61_T54_FOXA1,HS_D715_C288_J61_T54_FOXA1,HS_D722_C288_J61_T54_FOXA1,HS_D727_C440_J61_T54_FOXA1,HS_D729_C480_J61_T54_FOXA1,HS_D738_C261_J61_T54_FOXA1,HS_D739_C288_J61_T54_FOXA1,HS_D741_C298_J61_T54_FOXA1,HS_D747_C260_J61_T54_FOXA1,HS_D752_C1_J61_T54_FOXA1,HS_D754_C1_J61_T54_FOXA1,HS_D756_C1_J61_T54_FOXA1,HS_D837_C288_J61_T54_FOXA1,HS_D838_C288_J61_T54_FOXA1,HS_D840_C440_J61_T54_FOXA1,HS_D841_C440_J61_T54_FOXA1,HS_D849_C471_J61_T54_FOXA1,HS_D850_C261_J61_T54_FOXA1,HS_D1036_C76_J61_T54_FOXA1,HS_D1037_C76_J61_T54_FOXA1,HS_D1038_C76_J61_T54_FOXA1,HS_D1039_C76_J61_T54_FOXA1,HS_D1040_C261_J61_T54_FOXA1,HS_D1041_C261_J61_T54_FOXA1,HS_D1101_C261_J61_T54_FOXA1,HS_D1102_C261_J61_T54_FOXA1,HS_D1103_C261_J61_T54_FOXA1,HS_D1135_C471_J61_T54_FOXA1,HS_D1136_C471_J61_T54_FOXA1,HS_D1182_C216_J61_T54_FOXA1,HS_D1183_C216_J61_T54_FOXA1,HS_D1216_C216_J61_T54_FOXA1,HS_D1286_C283_J61_T54_FOXA1,HS_D1287_C289_J61_T54_FOXA1,HS_D1315_C288_J61_T54_FOXA1,HS_D1316_C288_J61_T54_FOXA1,HS_D1337_C440_J61_T54_FOXA1,HS_D1339_C440_J61_T54_FOXA1,HS_D1347_C288_J61_T54_FOXA1,HS_D1348_C288_J61_T54_FOXA1,HS_D1466_C288_J61_T54_FOXA1,HS_D1467_C288_J61_T54_FOXA1,HS_D1509_C3_J61_T54_FOXA1,HS_D1510_C471_J61_T54_FOXA1,HS_D1511_C471_J61_T54_FOXA1,HS_D1561_C288_J61_T54_FOXA1,HS_D1562_C480_J61_T54_FOXA1,HS_D1563_C440_J61_T54_FOXA1,HS_D1564_C289_J61_T54_FOXA1,HS_D1570_C288_J61_T54_FOXA1,HS_D1575_C288_J61_T54_FOXA1,HS_D1576_C288_J61_T54_FOXA1,HS_D1655_C260_J61_T54_FOXA1,HS_D1661_C194_J61_T54_FOXA1,HS_D1673_C260_J61_T54_FOXA1,HS_D1748_C40_J61_T54_FOXA1,HS_D1749_C40_J61_T54_FOXA1,HS_D1991_C7_J61_T54_FOXA1,HS_D1993_C7_J61_T54_FOXA1,HS_D1994_C7_J61_T54_FOXA1,HS_D1996_C7_J61_T54_FOXA1,HS_D1997_C289_J61_T54_FOXA1,HS_D1998_C289_J61_T54_FOXA1,HS_D1999_C289_J61_T54_FOXA1,HS_D2000_C289_J61_T54_FOXA1,HS_D2001_C289_J61_T54_FOXA1,HS_D2002_C289_J61_T54_FOXA1,HS_D2006_C290_J61_T54_FOXA1,HS_D2007_C290_J61_T54_FOXA1,HS_D2008_C290_J61_T54_FOXA1,HS_D2009_C290_J61_T54_FOXA1,HS_D2010_C290_J61_T54_FOXA1,HS_D2011_C290_J61_T54_FOXA1,HS_D2012_C290_J61_T54_FOXA1,HS_D2013_C290_J61_T54_FOXA1,HS_D2014_C290_J61_T54_FOXA1,HS_D2018_C289_J61_T54_FOXA1,HS_D2022_C384_J61_T54_FOXA1,HS_D2080_C3_J61_T54_FOXA1,HS_D2081_C3_J61_T54_FOXA1,HS_D2099_C261_J61_T54_FOXA1,HS_D2100_C261_J61_T54_FOXA1,HS_D2103_C3_J61_T54_FOXA1,HS_D2104_C3_J61_T54_FOXA1,HS_D2108_C402_J61_T54_FOXA1,HS_D2109_C402_J61_T54_FOXA1,HS_D2192_C261_J61_T54_FOXA1,HS_D2219_C440_J61_T54_FOXA1,HS_D2220_C440_J61_T54_FOXA1,HS_D2221_C440_J61_T54_FOXA1,HS_D2222_C440_J61_T54_FOXA1,HS_D2240_C261_J61_T54_FOXA1,HS_D2250_C266_J61_T54_FOXA1,HS_D2251_C266_J61_T54_FOXA1,HS_D2252_C266_J61_T54_FOXA1,HS_D2305_C261_J61_T54_FOXA1,HS_D2306_C261_J61_T54_FOXA1,HS_D2309_C288_J61_T54_FOXA1,HS_D2310_C288_J61_T54_FOXA1,HS_D2312_C380_J61_T54_FOXA1,HS_D2314_C376_J61_T54_FOXA1,HS_D2317_C380_J61_T54_FOXA1,HS_D2447_C288_J61_T54_FOXA1,HS_D2448_C288_J61_T54_FOXA1,HS_D2449_C288_J61_T54_FOXA1,HS_D2450_C288_J61_T54_FOXA1,HS_D2451_C480_J61_T54_FOXA1,HS_D2452_C480_J61_T54_FOXA1,HS_D2453_C480_J61_T54_FOXA1,HS_D2454_C480_J61_T54_FOXA1,HS_D2482_C3_J61_T54_FOXA1,HS_D2483_C3_J61_T54_FOXA1,HS_D2503_C288_J61_T54_FOXA1,HS_D2505_C288_J61_T54_FOXA1,HS_D2516_C261_J61_T54_FOXA1,HS_D2517_C261_J61_T54_FOXA1,HS_D2545_C261_J61_T54_FOXA1,HS_D2542_C261_J61_T54_FOXA1,HS_D2589_C261_J61_T54_FOXA1,HS_D2590_C261_J61_T54_FOXA1,HS_D2607_C218_J61_T54_FOXA1,HS_D2611_C331_J61_T54_FOXA1,HS_D2614_C263_J61_T54_FOXA1,HS_D2613_C263_J61_T54_FOXA1,HS_D2618_C288_J61_T54_FOXA1,HS_D2620_C288_J61_T54_FOXA1,HS_D2664_C298_J61_T54_FOXA1,HS_D2701_C89_J61_T54_FOXA1,HS_D2696_C89_J61_T54_FOXA1,HS_D2698_C89_J61_T54_FOXA1,HS_D2699_C89_J61_T54_FOXA1,HS_D2768_C261_J61_T54_FOXA1,HS_D2792_C471_J61_T54_FOXA1,HS_D2793_C471_J61_T54_FOXA1,HS_D2794_C471_J61_T54_FOXA1,HS_D2796_C471_J61_T54_FOXA1,HS_D2800_C261_J61_T54_FOXA1,HS_D2830_C261_J61_T54_FOXA1,HS_D2831_C261_J61_T54_FOXA1,HS_D2836_C471_J61_T54_FOXA1,HS_D2837_C471_J61_T54_FOXA1,HS_D2854_C288_J61_T54_FOXA1,HS_D2850_C288_J61_T54_FOXA1,HS_D2848_C288_J61_T54_FOXA1,HS_D2853_C288_J61_T54_FOXA1,HS_D2881_C288_J61_T54_FOXA1,HS_D2873_C288_J61_T54_FOXA1,HS_D2930_C265_J61_T54_FOXA1,HS_D2927_C265_J61_T54_FOXA1,HS_D2928_C265_J61_T54_FOXA1,HS_D2938_C1_J61_T54_FOXA1,HS_D2940_C1_J61_T54_FOXA1,HS_D2943_C261_J61_T54_FOXA1,HS_D3002_C261_J61_T54_FOXA1,HS_D3003_C261_J61_T54_FOXA1,HS_D3006_C261_J61_T54_FOXA1,HS_D3069_C288_J61_T54_FOXA1,HS_D3064_C288_J61_T54_FOXA1,HS_D3067_C288_J61_T54_FOXA1,HS_D3074_C440_J61_T54_FOXA1,HS_D3070_C440_J61_T54_FOXA1,HS_D3072_C440_J61_T54_FOXA1,HS_D3080_C480_J61_T54_FOXA1,HS_D3075_C480_J61_T54_FOXA1,HS_D3078_C480_J61_T54_FOXA1,HS_D3138_C288_J61_T54_FOXA1,HS_D3147_C261_J61_T54_FOXA1,HS_D3144_C261_J61_T54_FOXA1,HS_D3148_C261_J61_T54_FOXA1,HS_D3150_C261_J61_T54_FOXA1
FOXA2	HS_D106_C194_J20_T55_FOXA2,HS_D137_C10_J20_T55_FOXA2,HS_D462_C194_J20_T55_FOXA2,HS_D469_C260_J20_T55_FOXA2,HS_D525_C260_J20_T55_FOXA2,HS_D755_C1_J20_T55_FOXA2,HS_D759_C364_J20_T55_FOXA2,HS_D764_C168_J20_T55_FOXA2,HS_D777_C260_J20_T55_FOXA2,HS_D778_C363_J20_T55_FOXA2,HS_D885_C260_J20_T55_FOXA2,HS_D1161_C100_J20_T55_FOXA2,HS_D1164_C100_J20_T55_FOXA2,HS_D1184_C216_J20_T55_FOXA2,HS_D1185_C216_J20_T55_FOXA2,HS_D1217_C216_J20_T55_FOXA2,HS_D2138_C247_J20_T55_FOXA2,HS_D2139_C247_J20_T55_FOXA2,HS_D2140_C82_J20_T55_FOXA2,HS_D2141_C34_J20_T55_FOXA2,HS_D2142_C34_J20_T55_FOXA2,HS_D2143_C34_J20_T55_FOXA2,HS_D2144_C34_J20_T55_FOXA2,HS_D2145_C34_J20_T55_FOXA2,HS_D2147_C10_J20_T55_FOXA2,HS_D2148_C34_J20_T55_FOXA2,HS_D2149_C34_J20_T55_FOXA2,HS_D2163_C34_J20_T55_FOXA2,HS_D2164_C34_J20_T55_FOXA2,HS_D2165_C34_J20_T55_FOXA2,HS_D2166_C34_J20_T55_FOXA2,HS_D2962_C48_J20_T55_FOXA2
FOXA3	HS_D1680_C194_J268_T56_FOXA3
FOXJ2	HS_D664_C241_J131_T57_FOXJ2
FOXK1	HS_D2751_C188_J204_T58_FOXK1
FOXK2	HS_D489_C194_J215_T59_FOXK2,HS_D521_C241_J215_T59_FOXK2,HS_D573_C241_J215_T59_FOXK2
FOXO1	HS_D2085_C373_J84_T60_FOXO1,HS_D2981_C26_J84_T60_FOXO1,HS_D3015_C195_J84_T60_FOXO1
FOXP1	HS_D455_C194_J85_T61_FOXP1,HS_D534_C194_J85_T61_FOXP1,HS_D780_C431_J85_T61_FOXP1,HS_D781_C459_J85_T61_FOXP1,HS_D1077_C176_J85_T61_FOXP1,HS_D1078_C212_J85_T61_FOXP1,HS_D2920_C261_J85_T61_FOXP1,HS_D2921_C1_J85_T61_FOXP1
GABPA	HS_D22_C148_J26_T62_GABPA,HS_D38_C192_J26_T62_GABPA,HS_D57_C194_J26_T62_GABPA,HS_D85_C241_J26_T62_GABPA,HS_D126_C10_J26_T62_GABPA,HS_D173_C418_J26_T62_GABPA,HS_D176_C202_J26_T62_GABPA,HS_D187_C288_J26_T62_GABPA,HS_D458_C288_J26_T62_GABPA,HS_D518_C241_J26_T62_GABPA,HS_D527_C148_J26_T62_GABPA,HS_D790_C59_J26_T62_GABPA,HS_D989_C74_J26_T62_GABPA,HS_D1684_C260_J26_T62_GABPA,HS_D1703_C194_J26_T62_GABPA,HS_D2208_C448_J26_T62_GABPA,HS_D2375_C148_J26_T62_GABPA,HS_D2380_C148_J26_T62_GABPA,HS_D2550_C190_J26_T62_GABPA,HS_D2707_C239_J26_T62_GABPA,HS_D2710_C471_J26_T62_GABPA,HS_D2708_C471_J26_T62_GABPA,HS_D2709_C471_J26_T62_GABPA,HS_D2844_C89_J26_T62_GABPA,HS_D3063_C194_J26_T62_GABPA
GATA1	HS_D381_C241_J13_T63_GATA1,HS_D426_C241_J13_T63_GATA1,HS_D432_C106_J13_T63_GATA1,HS_D803_C304_J13_T63_GATA1,HS_D819_C241_J13_T63_GATA1,HS_D830_C241_J13_T63_GATA1,HS_D848_C378_J13_T63_GATA1,HS_D890_C60_J13_T63_GATA1,HS_D891_C60_J13_T63_GATA1,HS_D892_C241_J13_T63_GATA1,HS_D893_C241_J13_T63_GATA1,HS_D965_C57_J13_T63_GATA1,HS_D966_C57_J13_T63_GATA1,HS_D1464_C54_J13_T63_GATA1,HS_D1762_C241_J13_T63_GATA1,HS_D1763_C241_J13_T63_GATA1,HS_D1764_C241_J13_T63_GATA1,HS_D2531_C55_J13_T63_GATA1,HS_D2532_C55_J13_T63_GATA1,HS_D2770_C55_J13_T63_GATA1,HS_D3035_C241_J13_T63_GATA1
GATA2	HS_D72_C241_J14_T64_GATA2,HS_D212_C241_J14_T64_GATA2,HS_D422_C225_J14_T64_GATA2,HS_D424_C241_J14_T64_GATA2,HS_D433_C411_J14_T64_GATA2,HS_D804_C304_J14_T64_GATA2,HS_D820_C241_J14_T64_GATA2,HS_D847_C225_J14_T64_GATA2,HS_D894_C241_J14_T64_GATA2,HS_D895_C241_J14_T64_GATA2,HS_D978_C56_J14_T64_GATA2,HS_D1398_C420_J14_T64_GATA2,HS_D1399_C420_J14_T64_GATA2,HS_D1756_C475_J14_T64_GATA2,HS_D1767_C99_J14_T64_GATA2,HS_D1962_C225_J14_T64_GATA2,HS_D1963_C225_J14_T64_GATA2,HS_D1964_C225_J14_T64_GATA2,HS_D1965_C225_J14_T64_GATA2,HS_D2392_C443_J14_T64_GATA2,HS_D2597_C261_J14_T64_GATA2,HS_D2769_C261_J14_T64_GATA2,HS_D2885_C455_J14_T64_GATA2,HS_D2889_C55_J14_T64_GATA2,HS_D2890_C55_J14_T64_GATA2,HS_D3000_C261_J14_T64_GATA2,HS_D3001_C261_J14_T64_GATA2,HS_D3085_C443_J14_T64_GATA2
GATA3	HS_D101_C440_J15_T65_GATA3,HS_D163_C288_J15_T65_GATA3,HS_D174_C418_J15_T65_GATA3,HS_D427_C288_J15_T65_GATA3,HS_D429_C288_J15_T65_GATA3,HS_D546_C288_J15_T65_GATA3,HS_D955_C444_J15_T65_GATA3,HS_D956_C446_J15_T65_GATA3,HS_D1098_C295_J15_T65_GATA3,HS_D1099_C295_J15_T65_GATA3,HS_D1100_C295_J15_T65_GATA3,HS_D1324_C288_J15_T65_GATA3,HS_D1325_C288_J15_T65_GATA3,HS_D1326_C288_J15_T65_GATA3,HS_D1590_C64_J15_T65_GATA3,HS_D1754_C475_J15_T65_GATA3,HS_D1755_C475_J15_T65_GATA3,HS_D1992_C7_J15_T65_GATA3,HS_D1995_C7_J15_T65_GATA3,HS_D2182_C28_J15_T65_GATA3,HS_D2215_C440_J15_T65_GATA3,HS_D2216_C440_J15_T65_GATA3,HS_D2217_C440_J15_T65_GATA3,HS_D2218_C440_J15_T65_GATA3,HS_D2223_C440_J15_T65_GATA3,HS_D2224_C440_J15_T65_GATA3,HS_D2225_C440_J15_T65_GATA3,HS_D2226_C440_J15_T65_GATA3,HS_D2329_C239_J15_T65_GATA3,HS_D2467_C288_J15_T65_GATA3,HS_D2526_C288_J15_T65_GATA3,HS_D2527_C288_J15_T65_GATA3,HS_D2528_C239_J15_T65_GATA3,HS_D2621_C288_J15_T65_GATA3,HS_D2616_C288_J15_T65_GATA3,HS_D2746_C288_J15_T65_GATA3,HS_D2747_C440_J15_T65_GATA3,HS_D2874_C288_J15_T65_GATA3,HS_D2953_C28_J15_T65_GATA3,HS_D2954_C245_J15_T65_GATA3,HS_D2955_C341_J15_T65_GATA3,HS_D2956_C411_J15_T65_GATA3,HS_D2998_C239_J15_T65_GATA3,HS_D3059_C449_J15_T65_GATA3,HS_D3082_C1_J15_T65_GATA3,HS_D3103_C239_J15_T65_GATA3
GATA4	HS_D1186_C216_J86_T66_GATA4,HS_D1187_C216_J86_T66_GATA4,HS_D1218_C216_J86_T66_GATA4,HS_D1219_C216_J86_T66_GATA4,HS_D1220_C216_J86_T66_GATA4,HS_D1221_C216_J86_T66_GATA4,HS_D1358_C234_J86_T66_GATA4,HS_D1359_C234_J86_T66_GATA4,HS_D1361_C234_J86_T66_GATA4,HS_D1363_C234_J86_T66_GATA4,HS_D1364_C234_J86_T66_GATA4,HS_D1366_C234_J86_T66_GATA4,HS_D1368_C234_J86_T66_GATA4,HS_D2096_C10_J86_T66_GATA4,HS_D2146_C34_J86_T66_GATA4,HS_D2161_C34_J86_T66_GATA4,HS_D2162_C34_J86_T66_GATA4,HS_D2752_C21_J86_T66_GATA4,HS_D2756_C479_J86_T66_GATA4
GATA6	HS_D765_C168_J216_T67_GATA6,HS_D1188_C216_J216_T67_GATA6,HS_D1222_C216_J216_T67_GATA6,HS_D1223_C216_J216_T67_GATA6,HS_D1305_C474_J216_T67_GATA6,HS_D2422_C81_J216_T67_GATA6,HS_D2423_C81_J216_T67_GATA6,HS_D2425_C81_J216_T67_GATA6,HS_D2426_C81_J216_T67_GATA6,HS_D2429_C81_J216_T67_GATA6,HS_D2430_C81_J216_T67_GATA6,HS_D2496_C48_J216_T67_GATA6,HS_D2753_C21_J216_T67_GATA6,HS_D2754_C244_J216_T67_GATA6,HS_D2757_C479_J216_T67_GATA6,HS_D2759_C1_J216_T67_GATA6
GFI1	HS_D2151_C22_J16_T68_GFI1,HS_D2152_C22_J16_T68_GFI1
GFI1B	HS_D1687_C185_J87_T69_GFI1B,HS_D2474_C407_J87_T69_GFI1B,HS_D2475_C407_J87_T69_GFI1B,HS_D2476_C407_J87_T69_GFI1B,HS_D2477_C407_J87_T69_GFI1B,HS_D2771_C55_J87_T69_GFI1B
GLIS1	HS_D1120_C185_J158_T70_GLIS1,HS_D1597_C185_J158_T70_GLIS1
GLIS2	HS_D1704_C185_J159_T71_GLIS2
GLIS3	HS_D2271_C168_J160_T72_GLIS3
GRHL2	HS_D1310_C261_J217_T73_GRHL2,HS_D1317_C288_J217_T73_GRHL2,HS_D1782_C288_J217_T73_GRHL2,HS_D1783_C288_J217_T73_GRHL2,HS_D1784_C288_J217_T73_GRHL2,HS_D1785_C288_J217_T73_GRHL2,HS_D1786_C288_J217_T73_GRHL2,HS_D1787_C288_J217_T73_GRHL2,HS_D2003_C289_J217_T73_GRHL2,HS_D2004_C289_J217_T73_GRHL2,HS_D2005_C289_J217_T73_GRHL2,HS_D2015_C290_J217_T73_GRHL2,HS_D2016_C290_J217_T73_GRHL2,HS_D2017_C290_J217_T73_GRHL2,HS_D2676_C1_J217_T73_GRHL2,HS_D3051_C358_J217_T73_GRHL2,HS_D3052_C359_J217_T73_GRHL2,HS_D3053_C368_J217_T73_GRHL2
HAND2	HS_D1591_C64_J259_T74_HAND2,HS_D2177_C28_J259_T74_HAND2,HS_D2181_C245_J259_T74_HAND2
HIF1A	HS_D1249_C391_J218_T75_HIF1A,HS_D2057_C389_J218_T75_HIF1A,HS_D2058_C194_J218_T75_HIF1A,HS_D2059_C201_J218_T75_HIF1A,HS_D2398_C366_J218_T75_HIF1A,HS_D2401_C366_J218_T75_HIF1A,HS_D2402_C366_J218_T75_HIF1A,HS_D2570_C388_J218_T75_HIF1A,HS_D2605_C225_J218_T75_HIF1A,HS_D2647_C280_J218_T75_HIF1A
HLF	HS_D1654_C194_J18_T76_HLF
HMBOX1	HS_D640_C241_J210_T77_HMBOX1,HS_D2677_C190_J210_T77_HMBOX1
HNF1A	HS_D1089_C48_J19_T78_HNF1A,HS_D1658_C194_J19_T78_HNF1A,HS_D1921_C348_J19_T78_HNF1A,HS_D2063_C184_J19_T78_HNF1A,HS_D2064_C184_J19_T78_HNF1A
HNF1B	HS_D766_C168_J63_T79_HNF1B,HS_D2941_C1_J63_T79_HNF1B
HNF4A	HS_D81_C194_J50_T80_HNF4A,HS_D371_C194_J50_T80_HNF4A,HS_D709_C194_J50_T80_HNF4A,HS_D748_C260_J50_T80_HNF4A,HS_D2494_C48_J50_T80_HNF4A,HS_D2497_C48_J50_T80_HNF4A,HS_D2744_C165_J50_T80_HNF4A,HS_D2741_C165_J50_T80_HNF4A,HS_D2748_C268_J50_T80_HNF4A,HS_D2749_C268_J50_T80_HNF4A,HS_D2925_C181_J50_T80_HNF4A,HS_D2924_C181_J50_T80_HNF4A,HS_D2923_C181_J50_T80_HNF4A
HNF4A-VAR2	HS_D798_C194_J240_T80_HNF4A-VAR2,HS_D799_C194_J240_T80_HNF4A-VAR2,HS_D944_C194_J240_T80_HNF4A-VAR2,HS_D1189_C216_J240_T80_HNF4A-VAR2,HS_D1224_C216_J240_T80_HNF4A-VAR2,HS_D1635_C260_J240_T80_HNF4A-VAR2,HS_D1694_C260_J240_T80_HNF4A-VAR2,HS_D2397_C199_J240_T80_HNF4A-VAR2
HNF4G	HS_D107_C194_J88_T81_HNF4G,HS_D520_C260_J88_T81_HNF4G,HS_D2101_C261_J88_T81_HNF4G,HS_D2105_C3_J88_T81_HNF4G,HS_D2106_C3_J88_T81_HNF4G
HOXA9	HS_D1267_C187_J125_T82_HOXA9,HS_D1268_C187_J125_T82_HOXA9,HS_D2595_C406_J125_T82_HOXA9
HOXB13	HS_D1506_C261_J211_T83_HOXB13,HS_D1508_C3_J211_T83_HOXB13,HS_D1512_C471_J211_T83_HOXB13,HS_D1513_C471_J211_T83_HOXB13,HS_D2189_C261_J211_T83_HOXB13,HS_D2190_C261_J211_T83_HOXB13,HS_D2193_C261_J211_T83_HOXB13,HS_D2194_C261_J211_T83_HOXB13,HS_D2253_C266_J211_T83_HOXB13,HS_D2254_C266_J211_T83_HOXB13,HS_D2255_C266_J211_T83_HOXB13,HS_D2801_C261_J211_T83_HOXB13
HSF1	HS_D370_C194_J89_T84_HSF1,HS_D444_C148_J89_T84_HSF1,HS_D1903_C475_J89_T84_HSF1,HS_D2599_C38_J89_T84_HSF1,HS_D2601_C44_J89_T84_HSF1,HS_D2602_C1_J89_T84_HSF1,HS_D2603_C284_J89_T84_HSF1,HS_D2604_C415_J89_T84_HSF1,HS_D2600_C1_J89_T84_HSF1,HS_D2896_C460_J89_T84_HSF1,HS_D2895_C460_J89_T84_HSF1
IRF1	HS_D387_C241_J21_T85_IRF1,HS_D388_C241_J21_T85_IRF1,HS_D1416_C172_J21_T85_IRF1,HS_D1417_C172_J21_T85_IRF1,HS_D2642_C1_J21_T85_IRF1
IRF2	HS_D536_C241_J22_T86_IRF2,HS_D967_C57_J22_T86_IRF2,HS_D3042_C55_J22_T86_IRF2
IRF3	HS_D354_C192_J237_T87_IRF3,HS_D542_C148_J237_T87_IRF3,HS_D1714_C418_J237_T87_IRF3
IRF4	HS_D32_C148_J238_T88_IRF4,HS_D2711_C311_J238_T88_IRF4,HS_D2821_C352_J238_T88_IRF4,HS_D2817_C352_J238_T88_IRF4,HS_D2824_C1_J238_T88_IRF4
ISL1	HS_D2179_C28_J252_T89_ISL1,HS_D2180_C245_J252_T89_ISL1
JUN	HS_D342_C474_J90_T90_JUN,HS_D355_C192_J90_T90_JUN,HS_D369_C194_J90_T90_JUN,HS_D380_C241_J90_T90_JUN,HS_D384_C241_J90_T90_JUN,HS_D438_C241_J90_T90_JUN,HS_D449_C10_J90_T90_JUN,HS_D492_C288_J90_T90_JUN,HS_D625_C10_J90_T90_JUN,HS_D704_C10_J90_T90_JUN,HS_D1372_C388_J90_T90_JUN,HS_D1420_C172_J90_T90_JUN,HS_D1421_C172_J90_T90_JUN,HS_D1676_C10_J90_T90_JUN,HS_D1823_C288_J90_T90_JUN,HS_D1824_C288_J90_T90_JUN,HS_D1825_C288_J90_T90_JUN,HS_D2027_C285_J90_T90_JUN,HS_D2441_C295_J90_T90_JUN,HS_D2462_C243_J90_T90_JUN,HS_D2959_C295_J90_T90_JUN
JUN-VAR2	HS_D373_C225_J91_T90_JUN-VAR2,HS_D475_C10_J91_T90_JUN-VAR2,HS_D495_C10_J91_T90_JUN-VAR2,HS_D606_C10_J91_T90_JUN-VAR2,HS_D800_C241_J91_T90_JUN-VAR2,HS_D1045_C295_J91_T90_JUN-VAR2,HS_D1046_C295_J91_T90_JUN-VAR2,HS_D1047_C295_J91_T90_JUN-VAR2,HS_D1352_C50_J91_T90_JUN-VAR2,HS_D1422_C172_J91_T90_JUN-VAR2,HS_D1424_C172_J91_T90_JUN-VAR2,HS_D1608_C10_J91_T90_JUN-VAR2,HS_D1617_C10_J91_T90_JUN-VAR2,HS_D1620_C10_J91_T90_JUN-VAR2,HS_D1633_C10_J91_T90_JUN-VAR2,HS_D1692_C10_J91_T90_JUN-VAR2,HS_D1958_C225_J91_T90_JUN-VAR2,HS_D1959_C225_J91_T90_JUN-VAR2,HS_D1960_C225_J91_T90_JUN-VAR2,HS_D1961_C225_J91_T90_JUN-VAR2,HS_D2028_C285_J91_T90_JUN-VAR2,HS_D2421_C81_J91_T90_JUN-VAR2,HS_D2424_C81_J91_T90_JUN-VAR2,HS_D2442_C297_J91_T90_JUN-VAR2,HS_D2461_C243_J91_T90_JUN-VAR2,HS_D2675_C46_J91_T90_JUN-VAR2,HS_D3061_C46_J91_T90_JUN-VAR2,HS_D3060_C46_J91_T90_JUN-VAR2
JUNB	HS_D211_C241_J92_T91_JUNB,HS_D649_C241_J92_T91_JUNB,HS_D679_C148_J92_T91_JUNB,HS_D1418_C172_J92_T91_JUNB,HS_D1596_C10_J92_T91_JUNB,HS_D1598_C10_J92_T91_JUNB,HS_D1629_C10_J92_T91_JUNB,HS_D1667_C10_J92_T91_JUNB,HS_D1690_C10_J92_T91_JUNB,HS_D1700_C10_J92_T91_JUNB,HS_D1715_C10_J92_T91_JUNB,HS_D1716_C10_J92_T91_JUNB,HS_D2025_C285_J92_T91_JUNB,HS_D2026_C285_J92_T91_JUNB
JUNB-VAR2	HS_D1622_C10_J235_T91_JUNB-VAR2,HS_D1650_C10_J235_T91_JUNB-VAR2,HS_D1656_C10_J235_T91_JUNB-VAR2,HS_D1675_C10_J235_T91_JUNB-VAR2
JUND	HS_D26_C194_J93_T92_JUND,HS_D164_C288_J93_T92_JUND,HS_D209_C440_J93_T92_JUND,HS_D323_C148_J93_T92_JUND,HS_D341_C474_J93_T92_JUND,HS_D1353_C50_J93_T92_JUND,HS_D1711_C260_J93_T92_JUND,HS_D2539_C366_J93_T92_JUND,HS_D2903_C1_J93_T92_JUND
JUND-VAR2	HS_D75_C474_J94_T92_JUND-VAR2,HS_D138_C10_J94_T92_JUND-VAR2,HS_D147_C181_J94_T92_JUND-VAR2,HS_D154_C418_J94_T92_JUND-VAR2,HS_D210_C241_J94_T92_JUND-VAR2,HS_D356_C192_J94_T92_JUND-VAR2,HS_D368_C194_J94_T92_JUND-VAR2,HS_D390_C241_J94_T92_JUND-VAR2,HS_D407_C418_J94_T92_JUND-VAR2,HS_D434_C148_J94_T92_JUND-VAR2,HS_D813_C148_J94_T92_JUND-VAR2,HS_D1600_C260_J94_T92_JUND-VAR2,HS_D2845_C1_J94_T92_JUND-VAR2,HS_D3108_C214_J94_T92_JUND-VAR2
KLF1	HS_D1118_C185_J95_T93_KLF1,HS_D1615_C185_J95_T93_KLF1
KLF11	HS_D1056_C203_J241_T94_KLF11,HS_D1057_C203_J241_T94_KLF11
KLF12	HS_D1122_C185_J162_T95_KLF12
KLF15	HS_D1126_C185_J242_T96_KLF15
KLF16	HS_D1632_C241_J161_T97_KLF16
KLF4	HS_D517_C288_J17_T98_KLF4,HS_D1899_C475_J17_T98_KLF4,HS_D1900_C475_J17_T98_KLF4,HS_D2586_C34_J17_T98_KLF4,HS_D2635_C288_J17_T98_KLF4,HS_D2805_C199_J17_T98_KLF4,HS_D2828_C246_J17_T98_KLF4
KLF5	HS_D2114_C32_J128_T99_KLF5,HS_D2115_C188_J128_T99_KLF5,HS_D2116_C188_J128_T99_KLF5,HS_D2117_C188_J128_T99_KLF5,HS_D2118_C188_J128_T99_KLF5,HS_D2119_C179_J128_T99_KLF5,HS_D2120_C179_J128_T99_KLF5,HS_D2121_C179_J128_T99_KLF5,HS_D2122_C179_J128_T99_KLF5,HS_D2755_C244_J128_T99_KLF5,HS_D2758_C479_J128_T99_KLF5
KLF9	HS_D483_C288_J219_T100_KLF9,HS_D1640_C185_J219_T100_KLF9,HS_D2912_C1_J219_T100_KLF9
LEF1	HS_D1190_C216_J175_T101_LEF1,HS_D1685_C241_J175_T101_LEF1
LHX2	HS_D2863_C392_J150_T102_LHX2
LHX9	HS_D2319_C181_J151_T103_LHX9,HS_D2320_C181_J151_T103_LHX9
MAF	HS_D1808_C445_J243_T104_MAF,HS_D1809_C445_J243_T104_MAF,HS_D1810_C445_J243_T104_MAF
MAFB	HS_D760_C364_J51_T105_MAFB
MAFF	HS_D364_C194_J96_T106_MAFF,HS_D385_C241_J96_T106_MAFF,HS_D486_C192_J96_T106_MAFF,HS_D506_C148_J96_T106_MAFF
MAFK	HS_D324_C148_J97_T107_MAFK,HS_D338_C474_J97_T107_MAFK,HS_D347_C192_J97_T107_MAFK,HS_D361_C194_J97_T107_MAFK,HS_D363_C194_J97_T107_MAFK,HS_D376_C229_J97_T107_MAFK,HS_D396_C241_J97_T107_MAFK,HS_D582_C10_J97_T107_MAFK,HS_D588_C288_J97_T107_MAFK,HS_D2694_C353_J97_T107_MAFK
MAX	HS_D86_C241_J24_T108_MAX,HS_D151_C181_J24_T108_MAX,HS_D153_C474_J24_T108_MAX,HS_D175_C10_J24_T108_MAX,HS_D177_C194_J24_T108_MAX,HS_D180_C235_J24_T108_MAX,HS_D188_C288_J24_T108_MAX,HS_D201_C418_J24_T108_MAX,HS_D319_C10_J24_T108_MAX,HS_D348_C192_J24_T108_MAX,HS_D358_C194_J24_T108_MAX,HS_D383_C241_J24_T108_MAX,HS_D404_C325_J24_T108_MAX,HS_D409_C474_J24_T108_MAX,HS_D435_C241_J24_T108_MAX,HS_D815_C148_J24_T108_MAX,HS_D972_C190_J24_T108_MAX,HS_D1637_C260_J24_T108_MAX,HS_D1666_C260_J24_T108_MAX,HS_D2061_C309_J24_T108_MAX,HS_D2062_C309_J24_T108_MAX,HS_D2318_C67_J24_T108_MAX,HS_D2582_C361_J24_T108_MAX,HS_D2578_C361_J24_T108_MAX,HS_D2580_C361_J24_T108_MAX,HS_D2584_C1_J24_T108_MAX,HS_D2625_C328_J24_T108_MAX,HS_D2627_C330_J24_T108_MAX,HS_D2639_C361_J24_T108_MAX
MECOM	HS_D1394_C420_J12_T109_MECOM
MEF2A	HS_D66_C148_J23_T110_MEF2A,HS_D114_C241_J23_T110_MEF2A,HS_D200_C418_J23_T110_MEF2A
MEF2B	HS_D1980_C125_J136_T111_MEF2B,HS_D1981_C429_J136_T111_MEF2B,HS_D1982_C429_J136_T111_MEF2B,HS_D1983_C429_J136_T111_MEF2B,HS_D1984_C429_J136_T111_MEF2B,HS_D2389_C186_J136_T111_MEF2B,HS_D2390_C186_J136_T111_MEF2B,HS_D2391_C186_J136_T111_MEF2B,HS_D3018_C88_J136_T111_MEF2B,HS_D3020_C242_J136_T111_MEF2B,HS_D3016_C1_J136_T111_MEF2B,HS_D3024_C1_J136_T111_MEF2B
MEF2C	HS_D104_C148_J98_T112_MEF2C
MEF2D	HS_D1668_C241_J177_T113_MEF2D
MEIS1	HS_D782_C1_J99_T114_MEIS1,HS_D2596_C406_J99_T114_MEIS1
MEIS1-VAR2	HS_D2270_C5_J260_T114_MEIS1-VAR2
MEIS2	HS_D666_C241_J178_T115_MEIS2
MGA	HS_D622_C241_J185_T116_MGA
MITF	HS_D440_C241_J132_T117_MITF,HS_D651_C241_J132_T117_MITF,HS_D1062_C305_J132_T117_MITF,HS_D2717_C305_J132_T117_MITF,HS_D2718_C305_J132_T117_MITF,HS_D2864_C392_J132_T117_MITF,HS_D2910_C4_J132_T117_MITF
MLX	HS_D1671_C194_J137_T118_MLX
MNT	HS_D538_C241_J193_T119_MNT,HS_D574_C241_J193_T119_MNT,HS_D630_C194_J193_T119_MNT,HS_D698_C241_J193_T119_MNT,HS_D1701_C194_J193_T119_MNT
MXI1	HS_D325_C148_J220_T120_MXI1,HS_D337_C474_J220_T120_MXI1,HS_D349_C192_J220_T120_MXI1,HS_D360_C194_J220_T120_MXI1,HS_D375_C229_J220_T120_MXI1,HS_D397_C241_J220_T120_MXI1,HS_D406_C418_J220_T120_MXI1
MYB	HS_D1465_C370_J41_T121_MYB,HS_D2153_C22_J41_T121_MYB,HS_D2154_C22_J41_T121_MYB,HS_D3081_C1_J41_T121_MYB
MYBL2	HS_D141_C194_J179_T122_MYBL2,HS_D950_C190_J179_T122_MYBL2
MYC	HS_D217_C148_J60_T123_MYC,HS_D227_C192_J60_T123_MYC,HS_D229_C194_J60_T123_MYC,HS_D231_C225_J60_T123_MYC,HS_D240_C288_J60_T123_MYC,HS_D241_C288_J60_T123_MYC,HS_D253_C284_J60_T123_MYC,HS_D259_C284_J60_T123_MYC,HS_D317_C10_J60_T123_MYC,HS_D340_C474_J60_T123_MYC,HS_D386_C241_J60_T123_MYC,HS_D394_C241_J60_T123_MYC,HS_D403_C325_J60_T123_MYC,HS_D437_C241_J60_T123_MYC,HS_D802_C241_J60_T123_MYC,HS_D816_C148_J60_T123_MYC,HS_D899_C225_J60_T123_MYC,HS_D900_C345_J60_T123_MYC,HS_D901_C148_J60_T123_MYC,HS_D902_C192_J60_T123_MYC,HS_D904_C194_J60_T123_MYC,HS_D905_C241_J60_T123_MYC,HS_D909_C288_J60_T123_MYC,HS_D911_C113_J60_T123_MYC,HS_D914_C79_J60_T123_MYC,HS_D971_C190_J60_T123_MYC,HS_D1110_C387_J60_T123_MYC,HS_D1112_C387_J60_T123_MYC,HS_D1128_C460_J60_T123_MYC,HS_D1129_C460_J60_T123_MYC,HS_D1130_C460_J60_T123_MYC,HS_D1131_C460_J60_T123_MYC,HS_D1132_C460_J60_T123_MYC,HS_D1143_C181_J60_T123_MYC,HS_D1208_C216_J60_T123_MYC,HS_D1209_C216_J60_T123_MYC,HS_D1210_C216_J60_T123_MYC,HS_D1211_C216_J60_T123_MYC,HS_D1212_C216_J60_T123_MYC,HS_D1280_C124_J60_T123_MYC,HS_D1284_C261_J60_T123_MYC,HS_D1285_C261_J60_T123_MYC,HS_D1378_C213_J60_T123_MYC,HS_D1379_C47_J60_T123_MYC,HS_D1386_C181_J60_T123_MYC,HS_D1584_C361_J60_T123_MYC,HS_D1585_C361_J60_T123_MYC,HS_D1586_C361_J60_T123_MYC,HS_D1587_C361_J60_T123_MYC,HS_D1788_C330_J60_T123_MYC,HS_D1789_C188_J60_T123_MYC,HS_D1790_C188_J60_T123_MYC,HS_D1792_C284_J60_T123_MYC,HS_D1793_C284_J60_T123_MYC,HS_D1794_C284_J60_T123_MYC,HS_D1795_C284_J60_T123_MYC,HS_D1796_C284_J60_T123_MYC,HS_D1797_C284_J60_T123_MYC,HS_D1798_C284_J60_T123_MYC,HS_D1799_C284_J60_T123_MYC,HS_D2150_C74_J60_T123_MYC,HS_D2327_C442_J60_T123_MYC,HS_D2416_C120_J60_T123_MYC,HS_D2417_C120_J60_T123_MYC,HS_D2418_C120_J60_T123_MYC,HS_D2547_C36_J60_T123_MYC,HS_D2548_C37_J60_T123_MYC,HS_D2549_C1_J60_T123_MYC,HS_D2576_C311_J60_T123_MYC,HS_D2577_C330_J60_T123_MYC,HS_D2583_C361_J60_T123_MYC,HS_D2579_C361_J60_T123_MYC,HS_D2581_C361_J60_T123_MYC,HS_D2585_C1_J60_T123_MYC,HS_D2587_C34_J60_T123_MYC,HS_D2626_C328_J60_T123_MYC,HS_D2638_C311_J60_T123_MYC,HS_D2640_C361_J60_T123_MYC,HS_D2661_C190_J60_T123_MYC,HS_D2663_C460_J60_T123_MYC,HS_D2662_C460_J60_T123_MYC,HS_D2846_C272_J60_T123_MYC,HS_D2869_C361_J60_T123_MYC,HS_D2870_C361_J60_T123_MYC,HS_D2871_C361_J60_T123_MYC,HS_D2952_C196_J60_T123_MYC,HS_D2951_C196_J60_T123_MYC,HS_D2963_C1_J60_T123_MYC,HS_D3031_C1_J60_T123_MYC,HS_D3113_C460_J60_T123_MYC,HS_D3110_C460_J60_T123_MYC,HS_D3111_C460_J60_T123_MYC,HS_D3112_C460_J60_T123_MYC,HS_D3156_C55_J60_T123_MYC
MYCN	HS_D1155_C442_J44_T124_MYCN,HS_D1156_C442_J44_T124_MYCN,HS_D1501_C341_J44_T124_MYCN,HS_D1502_C245_J44_T124_MYCN,HS_D1503_C324_J44_T124_MYCN,HS_D2069_C228_J44_T124_MYCN,HS_D2070_C228_J44_T124_MYCN,HS_D2086_C200_J44_T124_MYCN,HS_D2087_C317_J44_T124_MYCN,HS_D2178_C28_J44_T124_MYCN,HS_D2183_C245_J44_T124_MYCN,HS_D2439_C410_J44_T124_MYCN,HS_D3129_C28_J44_T124_MYCN,HS_D3131_C245_J44_T124_MYCN,HS_D3132_C341_J44_T124_MYCN,HS_D3136_C1_J44_T124_MYCN,HS_D3133_C1_J44_T124_MYCN
MYF5	HS_D1340_C395_J261_T125_MYF5
MYOD1	HS_D1329_C396_J100_T126_MYOD1,HS_D1463_C84_J100_T126_MYOD1,HS_D2715_C318_J100_T126_MYOD1,HS_D2716_C397_J100_T126_MYOD1
MYOG	HS_D1330_C396_J101_T127_MYOG
NEUROD1	HS_D1437_C78_J221_T128_NEUROD1,HS_D1442_C78_J221_T128_NEUROD1,HS_D1443_C78_J221_T128_NEUROD1,HS_D3009_C334_J221_T128_NEUROD1
NEUROG2	HS_D1289_C315_J138_T129_NEUROG2,HS_D1296_C315_J138_T129_NEUROG2,HS_D1299_C315_J138_T129_NEUROG2
NEUROG2-VAR2	HS_D1288_C315_J262_T129_NEUROG2-VAR2,HS_D1290_C315_J262_T129_NEUROG2-VAR2,HS_D1291_C315_J262_T129_NEUROG2-VAR2,HS_D1292_C315_J262_T129_NEUROG2-VAR2,HS_D1293_C315_J262_T129_NEUROG2-VAR2,HS_D1294_C315_J262_T129_NEUROG2-VAR2,HS_D1295_C315_J262_T129_NEUROG2-VAR2,HS_D1297_C315_J262_T129_NEUROG2-VAR2,HS_D1298_C315_J262_T129_NEUROG2-VAR2
NFE2	HS_D436_C241_J202_T130_NFE2,HS_D441_C241_J202_T130_NFE2,HS_D1697_C241_J202_T130_NFE2,HS_D2650_C107_J202_T130_NFE2
NFE2L2	HS_D564_C241_J62_T131_NFE2L2,HS_D565_C194_J62_T131_NFE2L2,HS_D597_C10_J62_T131_NFE2L2,HS_D1425_C172_J62_T131_NFE2L2,HS_D1652_C229_J62_T131_NFE2L2,HS_D1693_C192_J62_T131_NFE2L2,HS_D2019_C10_J62_T131_NFE2L2,HS_D2826_C8_J62_T131_NFE2L2,HS_D2827_C8_J62_T131_NFE2L2
NFIA	HS_D1519_C194_J139_T132_NFIA,HS_D1522_C241_J139_T132_NFIA
NFIB	HS_D596_C288_J263_T133_NFIB,HS_D621_C288_J263_T133_NFIB
NFIC	HS_D165_C418_J65_T134_NFIC,HS_D193_C235_J65_T134_NFIC
NFIC-VAR2	HS_D650_C241_J244_T134_NFIC-VAR2,HS_D1768_C194_J244_T134_NFIC-VAR2
NFIL3	HS_D1515_C194_J10_T135_NFIL3,HS_D1720_C194_J10_T135_NFIL3
NFKB1	HS_D2029_C285_J45_T136_NFKB1,HS_D2030_C285_J45_T136_NFKB1,HS_D2386_C148_J45_T136_NFKB1,HS_D2932_C254_J45_T136_NFKB1
NFKB2	HS_D2387_C148_J180_T137_NFKB2,HS_D2933_C254_J180_T137_NFKB2
NFYA	HS_D252_C192_J25_T138_NFYA,HS_D393_C241_J25_T138_NFYA
NFYB	HS_D250_C148_J102_T139_NFYB,HS_D251_C192_J102_T139_NFYB,HS_D392_C241_J102_T139_NFYB,HS_D2514_C241_J102_T139_NFYB
NFYC	HS_D1683_C194_J264_T140_NFYC
NKX2-5	HS_D2128_C97_J27_T141_NKX2-5
NKX2-5-VAR2	HS_D2129_C30_J103_T141_NKX2-5-VAR2
NKX3-1	HS_D2518_C261_J52_T142_NKX3-1
NR1H4	HS_D2825_C1_J222_T143_NR1H4
NR2C1	HS_D493_C241_J245_T144_NR2C1,HS_D634_C241_J245_T144_NR2C1,HS_D645_C148_J245_T144_NR2C1
NR2C2	HS_D420_C194_J104_T145_NR2C2,HS_D637_C241_J104_T145_NR2C2,HS_D825_C194_J104_T145_NR2C2,HS_D2678_C469_J104_T145_NR2C2
NR2F1	HS_D694_C241_J7_T146_NR2F1
NR2F1-VAR2	HS_D576_C148_J246_T146_NR2F1-VAR2,HS_D1096_C71_J246_T146_NR2F1-VAR2,HS_D1686_C194_J246_T146_NR2F1-VAR2
NR2F1-VAR3	HS_D951_C169_J247_T146_NR2F1-VAR3
NR2F2	HS_D144_C241_J223_T147_NR2F2,HS_D197_C288_J223_T147_NR2F2,HS_D208_C194_J223_T147_NR2F2,HS_D952_C169_J223_T147_NR2F2,HS_D1657_C260_J223_T147_NR2F2,HS_D1695_C260_J223_T147_NR2F2,HS_D2679_C469_J223_T147_NR2F2,HS_D2760_C468_J223_T147_NR2F2
NR2F6	HS_D1698_C241_J140_T148_NR2F6
NR2F6-VAR2	HS_D579_C194_J153_T148_NR2F6-VAR2,HS_D1664_C194_J153_T148_NR2F6-VAR2
NR3C1	HS_D34_C10_J49_T149_NR3C1,HS_D35_C10_J49_T149_NR3C1,HS_D61_C10_J49_T149_NR3C1,HS_D464_C10_J49_T149_NR3C1,HS_D554_C10_J49_T149_NR3C1,HS_D558_C10_J49_T149_NR3C1,HS_D670_C10_J49_T149_NR3C1,HS_D683_C10_J49_T149_NR3C1,HS_D769_C229_J49_T149_NR3C1,HS_D770_C460_J49_T149_NR3C1,HS_D771_C229_J49_T149_NR3C1,HS_D929_C261_J49_T149_NR3C1,HS_D932_C261_J49_T149_NR3C1,HS_D933_C261_J49_T149_NR3C1,HS_D983_C96_J49_T149_NR3C1,HS_D984_C96_J49_T149_NR3C1,HS_D985_C96_J49_T149_NR3C1,HS_D1048_C295_J49_T149_NR3C1,HS_D1051_C13_J49_T149_NR3C1,HS_D1150_C10_J49_T149_NR3C1,HS_D1152_C29_J49_T149_NR3C1,HS_D1153_C29_J49_T149_NR3C1,HS_D1321_C288_J49_T149_NR3C1,HS_D1322_C288_J49_T149_NR3C1,HS_D1323_C288_J49_T149_NR3C1,HS_D1592_C10_J49_T149_NR3C1,HS_D1628_C10_J49_T149_NR3C1,HS_D1641_C10_J49_T149_NR3C1,HS_D1643_C10_J49_T149_NR3C1,HS_D1645_C10_J49_T149_NR3C1,HS_D1646_C10_J49_T149_NR3C1,HS_D1659_C10_J49_T149_NR3C1,HS_D1721_C10_J49_T149_NR3C1,HS_D1746_C282_J49_T149_NR3C1,HS_D1750_C40_J49_T149_NR3C1,HS_D1814_C284_J49_T149_NR3C1,HS_D1815_C284_J49_T149_NR3C1,HS_D1816_C284_J49_T149_NR3C1,HS_D1817_C284_J49_T149_NR3C1,HS_D1818_C284_J49_T149_NR3C1,HS_D1819_C284_J49_T149_NR3C1,HS_D1820_C284_J49_T149_NR3C1,HS_D1821_C284_J49_T149_NR3C1,HS_D1822_C284_J49_T149_NR3C1,HS_D1969_C235_J49_T149_NR3C1,HS_D1971_C235_J49_T149_NR3C1,HS_D1990_C6_J49_T149_NR3C1,HS_D2195_C175_J49_T149_NR3C1,HS_D2196_C175_J49_T149_NR3C1,HS_D2197_C175_J49_T149_NR3C1,HS_D2198_C175_J49_T149_NR3C1,HS_D2199_C175_J49_T149_NR3C1,HS_D2200_C175_J49_T149_NR3C1,HS_D2227_C448_J49_T149_NR3C1,HS_D2263_C434_J49_T149_NR3C1,HS_D2419_C314_J49_T149_NR3C1,HS_D2420_C280_J49_T149_NR3C1,HS_D2508_C1_J49_T149_NR3C1,HS_D2511_C1_J49_T149_NR3C1,HS_D2509_C1_J49_T149_NR3C1,HS_D2546_C261_J49_T149_NR3C1,HS_D2543_C261_J49_T149_NR3C1,HS_D2957_C460_J49_T149_NR3C1,HS_D2958_C460_J49_T149_NR3C1,HS_D2968_C322_J49_T149_NR3C1,HS_D2967_C322_J49_T149_NR3C1,HS_D2995_C1_J49_T149_NR3C1,HS_D3065_C288_J49_T149_NR3C1,HS_D3076_C480_J49_T149_NR3C1
NR4A1	HS_D3128_C243_J224_T150_NR4A1
NR5A2	HS_D986_C288_J105_T151_NR5A2
NRF1	HS_D343_C474_J106_T152_NRF1,HS_D357_C192_J106_T152_NRF1,HS_D367_C194_J106_T152_NRF1,HS_D400_C241_J106_T152_NRF1,HS_D485_C288_J106_T152_NRF1,HS_D569_C241_J106_T152_NRF1,HS_D660_C241_J106_T152_NRF1,HS_D667_C194_J106_T152_NRF1,HS_D705_C241_J106_T152_NRF1,HS_D1516_C241_J106_T152_NRF1,HS_D1517_C241_J106_T152_NRF1,HS_D1518_C241_J106_T152_NRF1,HS_D1520_C194_J106_T152_NRF1,HS_D1528_C288_J106_T152_NRF1,HS_D1529_C288_J106_T152_NRF1,HS_D2772_C323_J106_T152_NRF1,HS_D2862_C440_J106_T152_NRF1,HS_D2976_C177_J106_T152_NRF1,HS_D2977_C1_J106_T152_NRF1
ONECUT1	HS_D749_C260_J141_T153_ONECUT1,HS_D767_C168_J141_T153_ONECUT1
ONECUT2	HS_D2399_C261_J170_T154_ONECUT2,HS_D2400_C261_J170_T154_ONECUT2
OSR2	HS_D1119_C185_J265_T155_OSR2,HS_D1682_C185_J265_T155_OSR2
OTX2	HS_D1191_C216_J152_T156_OTX2,HS_D1225_C216_J152_T156_OTX2,HS_D1226_C216_J152_T156_OTX2,HS_D1227_C216_J152_T156_OTX2,HS_D1433_C77_J152_T156_OTX2,HS_D1434_C77_J152_T156_OTX2,HS_D1435_C78_J152_T156_OTX2,HS_D1436_C78_J152_T156_OTX2,HS_D1438_C78_J152_T156_OTX2,HS_D1439_C78_J152_T156_OTX2,HS_D1440_C78_J152_T156_OTX2,HS_D1441_C78_J152_T156_OTX2,HS_D1444_C77_J152_T156_OTX2,HS_D1445_C77_J152_T156_OTX2,HS_D1446_C78_J152_T156_OTX2,HS_D1447_C78_J152_T156_OTX2,HS_D2344_C77_J152_T156_OTX2,HS_D2865_C392_J152_T156_OTX2
PAX5	HS_D33_C148_J6_T157_PAX5,HS_D54_C149_J6_T157_PAX5,HS_D55_C150_J6_T157_PAX5,HS_D973_C387_J6_T157_PAX5,HS_D974_C323_J6_T157_PAX5,HS_D975_C255_J6_T157_PAX5,HS_D3022_C353_J6_T157_PAX5
PAX6	HS_D1404_C98_J29_T158_PAX6
PBX2	HS_D699_C241_J225_T159_PBX2,HS_D1612_C241_J225_T159_PBX2
PBX3	HS_D29_C148_J226_T160_PBX3,HS_D178_C10_J226_T160_PBX3
PDX1	HS_D742_C364_J53_T161_PDX1,HS_D768_C168_J53_T161_PDX1,HS_D1035_C76_J53_T161_PDX1,HS_D1912_C231_J53_T161_PDX1,HS_D2841_C195_J53_T161_PDX1
PHOX2B	HS_D1589_C64_J142_T162_PHOX2B,HS_D2176_C28_J142_T162_PHOX2B,HS_D2184_C245_J142_T162_PHOX2B
PKNOX1	HS_D478_C241_J181_T163_PKNOX1,HS_D1595_C148_J181_T163_PKNOX1,HS_D1599_C188_J181_T163_PKNOX1,HS_D1696_C288_J181_T163_PKNOX1,HS_D1811_C190_J181_T163_PKNOX1
PLAG1	HS_D1985_C241_J67_T164_PLAG1
POU2F2	HS_D45_C149_J107_T165_POU2F2
POU5F1	HS_D98_C474_J227_T166_POU5F1,HS_D514_C164_J227_T166_POU5F1,HS_D533_C33_J227_T166_POU5F1,HS_D789_C475_J227_T166_POU5F1,HS_D980_C216_J227_T166_POU5F1,HS_D1192_C216_J227_T166_POU5F1,HS_D1193_C216_J227_T166_POU5F1,HS_D1558_C475_J227_T166_POU5F1,HS_D1901_C475_J227_T166_POU5F1,HS_D1902_C475_J227_T166_POU5F1,HS_D2088_C315_J227_T166_POU5F1,HS_D2089_C315_J227_T166_POU5F1,HS_D2091_C315_J227_T166_POU5F1,HS_D2092_C315_J227_T166_POU5F1,HS_D2093_C232_J227_T166_POU5F1,HS_D2427_C217_J227_T166_POU5F1,HS_D2428_C217_J227_T166_POU5F1,HS_D2571_C327_J227_T166_POU5F1,HS_D2806_C199_J227_T166_POU5F1,HS_D3026_C195_J227_T166_POU5F1,HS_D3028_C195_J227_T166_POU5F1
PPARG	HS_D886_C413_J28_T167_PPARG,HS_D1058_C203_J28_T167_PPARG,HS_D1059_C203_J28_T167_PPARG,HS_D1079_C432_J28_T167_PPARG,HS_D1080_C432_J28_T167_PPARG,HS_D1081_C432_J28_T167_PPARG,HS_D1082_C432_J28_T167_PPARG,HS_D1083_C432_J28_T167_PPARG,HS_D1084_C432_J28_T167_PPARG,HS_D1630_C194_J28_T167_PPARG,HS_D2492_C174_J28_T167_PPARG
PRDM1	HS_D351_C192_J108_T168_PRDM1,HS_D1114_C185_J108_T168_PRDM1,HS_D1172_C216_J108_T168_PRDM1,HS_D1173_C216_J108_T168_PRDM1,HS_D1174_C216_J108_T168_PRDM1,HS_D1175_C216_J108_T168_PRDM1,HS_D1644_C185_J108_T168_PRDM1,HS_D1732_C458_J108_T168_PRDM1
PRDM4	HS_D550_C185_J266_T169_PRDM4
RARA	HS_D863_C467_J154_T170_RARA,HS_D1614_C194_J154_T170_RARA
RARA-VAR2	HS_D2207_C462_J155_T170_RARA-VAR2
RARG	HS_D2046_C403_J206_T171_RARG
RARG-VAR3	HS_D2047_C403_J248_T171_RARG-VAR3,HS_D2048_C403_J248_T171_RARG-VAR3
RBPJ	HS_D991_C74_J228_T172_RBPJ,HS_D2206_C390_J228_T172_RBPJ,HS_D2394_C256_J228_T172_RBPJ,HS_D2536_C1_J228_T172_RBPJ,HS_D2537_C74_J228_T172_RBPJ
REL	HS_D2385_C148_J42_T173_REL
RELA	HS_D322_C134_J47_T174_RELA,HS_D328_C148_J47_T174_RELA,HS_D329_C149_J47_T174_RELA,HS_D330_C150_J47_T174_RELA,HS_D331_C152_J47_T174_RELA,HS_D332_C155_J47_T174_RELA,HS_D333_C156_J47_T174_RELA,HS_D334_C157_J47_T174_RELA,HS_D335_C158_J47_T174_RELA,HS_D336_C159_J47_T174_RELA,HS_D865_C159_J47_T174_RELA,HS_D866_C155_J47_T174_RELA,HS_D867_C158_J47_T174_RELA,HS_D868_C152_J47_T174_RELA,HS_D869_C150_J47_T174_RELA,HS_D870_C134_J47_T174_RELA,HS_D871_C157_J47_T174_RELA,HS_D872_C156_J47_T174_RELA,HS_D873_C148_J47_T174_RELA,HS_D874_C149_J47_T174_RELA,HS_D1151_C29_J47_T174_RELA,HS_D1154_C29_J47_T174_RELA,HS_D1236_C313_J47_T174_RELA,HS_D1265_C437_J47_T174_RELA,HS_D1271_C288_J47_T174_RELA,HS_D1275_C288_J47_T174_RELA,HS_D1276_C288_J47_T174_RELA,HS_D1371_C388_J47_T174_RELA,HS_D1410_C218_J47_T174_RELA,HS_D1426_C172_J47_T174_RELA,HS_D1427_C172_J47_T174_RELA,HS_D1428_C172_J47_T174_RELA,HS_D2110_C225_J47_T174_RELA,HS_D2111_C225_J47_T174_RELA,HS_D2112_C225_J47_T174_RELA,HS_D2155_C85_J47_T174_RELA,HS_D2156_C85_J47_T174_RELA,HS_D2157_C85_J47_T174_RELA,HS_D2158_C85_J47_T174_RELA,HS_D2159_C85_J47_T174_RELA,HS_D2365_C10_J47_T174_RELA,HS_D2383_C148_J47_T174_RELA,HS_D2507_C1_J47_T174_RELA,HS_D2510_C1_J47_T174_RELA,HS_D2512_C1_J47_T174_RELA,HS_D2569_C225_J47_T174_RELA,HS_D2643_C225_J47_T174_RELA,HS_D2644_C229_J47_T174_RELA,HS_D2739_C12_J47_T174_RELA,HS_D2773_C225_J47_T174_RELA,HS_D2915_C1_J47_T174_RELA,HS_D2935_C409_J47_T174_RELA,HS_D3145_C261_J47_T174_RELA,HS_D3149_C261_J47_T174_RELA,HS_D3151_C261_J47_T174_RELA
RELB	HS_D2384_C148_J229_T175_RELB,HS_D2934_C254_J229_T175_RELB
REST	HS_D17_C241_J55_T176_REST,HS_D24_C148_J55_T176_REST,HS_D36_C474_J55_T176_REST,HS_D56_C418_J55_T176_REST,HS_D58_C194_J55_T176_REST,HS_D59_C362_J55_T176_REST,HS_D60_C371_J55_T176_REST,HS_D95_C192_J55_T176_REST,HS_D100_C241_J55_T176_REST,HS_D116_C194_J55_T176_REST,HS_D117_C371_J55_T176_REST,HS_D120_C362_J55_T176_REST,HS_D132_C148_J55_T176_REST,HS_D159_C288_J55_T176_REST,HS_D172_C202_J55_T176_REST,HS_D190_C362_J55_T176_REST,HS_D194_C235_J55_T176_REST,HS_D204_C181_J55_T176_REST,HS_D612_C474_J55_T176_REST,HS_D673_C260_J55_T176_REST,HS_D675_C164_J55_T176_REST,HS_D676_C10_J55_T176_REST,HS_D677_C260_J55_T176_REST,HS_D915_C461_J55_T176_REST,HS_D918_C461_J55_T176_REST,HS_D960_C241_J55_T176_REST,HS_D970_C14_J55_T176_REST,HS_D1256_C474_J55_T176_REST,HS_D1257_C474_J55_T176_REST,HS_D1260_C10_J55_T176_REST,HS_D1261_C10_J55_T176_REST,HS_D1638_C185_J55_T176_REST,HS_D2361_C241_J55_T176_REST,HS_D2376_C148_J55_T176_REST,HS_D2378_C148_J55_T176_REST,HS_D2379_C239_J55_T176_REST,HS_D2443_C72_J55_T176_REST,HS_D2444_C72_J55_T176_REST,HS_D2445_C73_J55_T176_REST,HS_D2446_C73_J55_T176_REST,HS_D2705_C166_J55_T176_REST,HS_D2704_C166_J55_T176_REST,HS_D2713_C1_J55_T176_REST,HS_D2745_C165_J55_T176_REST,HS_D2742_C165_J55_T176_REST,HS_D3036_C241_J55_T176_REST
RFX1	HS_D687_C194_J109_T177_RFX1,HS_D1649_C288_J109_T177_RFX1,HS_D1653_C288_J109_T177_RFX1,HS_D1662_C241_J109_T177_RFX1,HS_D1665_C241_J109_T177_RFX1
RFX3	HS_D1601_C194_J183_T178_RFX3
RFX5	HS_D345_C474_J110_T179_RFX5,HS_D362_C194_J110_T179_RFX5,HS_D374_C229_J110_T179_RFX5,HS_D391_C241_J110_T179_RFX5,HS_D405_C418_J110_T179_RFX5,HS_D460_C10_J110_T179_RFX5,HS_D685_C288_J110_T179_RFX5
RUNX1	HS_D544_C241_J1_T180_RUNX1,HS_D797_C240_J1_T180_RUNX1,HS_D805_C304_J1_T180_RUNX1,HS_D827_C65_J1_T180_RUNX1,HS_D828_C241_J1_T180_RUNX1,HS_D829_C241_J1_T180_RUNX1,HS_D962_C243_J1_T180_RUNX1,HS_D963_C243_J1_T180_RUNX1,HS_D979_C56_J1_T180_RUNX1,HS_D990_C74_J1_T180_RUNX1,HS_D998_C61_J1_T180_RUNX1,HS_D999_C61_J1_T180_RUNX1,HS_D1166_C243_J1_T180_RUNX1,HS_D1167_C243_J1_T180_RUNX1,HS_D1308_C316_J1_T180_RUNX1,HS_D1309_C448_J1_T180_RUNX1,HS_D1328_C325_J1_T180_RUNX1,HS_D1393_C420_J1_T180_RUNX1,HS_D1395_C420_J1_T180_RUNX1,HS_D1396_C420_J1_T180_RUNX1,HS_D1760_C202_J1_T180_RUNX1,HS_D1812_C302_J1_T180_RUNX1,HS_D1813_C302_J1_T180_RUNX1,HS_D1931_C184_J1_T180_RUNX1,HS_D1941_C322_J1_T180_RUNX1,HS_D1942_C322_J1_T180_RUNX1,HS_D1943_C374_J1_T180_RUNX1,HS_D1944_C374_J1_T180_RUNX1,HS_D1945_C374_J1_T180_RUNX1,HS_D2393_C443_J1_T180_RUNX1,HS_D2438_C271_J1_T180_RUNX1,HS_D2440_C69_J1_T180_RUNX1,HS_D2463_C302_J1_T180_RUNX1,HS_D2464_C302_J1_T180_RUNX1,HS_D2529_C239_J1_T180_RUNX1,HS_D2637_C1_J1_T180_RUNX1,HS_D2641_C239_J1_T180_RUNX1,HS_D2667_C243_J1_T180_RUNX1,HS_D2671_C302_J1_T180_RUNX1,HS_D2886_C455_J1_T180_RUNX1,HS_D2922_C243_J1_T180_RUNX1,HS_D2944_C1_J1_T180_RUNX1,HS_D2945_C55_J1_T180_RUNX1,HS_D2947_C243_J1_T180_RUNX1,HS_D2948_C462_J1_T180_RUNX1,HS_D2999_C239_J1_T180_RUNX1,HS_D3038_C55_J1_T180_RUNX1,HS_D3040_C55_J1_T180_RUNX1,HS_D3104_C239_J1_T180_RUNX1
RUNX2	HS_D1304_C405_J111_T181_RUNX2,HS_D1385_C288_J111_T181_RUNX2,HS_D2568_C263_J111_T181_RUNX2
RUNX3	HS_D140_C148_J143_T182_RUNX3
RXRA	HS_D39_C194_J112_T183_RXRA,HS_D53_C148_J112_T183_RXRA,HS_D63_C474_J112_T183_RXRA,HS_D202_C418_J112_T183_RXRA,HS_D473_C260_J112_T183_RXRA,HS_D529_C260_J112_T183_RXRA,HS_D864_C467_J112_T183_RXRA,HS_D1239_C313_J112_T183_RXRA,HS_D1765_C238_J112_T183_RXRA,HS_D1766_C238_J112_T183_RXRA,HS_D2368_C288_J112_T183_RXRA
RXRB	HS_D1603_C194_J205_T184_RXRB
SCRT1	HS_D1121_C185_J163_T185_SCRT1,HS_D1631_C185_J163_T185_SCRT1
SCRT2	HS_D1706_C185_J164_T186_SCRT2
SIX1	HS_D3086_C1_J230_T187_SIX1,HS_D3099_C1_J230_T187_SIX1,HS_D3100_C1_J230_T187_SIX1
SIX2	HS_D3087_C1_J231_T188_SIX2,HS_D3101_C249_J231_T188_SIX2,HS_D3102_C249_J231_T188_SIX2
SMAD3	HS_D1889_C205_J182_T189_SMAD3,HS_D1890_C205_J182_T189_SMAD3,HS_D1892_C205_J182_T189_SMAD3,HS_D1893_C295_J182_T189_SMAD3,HS_D1894_C295_J182_T189_SMAD3,HS_D1895_C177_J182_T189_SMAD3,HS_D1896_C177_J182_T189_SMAD3,HS_D2160_C295_J182_T189_SMAD3,HS_D2403_C366_J182_T189_SMAD3
SMAD4	HS_D2534_C1_J236_T190_SMAD4,HS_D2535_C195_J236_T190_SMAD4
SNAI2	HS_D1194_C216_J165_T191_SNAI2,HS_D2785_C246_J165_T191_SNAI2,HS_D2784_C246_J165_T191_SNAI2,HS_D2786_C246_J165_T191_SNAI2,HS_D2788_C246_J165_T191_SNAI2,HS_D2787_C246_J165_T191_SNAI2
SOX10	HS_D2911_C4_J69_T192_SOX10
SOX13	HS_D551_C194_J232_T193_SOX13,HS_D1713_C194_J232_T193_SOX13
SOX17	HS_D1195_C216_J31_T194_SOX17,HS_D1196_C216_J31_T194_SOX17
SOX2	HS_D981_C216_J57_T195_SOX2,HS_D1197_C216_J57_T195_SOX2,HS_D1198_C216_J57_T195_SOX2,HS_D1228_C216_J57_T195_SOX2,HS_D2090_C315_J57_T195_SOX2,HS_D2094_C315_J57_T195_SOX2,HS_D2095_C231_J57_T195_SOX2,HS_D2488_C195_J57_T195_SOX2,HS_D2588_C34_J57_T195_SOX2,HS_D2684_C168_J57_T195_SOX2,HS_D2686_C253_J57_T195_SOX2,HS_D2688_C456_J57_T195_SOX2,HS_D2712_C1_J57_T195_SOX2,HS_D2807_C199_J57_T195_SOX2,HS_D2970_C1_J57_T195_SOX2,HS_D2971_C199_J57_T195_SOX2,HS_D2972_C199_J57_T195_SOX2,HS_D3012_C195_J57_T195_SOX2,HS_D3013_C207_J57_T195_SOX2
SOX4	HS_D1891_C205_J208_T196_SOX4
SOX6	HS_D647_C241_J113_T197_SOX6
SP1	HS_D74_C241_J32_T198_SP1,HS_D118_C10_J32_T198_SP1,HS_D703_C241_J32_T198_SP1,HS_D772_C188_J32_T198_SP1,HS_D1115_C185_J32_T198_SP1,HS_D1139_C181_J32_T198_SP1,HS_D1140_C181_J32_T198_SP1,HS_D1141_C181_J32_T198_SP1,HS_D1142_C181_J32_T198_SP1,HS_D1199_C216_J32_T198_SP1,HS_D1229_C216_J32_T198_SP1,HS_D1277_C8_J32_T198_SP1,HS_D1278_C8_J32_T198_SP1
SP2	HS_D109_C241_J114_T199_SP2,HS_D129_C474_J114_T199_SP2,HS_D773_C188_J114_T199_SP2,HS_D1116_C185_J114_T199_SP2,HS_D1679_C185_J114_T199_SP2
SP3	HS_D1594_C185_J166_T200_SP3
SP4	HS_D1125_C185_J144_T201_SP4
SPDEF	HS_D1387_C10_J145_T202_SPDEF
SPI1	HS_D28_C148_J33_T203_SPI1,HS_D31_C241_J33_T203_SPI1,HS_D46_C149_J33_T203_SPI1,HS_D195_C202_J33_T203_SPI1,HS_D761_C257_J33_T203_SPI1,HS_D1237_C313_J33_T203_SPI1,HS_D1238_C313_J33_T203_SPI1,HS_D1532_C313_J33_T203_SPI1,HS_D1533_C313_J33_T203_SPI1,HS_D1740_C313_J33_T203_SPI1,HS_D1845_C301_J33_T203_SPI1,HS_D1846_C301_J33_T203_SPI1,HS_D1847_C301_J33_T203_SPI1,HS_D1848_C301_J33_T203_SPI1,HS_D1879_C448_J33_T203_SPI1,HS_D1880_C448_J33_T203_SPI1,HS_D1881_C448_J33_T203_SPI1,HS_D1882_C448_J33_T203_SPI1,HS_D1988_C448_J33_T203_SPI1,HS_D1989_C448_J33_T203_SPI1,HS_D2123_C448_J33_T203_SPI1,HS_D2124_C448_J33_T203_SPI1,HS_D2377_C148_J33_T203_SPI1,HS_D2381_C148_J33_T203_SPI1,HS_D2382_C148_J33_T203_SPI1,HS_D2672_C302_J33_T203_SPI1,HS_D2693_C280_J33_T203_SPI1,HS_D2814_C170_J33_T203_SPI1,HS_D2815_C351_J33_T203_SPI1,HS_D2822_C352_J33_T203_SPI1,HS_D2818_C352_J33_T203_SPI1,HS_D2843_C1_J33_T203_SPI1,HS_D2866_C243_J33_T203_SPI1,HS_D2868_C243_J33_T203_SPI1,HS_D2964_C280_J33_T203_SPI1,HS_D2965_C280_J33_T203_SPI1,HS_D2966_C280_J33_T203_SPI1,HS_D3019_C88_J33_T203_SPI1,HS_D3023_C353_J33_T203_SPI1,HS_D3037_C241_J33_T203_SPI1,HS_D3039_C55_J33_T203_SPI1,HS_D3041_C55_J33_T203_SPI1,HS_D3056_C401_J33_T203_SPI1,HS_D3055_C401_J33_T203_SPI1,HS_D3094_C241_J33_T203_SPI1,HS_D3092_C241_J33_T203_SPI1,HS_D3093_C241_J33_T203_SPI1
SPIB	HS_D2816_C351_J34_T204_SPIB,HS_D2823_C352_J34_T204_SPIB,HS_D2819_C352_J34_T204_SPIB,HS_D2820_C352_J34_T204_SPIB
SREBF1	HS_D497_C288_J126_T205_SREBF1
SREBF1-VAR2	HS_D680_C10_J194_T205_SREBF1-VAR2
SRF	HS_D23_C148_J35_T206_SRF,HS_D49_C474_J35_T206_SRF,HS_D83_C241_J35_T206_SRF,HS_D88_C194_J35_T206_SRF,HS_D94_C148_J35_T206_SRF,HS_D148_C181_J35_T206_SRF,HS_D170_C235_J35_T206_SRF,HS_D198_C288_J35_T206_SRF,HS_D2288_C189_J35_T206_SRF,HS_D2289_C189_J35_T206_SRF,HS_D2290_C189_J35_T206_SRF,HS_D2291_C189_J35_T206_SRF,HS_D2292_C189_J35_T206_SRF,HS_D2293_C189_J35_T206_SRF,HS_D2294_C189_J35_T206_SRF,HS_D2295_C189_J35_T206_SRF
STAT1	HS_D401_C241_J54_T207_STAT1,HS_D402_C241_J54_T207_STAT1,HS_D817_C192_J54_T207_STAT1,HS_D818_C192_J54_T207_STAT1,HS_D2073_C21_J54_T207_STAT1
STAT3	HS_D257_C284_J58_T208_STAT3,HS_D261_C284_J58_T208_STAT3,HS_D353_C192_J58_T208_STAT3,HS_D1354_C294_J58_T208_STAT3,HS_D1355_C295_J58_T208_STAT3,HS_D1356_C178_J58_T208_STAT3,HS_D1357_C299_J58_T208_STAT3,HS_D2031_C285_J58_T208_STAT3,HS_D2032_C285_J58_T208_STAT3,HS_D2072_C332_J58_T208_STAT3,HS_D2074_C21_J58_T208_STAT3,HS_D2321_C236_J58_T208_STAT3,HS_D2324_C428_J58_T208_STAT3,HS_D2719_C352_J58_T208_STAT3
STAT4	HS_D807_C439_J115_T209_STAT4
STAT5A	HS_D808_C439_J253_T210_STAT5A,HS_D992_C62_J253_T210_STAT5A
STAT5B	HS_D809_C439_J254_T211_STAT5B
STAT6	HS_D1240_C313_J116_T212_STAT6
TBX21	HS_D633_C148_J146_T214_TBX21,HS_D954_C444_J146_T214_TBX21,HS_D2916_C1_J146_T214_TBX21
TBX5	HS_D1360_C234_J186_T215_TBX5,HS_D1362_C234_J186_T215_TBX5,HS_D1365_C234_J186_T215_TBX5,HS_D1367_C234_J186_T215_TBX5,HS_D1369_C234_J186_T215_TBX5,HS_D2342_C234_J186_T215_TBX5
TBXT	HS_D2887_C168_J5_T213_TBXT,HS_D2888_C168_J5_T213_TBXT
TCF12	HS_D47_C474_J117_T216_TCF12,HS_D155_C418_J117_T216_TCF12,HS_D635_C241_J117_T216_TCF12,HS_D2530_C239_J117_T216_TCF12,HS_D2654_C243_J117_T216_TCF12
TCF12-VAR2	HS_D629_C148_J267_T216_TCF12-VAR2
TCF3	HS_D133_C148_J118_T217_TCF3,HS_D2301_C243_J118_T217_TCF3,HS_D2655_C243_J118_T217_TCF3,HS_D2856_C1_J118_T217_TCF3,HS_D3084_C1_J118_T217_TCF3
TCF4	HS_D1300_C49_J195_T218_TCF4,HS_D1301_C124_J195_T218_TCF4,HS_D2202_C411_J195_T218_TCF4,HS_D2203_C411_J195_T218_TCF4,HS_D2302_C243_J195_T218_TCF4,HS_D2470_C430_J195_T218_TCF4,HS_D2471_C453_J195_T218_TCF4
TCF7	HS_D571_C148_J176_T219_TCF7,HS_D671_C241_J176_T219_TCF7,HS_D1033_C86_J176_T219_TCF7,HS_D1034_C86_J176_T219_TCF7,HS_D1678_C194_J176_T219_TCF7
TCF7L1	HS_D1144_C181_J239_T220_TCF7L1
TCF7L2	HS_D410_C181_J119_T221_TCF7L2,HS_D411_C185_J119_T221_TCF7L2,HS_D413_C192_J119_T221_TCF7L2,HS_D414_C192_J119_T221_TCF7L2,HS_D419_C194_J119_T221_TCF7L2,HS_D428_C288_J119_T221_TCF7L2,HS_D431_C362_J119_T221_TCF7L2,HS_D898_C241_J119_T221_TCF7L2,HS_D1200_C216_J119_T221_TCF7L2,HS_D1201_C216_J119_T221_TCF7L2,HS_D1202_C216_J119_T221_TCF7L2,HS_D1203_C216_J119_T221_TCF7L2,HS_D2533_C55_J119_T221_TCF7L2,HS_D2750_C261_J119_T221_TCF7L2
TEAD1	HS_D779_C363_J37_T222_TEAD1,HS_D1067_C408_J37_T222_TEAD1,HS_D1913_C282_J37_T222_TEAD1,HS_D1914_C440_J37_T222_TEAD1,HS_D2913_C51_J37_T222_TEAD1,HS_D2978_C1_J37_T222_TEAD1,HS_D2979_C215_J37_T222_TEAD1
TEAD3	HS_D1705_C194_J187_T223_TEAD3
TEAD4	HS_D142_C194_J188_T224_TEAD4,HS_D145_C474_J188_T224_TEAD4,HS_D166_C235_J188_T224_TEAD4,HS_D183_C10_J188_T224_TEAD4,HS_D189_C288_J188_T224_TEAD4,HS_D191_C418_J188_T224_TEAD4,HS_D205_C181_J188_T224_TEAD4,HS_D2210_C474_J188_T224_TEAD4,HS_D2658_C310_J188_T224_TEAD4,HS_D2659_C424_J188_T224_TEAD4,HS_D2960_C295_J188_T224_TEAD4,HS_D2980_C215_J188_T224_TEAD4
TFAP2A	HS_D916_C192_J2_T225_TFAP2A,HS_D1000_C288_J2_T225_TFAP2A,HS_D1097_C71_J2_T225_TFAP2A,HS_D1757_C475_J2_T225_TFAP2A,HS_D2875_C288_J2_T225_TFAP2A
TFAP2A-VAR2	HS_D953_C169_J189_T225_TFAP2A-VAR2,HS_D2266_C199_J189_T225_TFAP2A-VAR2
TFAP2A-VAR3	HS_D2882_C288_J209_T225_TFAP2A-VAR3
TFAP2C	HS_D1800_C464_J120_T226_TFAP2C,HS_D2469_C288_J120_T226_TFAP2C,HS_D2504_C288_J120_T226_TFAP2C,HS_D2574_C298_J120_T226_TFAP2C,HS_D2575_C415_J120_T226_TFAP2C
TFAP2C-VAR2	HS_D917_C192_J190_T226_TFAP2C-VAR2,HS_D1758_C475_J190_T226_TFAP2C-VAR2,HS_D1803_C464_J190_T226_TFAP2C-VAR2,HS_D1804_C464_J190_T226_TFAP2C-VAR2,HS_D1806_C464_J190_T226_TFAP2C-VAR2,HS_D1807_C464_J190_T226_TFAP2C-VAR2,HS_D2468_C288_J190_T226_TFAP2C-VAR2,HS_D2490_C288_J190_T226_TFAP2C-VAR2,HS_D2506_C288_J190_T226_TFAP2C-VAR2,HS_D2573_C288_J190_T226_TFAP2C-VAR2,HS_D2632_C8_J190_T226_TFAP2C-VAR2
TFAP2C-VAR3	HS_D1801_C464_J191_T226_TFAP2C-VAR3,HS_D1802_C464_J191_T226_TFAP2C-VAR3,HS_D1805_C464_J191_T226_TFAP2C-VAR3,HS_D2572_C45_J191_T226_TFAP2C-VAR3
TFAP4	HS_D1332_C423_J147_T227_TFAP4,HS_D2519_C261_J147_T227_TFAP4,HS_D2668_C243_J147_T227_TFAP4,HS_D2690_C86_J147_T227_TFAP4
TFAP4-VAR2	HS_D1333_C66_J249_T227_TFAP4-VAR2
TFDP1	HS_D448_C241_J233_T228_TFDP1,HS_D1311_C311_J233_T228_TFDP1
TFE3	HS_D1702_C194_J196_T229_TFE3
TFEB	HS_D2343_C225_J148_T230_TFEB
THAP11	HS_D1204_C216_J250_T231_THAP11,HS_D1205_C216_J250_T231_THAP11,HS_D1206_C216_J250_T231_THAP11,HS_D1207_C216_J250_T231_THAP11,HS_D1613_C194_J250_T231_THAP11
THRB	HS_D1593_C194_J251_T232_THRB
TP53	HS_D762_C460_J46_T233_TP53,HS_D763_C460_J46_T233_TP53,HS_D938_C279_J46_T233_TP53,HS_D1026_C34_J46_T233_TP53,HS_D1230_C288_J46_T233_TP53,HS_D1231_C288_J46_T233_TP53,HS_D1232_C288_J46_T233_TP53,HS_D1233_C288_J46_T233_TP53,HS_D1234_C288_J46_T233_TP53,HS_D1235_C288_J46_T233_TP53,HS_D1262_C288_J46_T233_TP53,HS_D1263_C282_J46_T233_TP53,HS_D1373_C181_J46_T233_TP53,HS_D1374_C181_J46_T233_TP53,HS_D1375_C288_J46_T233_TP53,HS_D1376_C414_J46_T233_TP53,HS_D1377_C414_J46_T233_TP53,HS_D1791_C288_J46_T233_TP53,HS_D1972_C372_J46_T233_TP53,HS_D1973_C372_J46_T233_TP53,HS_D1974_C372_J46_T233_TP53,HS_D1975_C372_J46_T233_TP53,HS_D1976_C372_J46_T233_TP53,HS_D1977_C372_J46_T233_TP53,HS_D1978_C372_J46_T233_TP53,HS_D1979_C372_J46_T233_TP53,HS_D2042_C229_J46_T233_TP53,HS_D2241_C270_J46_T233_TP53,HS_D2242_C465_J46_T233_TP53,HS_D2243_C9_J46_T233_TP53,HS_D2244_C333_J46_T233_TP53,HS_D2245_C10_J46_T233_TP53,HS_D2246_C181_J46_T233_TP53,HS_D2247_C463_J46_T233_TP53,HS_D2388_C229_J46_T233_TP53,HS_D2431_C118_J46_T233_TP53,HS_D2434_C284_J46_T233_TP53,HS_D2435_C284_J46_T233_TP53,HS_D2487_C405_J46_T233_TP53,HS_D2610_C195_J46_T233_TP53,HS_D2680_C460_J46_T233_TP53,HS_D2681_C460_J46_T233_TP53,HS_D2682_C460_J46_T233_TP53,HS_D2789_C129_J46_T233_TP53,HS_D2790_C130_J46_T233_TP53,HS_D2812_C246_J46_T233_TP53,HS_D2808_C246_J46_T233_TP53,HS_D2810_C246_J46_T233_TP53,HS_D2840_C181_J46_T233_TP53,HS_D2842_C229_J46_T233_TP53
TP63	HS_D794_C246_J121_T234_TP63,HS_D795_C246_J121_T234_TP63,HS_D957_C337_J121_T234_TP63,HS_D1063_C171_J121_T234_TP63,HS_D1064_C171_J121_T234_TP63,HS_D1065_C171_J121_T234_TP63,HS_D1066_C171_J121_T234_TP63,HS_D1409_C237_J121_T234_TP63,HS_D2334_C436_J121_T234_TP63,HS_D2335_C223_J121_T234_TP63,HS_D2432_C284_J121_T234_TP63,HS_D2433_C284_J121_T234_TP63,HS_D2436_C284_J121_T234_TP63,HS_D2567_C246_J121_T234_TP63,HS_D2648_C102_J121_T234_TP63,HS_D2685_C179_J121_T234_TP63,HS_D2687_C253_J121_T234_TP63,HS_D2689_C456_J121_T234_TP63,HS_D2813_C246_J121_T234_TP63,HS_D2809_C246_J121_T234_TP63,HS_D2811_C246_J121_T234_TP63,HS_D2857_C246_J121_T234_TP63,HS_D2858_C246_J121_T234_TP63,HS_D2859_C246_J121_T234_TP63,HS_D2860_C246_J121_T234_TP63,HS_D2894_C171_J121_T234_TP63,HS_D2893_C171_J121_T234_TP63,HS_D2891_C171_J121_T234_TP63,HS_D2892_C171_J121_T234_TP63,HS_D2936_C1_J121_T234_TP63,HS_D2973_C246_J121_T234_TP63,HS_D3062_C284_J121_T234_TP63
TP73	HS_D1524_C148_J207_T235_TP73,HS_D2485_C1_J207_T235_TP73,HS_D2486_C1_J207_T235_TP73
TWIST1	HS_D3130_C28_J234_T236_TWIST1,HS_D3137_C1_J234_T236_TWIST1,HS_D3134_C1_J234_T236_TWIST1,HS_D3135_C1_J234_T236_TWIST1
USF1	HS_D25_C148_J38_T237_USF1,HS_D27_C194_J38_T237_USF1,HS_D42_C10_J38_T237_USF1,HS_D48_C474_J38_T237_USF1,HS_D52_C10_J38_T237_USF1,HS_D76_C241_J38_T237_USF1,HS_D92_C418_J38_T237_USF1,HS_D124_C10_J38_T237_USF1,HS_D167_C235_J38_T237_USF1,HS_D181_C418_J38_T237_USF1,HS_D206_C181_J38_T237_USF1
USF2	HS_D327_C148_J122_T238_USF2,HS_D344_C474_J122_T238_USF2,HS_D350_C192_J122_T238_USF2,HS_D366_C194_J122_T238_USF2,HS_D399_C241_J122_T238_USF2,HS_D532_C241_J122_T238_USF2,HS_D575_C229_J122_T238_USF2,HS_D592_C10_J122_T238_USF2,HS_D688_C418_J122_T238_USF2,HS_D1095_C386_J122_T238_USF2,HS_D1521_C194_J122_T238_USF2,HS_D1527_C148_J122_T238_USF2,HS_D1986_C241_J122_T238_USF2,HS_D1987_C241_J122_T238_USF2
VDR	HS_D792_C448_J149_T239_VDR,HS_D1411_C448_J149_T239_VDR,HS_D1412_C448_J149_T239_VDR,HS_D1413_C448_J149_T239_VDR,HS_D1414_C448_J149_T239_VDR,HS_D2557_C273_J149_T239_VDR,HS_D2594_C278_J149_T239_VDR,HS_D2593_C278_J149_T239_VDR,HS_D2592_C278_J149_T239_VDR
WT1	HS_D1313_C241_J255_T240_WT1,HS_D1647_C185_J255_T240_WT1
XBP1	HS_D2714_C209_J203_T241_XBP1
YY1	HS_D68_C474_J39_T242_YY1,HS_D70_C149_J39_T242_YY1,HS_D77_C241_J39_T242_YY1,HS_D87_C150_J39_T242_YY1,HS_D93_C241_J39_T242_YY1,HS_D111_C148_J39_T242_YY1,HS_D112_C194_J39_T242_YY1,HS_D115_C181_J39_T242_YY1,HS_D121_C10_J39_T242_YY1,HS_D156_C418_J39_T242_YY1,HS_D168_C235_J39_T242_YY1,HS_D423_C241_J39_T242_YY1,HS_D430_C347_J39_T242_YY1,HS_D1279_C190_J39_T242_YY1,HS_D1534_C279_J39_T242_YY1,HS_D1535_C279_J39_T242_YY1,HS_D1536_C279_J39_T242_YY1,HS_D1537_C279_J39_T242_YY1,HS_D1538_C279_J39_T242_YY1,HS_D1539_C279_J39_T242_YY1,HS_D1540_C279_J39_T242_YY1,HS_D1541_C279_J39_T242_YY1,HS_D1542_C279_J39_T242_YY1,HS_D1543_C279_J39_T242_YY1,HS_D1544_C279_J39_T242_YY1,HS_D1545_C279_J39_T242_YY1,HS_D1546_C279_J39_T242_YY1,HS_D1547_C279_J39_T242_YY1,HS_D1548_C279_J39_T242_YY1,HS_D1549_C279_J39_T242_YY1,HS_D1550_C279_J39_T242_YY1,HS_D2606_C474_J39_T242_YY1
YY2	HS_D617_C185_J167_T243_YY2,HS_D2068_C190_J167_T243_YY2
ZFX	HS_D2649_C344_J59_T244_ZFX,HS_D2666_C80_J59_T244_ZFX
ZNF143	HS_D2538_C74_J36_T245_ZNF143,HS_D2551_C190_J36_T245_ZNF143,HS_D2608_C188_J36_T245_ZNF143,HS_D2609_C208_J36_T245_ZNF143,HS_D3106_C288_J36_T245_ZNF143,HS_D3105_C288_J36_T245_ZNF143
ZNF263	HS_D412_C185_J123_T246_ZNF263
ZNF740	HS_D632_C241_J168_T247_ZNF740
