ID	name	Binom_Genome_Fraction	Binom_Expected	Binom_Observed_Region_Hits	Binom_Fold_Enrichment	Binom_Region_Set_Coverage	Binom_Raw_PValue	Binom_Adjp_BH	Hyper_Total_Genes	Hyper_Expected	Hyper_Observed_Gene_Hits	Hyper_Fold_Enrichment	Hyper_Gene_Set_Coverage	Hyper_Term_Gene_Coverage	Hyper_Raw_PValue	Hyper_Adjp_BH
GO:0044699	single-organism process	0.8143128	872.9433	972	1.113474	0.9067164	2.53161e-17	3.331345599e-13	12665	1166.877	1256	1.076377	0.7260116	0.09917094	6.665376e-07	0.000190673223443478
GO:0009987	cellular process	0.8638668	926.0652	1009	1.089556	0.9412313	2.129796e-16	1.4012992782e-12	14773	1361.095	1402	1.030053	0.8104046	0.09490286	0.005941498	0.141000226144144
GO:0044237	cellular metabolic process	0.6123062	656.3922	776	1.18222	0.7238806	1.108539e-14	4.51509963125e-11	8847	815.1094	880	1.07961	0.5086705	0.09946875	0.0005722245	0.0288501999827586
GO:0008152	metabolic process	0.6502981	697.1195	813	1.166228	0.7583955	1.372475e-14	4.51509963125e-11	9664	890.3829	945	1.061341	0.5462428	0.0977856	0.003126204	0.0915544443133333
GO:0071704	organic substance metabolic process	0.6372781	683.1622	796	1.16517	0.7425373	1.2207e-13	3.21263826e-10	9327	859.3338	912	1.061287	0.5271676	0.09778064	0.004231528	0.112441091901606
GO:0044763	single-organism cellular process	0.7081132	759.0974	864	1.138194	0.8059701	1.517158e-13	3.32738035366667e-10	9965	918.1152	1023	1.114239	0.5913295	0.1026593	5.951756e-08	3.66873697577273e-05
GO:0044238	primary metabolic process	0.6121081	656.1799	768	1.170411	0.7164179	5.260501e-13	9.88899037985714e-10	8934	823.1251	875	1.063022	0.5057803	0.09794045	0.004737832	0.119664359477927
GO:0044710	single-organism metabolic process	0.2795415	299.6685	402	1.341482	0.375	8.211944e-12	1.3507621387e-08	3518	324.1274	398	1.227912	0.2300578	0.1131325	1.757067e-06	0.000372923300854839
GO:0050896	response to stimulus	0.569614	610.6262	716	1.172567	0.6679104	2.85354e-11	4.17219254e-08	7718	711.0902	809	1.13769	0.4676301	0.1048199	3.331243e-07	0.000118324741075
GO:0009893	positive regulation of metabolic process	0.3034244	325.271	414	1.272785	0.386194	4.78615e-09	5.88456916107692e-06	3198	294.6445	395	1.340599	0.2283237	0.1235147	4.752275e-11	1.563379668125e-07
GO:0051234	establishment of localization	0.3336991	357.7255	448	1.252357	0.4179104	5.447419e-09	5.88456916107692e-06	4344	400.2301	454	1.134348	0.2624277	0.104512	0.0008159744	0.0379464967042403
GO:0031325	positive regulation of cellular metabolic process	0.2846421	305.1363	392	1.284672	0.3656716	5.719629e-09	5.88456916107692e-06	2970	273.638	373	1.363115	0.2156069	0.1255892	2.286628e-11	1.563379668125e-07
GO:0009058	biosynthetic process	0.3849155	412.6294	505	1.223859	0.4710821	5.813466e-09	5.88456916107692e-06	4832	445.1915	503	1.129851	0.2907514	0.1040977	0.0005329775	0.0271839183042636
GO:0010604	positive regulation of macromolecule metabolic process	0.2897455	310.6072	396	1.274922	0.369403	1.150681e-08	1.0815579485e-05	3005	276.8627	375	1.354462	0.216763	0.124792	4.647362e-11	1.563379668125e-07
GO:1901576	organic substance biosynthetic process	0.3797928	407.1379	497	1.220717	0.4636194	1.337752e-08	1.1463397055e-05	4746	437.2679	497	1.136603	0.2872832	0.1047198	0.0003371909	0.0192082036930736
GO:0044249	cellular biosynthetic process	0.3744834	401.4462	491	1.223078	0.4580224	1.393832e-08	1.1463397055e-05	4675	430.7264	485	1.126005	0.2803468	0.1037433	0.0009517302	0.0421988837670034
GO:0006810	transport	0.3250404	348.4433	435	1.24841	0.4057836	1.761099e-08	1.36319422005882e-05	4234	390.0953	440	1.127929	0.2543353	0.1039206	0.001590487	0.0606644012550725
GO:0006793	phosphorus metabolic process	0.1904539	204.1665	278	1.361633	0.2593284	2.037439e-08	1.47256689852632e-05	2157	198.733	257	1.293192	0.1485549	0.119147	4.8137e-06	0.00079111940491358
GO:0010468	regulation of gene expression	0.3692598	395.8465	484	1.222696	0.4514925	2.126208e-08	1.47256689852632e-05	4426	407.7851	483	1.184448	0.2791908	0.1091279	6.245482e-06	0.000944647099287356
GO:0050789	regulation of biological process	0.7427169	796.1925	871	1.093957	0.8125	4.077159e-08	2.57215275947619e-05	11037	1016.883	1085	1.066986	0.6271676	0.0983057	0.0002493844	0.0155240571386792
GO:0065007	biological regulation	0.765679	820.8079	893	1.087953	0.8330224	4.104811e-08	2.57215275947619e-05	11658	1074.098	1142	1.063218	0.6601156	0.09795848	0.0002103547	0.0135027194990244
GO:0051716	cellular response to stimulus	0.4840111	518.8599	606	1.167945	0.5652985	5.871828e-08	3.48886798308696e-05	6124	564.2286	658	1.166194	0.3803468	0.1074461	3.429206e-07	0.000118324741075
GO:0010556	regulation of macromolecule biosynthetic process	0.3513538	376.6513	461	1.223944	0.4300373	6.098029e-08	3.48886798308696e-05	4202	387.147	450	1.162349	0.2601156	0.1070919	9.983715e-05	0.00781998248125
GO:0042221	response to chemical	0.3340227	358.0724	441	1.231595	0.4113806	7.440333e-08	4.079472581125e-05	3981	366.7854	442	1.205064	0.2554913	0.1110274	3.040034e-06	0.000540591991972973
GO:0032268	regulation of cellular protein metabolic process	0.2237729	239.8845	314	1.308963	0.2929104	8.451843e-08	4.44871208148e-05	2506	230.8878	295	1.277677	0.1705202	0.1177175	2.323509e-06	0.000443116738130435
GO:0031323	regulation of cellular metabolic process	0.4806449	515.2513	601	1.166421	0.5606343	9.36135e-08	4.73792325576923e-05	5980	550.9613	632	1.147086	0.3653179	0.1056856	7.859628e-06	0.00112418309621739
GO:0008643	carbohydrate transport	0.005629509	6.034834	23	3.811207	0.02145522	9.757275e-08	4.75540673055556e-05	83	7.647121	17	2.223059	0.00982659	0.2048193	0.001304743	0.0529910899290123
GO:0002376	immune system process	0.1782501	191.0841	259	1.355424	0.2416045	1.143727e-07	5.37510842607143e-05	2329	214.5801	236	1.099823	0.1364162	0.101331	0.055934	0.510463731863144
GO:0010033	response to organic substance	0.2495718	267.5409	343	1.282047	0.3199627	1.288294e-07	5.84574508482759e-05	2753	253.6449	328	1.293147	0.1895954	0.1191428	1.639341e-07	7.43865111e-05
GO:0009966	regulation of signal transduction	0.2880999	308.8431	387	1.253063	0.3610075	1.463375e-07	6.30947307516129e-05	3040	280.0873	371	1.324587	0.2144509	0.1220395	1.057571e-09	1.98808239842857e-06
GO:2000112	regulation of cellular macromolecule biosynthetic process	0.3456717	370.56	452	1.219775	0.4216418	1.486387e-07	6.30947307516129e-05	4101	377.8415	441	1.167156	0.2549133	0.1075347	8.230327e-05	0.00684506242882716
GO:0048518	positive regulation of biological process	0.47298	507.0346	591	1.165601	0.551306	1.679795e-07	6.9076320015625e-05	5433	500.564	613	1.224619	0.3543353	0.112829	4.591553e-10	1.20840491854e-06
GO:0048522	positive regulation of cellular process	0.4415974	473.3924	557	1.176614	0.5195896	1.774663e-07	7.07660315666667e-05	4914	452.7464	570	1.258983	0.3294798	0.1159951	2.696232e-11	1.563379668125e-07
GO:0006796	phosphate-containing compound metabolic process	0.1836168	196.8372	264	1.34121	0.2462687	2.018004e-07	7.81026901058823e-05	2066	190.3488	243	1.276604	0.1404624	0.1176186	2.268899e-05	0.00244724933942623
GO:0050794	regulation of cellular process	0.7205936	772.4763	845	1.093885	0.7882463	2.375318e-07	8.68665432527778e-05	10477	965.2879	1042	1.079471	0.6023121	0.09945595	5.101104e-05	0.00474106537690141
GO:1902578	single-organism localization	0.226176	242.4607	314	1.295055	0.2929104	2.376469e-07	8.68665432527778e-05	2766	254.8426	299	1.173273	0.1728324	0.1080983	0.001130641	0.0475888298146965
GO:1903506	regulation of nucleic acid-templated transcription	0.3168374	339.6497	418	1.23068	0.3899254	2.531874e-07	9.00457566648649e-05	3686	339.6059	404	1.189614	0.233526	0.1096039	3.37789e-05	0.0034630173072093
GO:0048583	regulation of response to stimulus	0.3481015	373.1648	453	1.213941	0.4225746	2.610161e-07	9.03871278921053e-05	3885	357.9406	438	1.223667	0.2531792	0.1127413	6.156436e-07	0.000180027869608889
GO:2001141	regulation of RNA biosynthetic process	0.317183	340.0202	418	1.229339	0.3899254	2.879588e-07	9.71602525435897e-05	3704	341.2643	404	1.183833	0.233526	0.1090713	5.295905e-05	0.00484837506555556
GO:0080090	regulation of primary metabolic process	0.4793338	513.8458	596	1.159881	0.5559701	2.998639e-07	9.86477265025e-05	5989	551.7905	629	1.139925	0.3635838	0.1050259	1.947971e-05	0.00225459841929825
GO:0006915	apoptotic process	0.08560403	91.76752	141	1.536491	0.1315299	3.134902e-07	0.000100615061995122	915	84.3026	122	1.447168	0.07052023	0.1333333	1.722816e-05	0.00207986566458716
GO:0006807	nitrogen compound metabolic process	0.4177657	447.8448	529	1.181213	0.4934701	3.454229e-07	0.0001064905234	5667	522.1233	547	1.047645	0.316185	0.09652373	0.09050062	0.586546286603774
GO:0051179	localization	0.4223724	452.7832	534	1.179372	0.4981343	3.479818e-07	0.0001064905234	5262	484.8091	560	1.155094	0.3236994	0.1064234	1.696318e-05	0.0020733040162037
GO:0051246	regulation of protein metabolic process	0.2374257	254.5204	326	1.280841	0.3041045	3.562281e-07	0.000106536490179545	2683	247.1955	308	1.245977	0.1780347	0.1147969	1.140526e-05	0.00156335225354167
GO:0070887	cellular response to chemical stimulus	0.2329461	249.7182	320	1.281445	0.2985075	4.678475e-07	0.000136809005611111	2555	235.4024	307	1.30415	0.1774566	0.1201566	2.058664e-07	9.02998652533333e-05
GO:0006950	response to stress	0.2452907	262.9517	334	1.270195	0.3115672	5.279372e-07	0.000151024469886957	3269	301.186	328	1.089028	0.1895954	0.1003365	0.04098079	0.441326994402093
GO:0012501	programmed cell death	0.09054986	97.06945	146	1.504078	0.136194	6.257569e-07	0.00017416449432449	1043	96.09576	127	1.321598	0.0734104	0.1217641	0.0006183997	0.0307076288766038
GO:0044765	single-organism transport	0.2039039	218.585	285	1.303841	0.2658582	6.481566e-07	0.00017416449432449	2536	233.6518	269	1.151286	0.1554913	0.1060726	0.005633037	0.136510375475138
GO:0009889	regulation of biosynthetic process	0.3731755	400.0442	478	1.194868	0.4458955	6.485341e-07	0.00017416449432449	4471	411.9311	471	1.143395	0.2722543	0.1053456	0.0003057019	0.0177996960269912
GO:0006650	glycerophospholipid metabolic process	0.030726	32.93827	64	1.943029	0.05970149	6.637449e-07	0.000174684382782	342	31.50983	53	1.682015	0.03063584	0.1549708	0.0001177825	0.00887264266761364
GO:0006355	regulation of transcription, DNA-templated	0.3157099	338.441	413	1.220301	0.3852612	8.466963e-07	0.000218464247288235	3664	337.579	401	1.18787	0.2317919	0.1094432	4.185734e-05	0.00402044333620438
GO:0044260	cellular macromolecule metabolic process	0.5221029	559.6943	638	1.139908	0.5951493	8.969281e-07	0.000226974555151923	6978	642.911	684	1.063911	0.3953757	0.09802236	0.0172833	0.265071031118881
GO:0019222	regulation of metabolic process	0.5035609	539.8173	618	1.144832	0.5764925	9.926027e-07	0.000241410549339286	6340	584.1295	659	1.128174	0.3809249	0.1039432	4.132967e-05	0.00399894946713235
GO:0031326	regulation of cellular biosynthetic process	0.3681597	394.6672	471	1.193411	0.4393657	1.014873e-06	0.000241410549339286	4400	405.3896	465	1.147045	0.2687861	0.1056818	0.000254718	0.0157363106197183
GO:0019438	aromatic compound biosynthetic process	0.2617156	280.5592	351	1.251073	0.3274254	1.016669e-06	0.000241410549339286	3119	287.3659	333	1.158801	0.1924855	0.106765	0.001296887	0.0529910899290123
GO:0051252	regulation of RNA metabolic process	0.3269276	350.4664	425	1.21267	0.3964552	1.027357e-06	0.000241410549339286	3833	353.1496	415	1.175139	0.2398844	0.1082703	7.93665e-05	0.00682603773529412
GO:0060255	regulation of macromolecule metabolic process	0.4778432	512.2479	590	1.151786	0.5503731	1.169004e-06	0.000269875853263158	5942	547.4602	625	1.141636	0.3612717	0.1051834	1.743653e-05	0.00208588452972727
GO:0032270	positive regulation of cellular protein metabolic process	0.1461063	156.626	214	1.366312	0.1996269	1.212902e-06	0.000275182369275862	1486	136.9111	191	1.395066	0.1104046	0.128533	8.392477e-07	0.000225380826210204
GO:0001775	cell activation	0.08250463	88.44496	134	1.515067	0.125	1.329437e-06	0.00029473725585	1013	93.33174	116	1.242878	0.06705202	0.1145114	0.007900656	0.167145871871383
GO:0045321	leukocyte activation	0.06880875	73.76298	116	1.572605	0.108209	1.343889e-06	0.00029473725585	869	80.06444	98	1.224014	0.0566474	0.1127733	0.02024091	0.294339510771739
GO:0008219	cell death	0.09504219	101.8852	150	1.472245	0.1399254	1.422169e-06	0.000306792161819672	1078	99.32045	133	1.3391	0.07687861	0.1233766	0.0002670811	0.0161216522701835
GO:0051247	positive regulation of protein metabolic process	0.153962	165.0472	223	1.351128	0.2080224	1.499695e-06	0.000318298169435484	1576	145.2032	200	1.37738	0.1156069	0.1269036	1.10218e-06	0.000273652577735849
GO:0046486	glycerolipid metabolic process	0.03639668	39.01724	71	1.819708	0.06623134	1.653887e-06	0.000345452365603175	410	37.77494	59	1.561882	0.03410405	0.1439024	0.0003841321	0.0213282460080169
GO:0019637	organophosphate metabolic process	0.07905146	84.74317	129	1.522247	0.1203358	1.69691e-06	0.00034890060453125	977	90.01491	112	1.244238	0.06473988	0.1146366	0.00867171	0.170314972970149
GO:0006629	lipid metabolic process	0.09940892	106.5664	155	1.454493	0.1445896	1.82565e-06	0.000367156835393939	1214	111.8507	143	1.27849	0.08265896	0.1177924	0.001148831	0.0481447997738854
GO:1901360	organic cyclic compound metabolic process	0.3744601	401.4213	476	1.185787	0.4440299	1.841504e-06	0.000367156835393939	4980	458.8273	483	1.052684	0.2791908	0.09698795	0.08847738	0.586546286603774
GO:0044281	small molecule metabolic process	0.1391145	149.1308	204	1.367927	0.1902985	2.143017e-06	0.000420894935865672	1777	163.7221	189	1.154395	0.1092486	0.106359	0.01766909	0.269730342587007
GO:0002520	immune system development	0.06206188	66.53033	106	1.593258	0.0988806	2.264179e-06	0.00043815193325	586	53.99052	88	1.629916	0.05086705	0.1501706	2.943547e-06	0.000530604588671233
GO:0002366	leukocyte activation involved in immune response	0.0411506	44.11345	77	1.7455	0.07182836	2.713564e-06	0.000517504183710145	603	55.5568	62	1.115975	0.03583815	0.1028192	0.19604	0.834806791618682
GO:0006644	phospholipid metabolic process	0.03561847	38.183	69	1.807087	0.06436567	2.922129e-06	0.0005493185073	414	38.14347	58	1.520575	0.03352601	0.1400966	0.0008385413	0.0387170700585965
GO:0018130	heterocycle biosynthetic process	0.2603968	279.1454	346	1.239497	0.3227612	3.117982e-06	0.000577880635746479	3115	286.9974	330	1.149836	0.1907514	0.105939	0.002248142	0.0756431823080808
GO:1901362	organic cyclic compound biosynthetic process	0.2701165	289.5649	357	1.232884	0.3330224	3.238549e-06	0.000588223883945206	3241	298.6063	342	1.145321	0.1976879	0.105523	0.002370993	0.0778052291446384
GO:0002252	immune effector process	0.06108999	65.48847	104	1.588066	0.09701493	3.263192e-06	0.000588223883945206	904	83.28913	90	1.080573	0.05202312	0.09955752	0.2300033	0.895952683126685
GO:0071310	cellular response to organic substance	0.198589	212.8875	274	1.287065	0.255597	3.373163e-06	0.000599830431310811	2115	194.8634	261	1.3394	0.1508671	0.1234043	2.264176e-07	9.310716245e-05
GO:0006725	cellular aromatic compound metabolic process	0.3622131	388.2924	460	1.184674	0.4291045	3.79792e-06	0.000666357723733333	4773	439.7556	464	1.055132	0.2682081	0.09721349	0.08492066	0.586546286603774
GO:0065009	regulation of molecular function	0.2998784	321.4696	390	1.213178	0.363806	4.135065e-06	0.00071596474125	3321	305.977	370	1.209241	0.2138728	0.1114122	1.95322e-05	0.00225459841929825
GO:0031399	regulation of protein modification process	0.1729462	185.3983	243	1.310692	0.2266791	4.19093e-06	0.000716213608701299	1722	158.6547	219	1.380356	0.1265896	0.1271777	2.688326e-07	9.82657828722222e-05
GO:0044711	single-organism biosynthetic process	0.1019402	109.2799	156	1.427527	0.1455224	4.711984e-06	0.000794935864820513	1170	107.7968	136	1.261633	0.07861272	0.1162393	0.002476594	0.0802697055320197
GO:0002263	cell activation involved in immune response	0.04184179	44.8544	77	1.716666	0.07182836	4.871598e-06	0.000811460228886076	607	55.92533	62	1.108621	0.03583815	0.1021417	0.2112437	0.871800461806209
GO:0051171	regulation of nitrogen compound metabolic process	0.3769965	404.1403	475	1.175334	0.443097	5.58066e-06	0.000911031198555555	4508	415.34	473	1.138826	0.2734104	0.1049246	0.0004244791	0.0230070223127572
GO:0044271	cellular nitrogen compound biosynthetic process	0.28135	301.6072	368	1.22013	0.3432836	5.607837e-06	0.000911031198555555	3480	320.6263	356	1.110327	0.2057803	0.1022989	0.01245078	0.215053855207254
GO:0043170	macromolecule metabolic process	0.5591263	599.3834	670	1.117815	0.625	7.088574e-06	0.00112819621898795	7605	700.679	728	1.038992	0.4208092	0.0957265	0.08417794	0.586546286603774
GO:0040029	regulation of gene expression, epigenetic	0.01531664	16.41944	37	2.253426	0.03451493	7.116064e-06	0.00112819621898795	248	22.84923	31	1.35672	0.01791908	0.125	0.04996996	0.476488915681159
GO:0034654	nucleobase-containing compound biosynthetic process	0.2557896	274.2065	338	1.232648	0.3152985	7.239505e-06	0.00113410293208333	3049	280.9165	322	1.146248	0.1861272	0.1056084	0.003096988	0.091375033838565
GO:0019219	regulation of nucleobase-containing compound metabolic process	0.3589303	384.7733	454	1.179916	0.4235075	7.486462e-06	0.00115899239362353	4229	389.6347	450	1.154928	0.2601156	0.1064081	0.0001814256	0.0120613364502488
GO:0046483	heterocycle metabolic process	0.3564756	382.1419	451	1.18019	0.420709	8.102889e-06	0.00123796756190805	4738	436.5309	459	1.051472	0.2653179	0.09687632	0.1013501	0.615159578367159
GO:0023051	regulation of signaling	0.3241843	347.5256	415	1.194157	0.3871269	8.184754e-06	0.00123796756190805	3376	311.0444	407	1.308495	0.2352601	0.1205569	5.980911e-10	1.31171346415e-06
GO:0006351	transcription, DNA-templated	0.2286212	245.0819	306	1.248562	0.2854478	9.045713e-06	0.00135264247007955	2600	239.5484	290	1.210611	0.1676301	0.1115385	0.0001794094	0.0120613364502488
GO:0097659	nucleic acid-templated transcription	0.2286612	245.1248	306	1.248343	0.2854478	9.177214e-06	0.00135460178868889	2601	239.6405	290	1.210146	0.1676301	0.1114956	0.0001842335	0.0120613364502488
GO:0050790	regulation of catalytic activity	0.2166164	232.2128	292	1.257467	0.2723881	9.264698e-06	0.00135460178868889	2271	209.2363	264	1.261731	0.1526012	0.1162483	2.246345e-05	0.00244294659958678
GO:0034645	cellular macromolecule biosynthetic process	0.3051643	327.1362	393	1.201335	0.3666045	9.877543e-06	0.00142833613557143	3666	337.7632	385	1.139852	0.2225434	0.1050191	0.001659984	0.0624106555885714
GO:0002274	myeloid leukocyte activation	0.03774946	40.46742	70	1.729786	0.06529851	1.034931e-05	0.0014802888075	561	51.68717	57	1.102788	0.03294798	0.1016043	0.2349406	0.895952683126685
GO:0009059	macromolecule biosynthetic process	0.3125572	335.0613	401	1.196796	0.3740672	1.079427e-05	0.00151253045734043	3748	345.3182	393	1.138081	0.2271676	0.1048559	0.001637951	0.0621146893631124
GO:0006955	immune response	0.09874563	105.8553	150	1.417028	0.1399254	1.080461e-05	0.00151253045734043	1489	137.1875	136	0.9913438	0.07861272	0.09133647	0.558485	1
GO:0042127	regulation of cell proliferation	0.1697017	181.9202	236	1.297272	0.2201493	1.234693e-05	0.00171024475652632	1559	143.6369	208	1.448096	0.1202312	0.1334189	1.411189e-08	1.8569836051e-05
GO:0010646	regulation of cell communication	0.3202675	343.3268	409	1.191285	0.3815299	1.295405e-05	0.00177564941614583	3326	306.4377	399	1.302059	0.2306358	0.1199639	1.799148e-09	2.9593735665e-06
GO:0051336	regulation of hydrolase activity	0.1145473	122.7947	169	1.376281	0.1576493	1.394562e-05	0.0018726546044898	1171	107.8889	143	1.325437	0.08265896	0.1221178	0.0002501026	0.0155240571386792
GO:0043299	leukocyte degranulation	0.03175112	34.0372	61	1.792157	0.05690299	1.394636e-05	0.0018726546044898	499	45.97486	51	1.109302	0.02947977	0.1022044	0.2357658	0.895952683126685
GO:0002444	myeloid leukocyte mediated immunity	0.03258488	34.93099	62	1.774928	0.05783582	1.575317e-05	0.00209389862656566	511	47.08047	52	1.104492	0.0300578	0.1017613	0.2432199	0.895952683126685
GO:0002275	myeloid cell activation involved in immune response	0.0326088	34.95664	62	1.773626	0.05783582	1.609314e-05	0.0021176962926	509	46.8962	52	1.108832	0.0300578	0.1021611	0.2341836	0.895952683126685
GO:0043412	macromolecule modification	0.2935035	314.6358	378	1.201389	0.3526119	1.68029e-05	0.00218920159504951	3414	314.5455	366	1.163584	0.2115607	0.1072056	0.0005180541	0.0267872879777344
GO:0008610	lipid biosynthetic process	0.04964421	53.21859	85	1.597186	0.07929104	2.188033e-05	0.00282277708303922	577	53.16131	73	1.373179	0.04219653	0.1265165	0.003309962	0.0953080743063457
GO:0002283	neutrophil activation involved in immune response	0.03017734	32.3501	58	1.792884	0.05410448	2.233566e-05	0.00284088891826923	480	44.22432	49	1.107988	0.0283237	0.1020833	0.2436563	0.895952683126685
GO:0016070	RNA metabolic process	0.2811371	301.379	363	1.204463	0.3386194	2.24525e-05	0.00284088891826923	3493	321.824	354	1.09998	0.2046243	0.1013455	0.0208205	0.295233792564655
GO:0032774	RNA biosynthetic process	0.2339689	250.8146	309	1.231985	0.2882463	2.366868e-05	0.002966249144	2720	250.6045	293	1.169173	0.1693642	0.1077206	0.001577638	0.0606644012550725
GO:0002573	myeloid leukocyte differentiation	0.01014855	10.87924	27	2.481791	0.02518657	2.413265e-05	0.00299586359764151	95	8.752729	22	2.513502	0.01271676	0.2315789	4.039338e-05	0.00393730731422222
GO:0071702	organic substance transport	0.1555866	166.7888	217	1.301047	0.2024254	2.58414e-05	0.00317800918317757	2000	184.268	198	1.074522	0.1144509	0.099	0.1398559	0.741783066545748
GO:0002682	regulation of immune system process	0.1135085	121.6811	166	1.364222	0.1548507	2.685391e-05	0.00327195001564815	1423	131.1067	150	1.144107	0.0867052	0.1054111	0.04159548	0.441326994402093
GO:0010628	positive regulation of gene expression	0.1887093	202.2964	256	1.26547	0.238806	2.718159e-05	0.00328149121844037	1800	165.8412	233	1.404959	0.1346821	0.1294444	2.385261e-08	2.61563745825e-05
GO:0034641	cellular nitrogen compound metabolic process	0.380459	407.852	473	1.159734	0.4412313	2.746143e-05	0.00328513597609091	5172	476.517	486	1.019901	0.2809249	0.09396752	0.3050521	0.974131122760849
GO:0006139	nucleobase-containing compound metabolic process	0.3453542	370.2197	434	1.172277	0.4048507	2.914504e-05	0.00343080978035714	4564	420.4995	437	1.03924	0.2526012	0.09574934	0.1731623	0.774402083762973
GO:0044255	cellular lipid metabolic process	0.08081083	86.62921	125	1.442931	0.1166045	2.92006e-05	0.00343080978035714	985	90.75198	114	1.256171	0.06589595	0.115736	0.006119843	0.143681211564685
GO:0007154	cell communication	0.436811	468.2614	534	1.140389	0.4981343	3.133615e-05	0.00364913626415929	5177	476.9777	551	1.15519	0.3184971	0.1064323	2.06342e-05	0.0023369335740678
GO:0043312	neutrophil degranulation	0.02991602	32.06997	57	1.777364	0.05317164	3.315613e-05	0.00382720626903509	478	44.04005	48	1.089917	0.02774566	0.1004184	0.2848368	0.963044052209661
GO:0002446	neutrophil mediated immunity	0.03077507	32.99088	58	1.758062	0.05410448	3.81164e-05	0.00433826474350427	491	45.23779	49	1.083165	0.0283237	0.09979633	0.297817	0.974131122760849
GO:0007165	signal transduction	0.3980492	426.7087	491	1.150668	0.4580224	3.844827e-05	0.00433826474350427	4700	433.0298	505	1.166202	0.2919075	0.1074468	2.031404e-05	0.00232445610747826
GO:1901074	regulation of engulfment of apoptotic cell	5.822392e-05	0.06241604	3	48.06456	0.002798507	3.857261e-05	0.00433826474350427	2	0.184268	2	10.85376	0.001156069	1	0.008484218	0.167633370363363
GO:0008654	phospholipid biosynthetic process	0.02253169	24.15397	46	1.904449	0.04291045	3.909368e-05	0.00435776982554622	271	24.96831	37	1.481878	0.02138728	0.1365314	0.01001507	0.185879134174894
GO:0048534	hematopoietic or lymphoid organ development	0.05958745	63.87775	97	1.518526	0.09048507	3.940836e-05	0.00435776982554622	559	51.5029	80	1.553311	0.04624277	0.1431127	4.695804e-05	0.00444547372920863
GO:0006464	cellular protein modification process	0.2735729	293.2702	352	1.200259	0.3283582	4.421605e-05	0.00484865834958333	3134	288.7479	341	1.180961	0.1971098	0.1088066	0.0002925692	0.0172642067390135
GO:0032713	negative regulation of interleukin-4 production	0.0008505697	0.9118107	7	7.677032	0.006529851	4.637513e-05	0.0050433912038843	6	0.552804	3	5.426879	0.001734104	0.5	0.01261658	0.215053855207254
GO:0042119	neutrophil activation	0.03111087	33.35086	58	1.739086	0.05410448	5.097188e-05	0.00549786040098361	488	44.96139	49	1.089824	0.0283237	0.1004098	0.2825997	0.956463336496914
GO:0036230	granulocyte activation	0.03113408	33.37573	58	1.737789	0.05410448	5.199296e-05	0.00556240130601626	491	45.23779	49	1.083165	0.0283237	0.09979633	0.297817	0.974131122760849
GO:0006986	response to unfolded protein	0.01004239	10.76544	26	2.415136	0.02425373	5.251592e-05	0.00557304025225807	160	14.74144	25	1.6959	0.01445087	0.15625	0.006137797	0.143681211564685
GO:0021540	corpus callosum morphogenesis	0.000593462	0.6361913	6	9.431125	0.005597015	5.295711e-05	0.00557490088392	5	0.46067	2	4.341503	0.001156069	0.4	0.07027594	0.568193532737293
GO:0042542	response to hydrogen peroxide	0.009504829	10.18918	25	2.453584	0.0233209	5.676309e-05	0.00592813889928571	109	10.04261	21	2.091091	0.01213873	0.1926606	0.0008753084	0.0397178732262069
GO:0044093	positive regulation of molecular function	0.1738736	186.3925	236	1.266145	0.2201493	6.075518e-05	0.00629509774503937	1744	160.6817	206	1.282038	0.1190751	0.1181193	8.007392e-05	0.00684216047584416
GO:0043085	positive regulation of catalytic activity	0.1427167	152.9923	199	1.300719	0.1856343	6.201987e-05	0.00637593335414062	1424	131.1988	174	1.326232	0.100578	0.122191	5.116128e-05	0.00474106537690141
GO:0043634	polyadenylation-dependent ncRNA catabolic process	0.000191899	0.2057157	4	19.44431	0.003731343	6.301725e-05	0.00642824800581395	7	0.644938	3	4.65161	0.001734104	0.4285714	0.02057849	0.294339510771739
GO:0051128	regulation of cellular component organization	0.238971	256.1769	311	1.214005	0.2901119	6.910676e-05	0.00699519888338462	2368	218.1733	287	1.315468	0.165896	0.1211993	2.617649e-07	9.82657828722222e-05
GO:0035966	response to topologically incorrect protein	0.01087519	11.6582	27	2.315966	0.02518657	7.565875e-05	0.0075999503148855	180	16.58412	26	1.567765	0.0150289	0.1444444	0.01428249	0.23231555736712
GO:0002443	leukocyte mediated immunity	0.04031528	43.21798	70	1.619696	0.06529851	7.744691e-05	0.00772063552037879	618	56.93881	59	1.0362	0.03410405	0.09546926	0.406004	1
GO:1902531	regulation of intracellular signal transduction	0.1775173	190.2986	239	1.255921	0.2229478	8.964008e-05	0.00886897603548872	1778	163.8142	221	1.349089	0.1277457	0.124297	1.321419e-06	0.000310509868232143
GO:0018401	peptidyl-proline hydroxylation to 4-hydroxy-L-proline	0.0006594612	0.7069424	6	8.487255	0.005597015	9.393506e-05	0.00922456309358209	5	0.46067	2	4.341503	0.001156069	0.4	0.07027594	0.568193532737293
GO:0030099	myeloid cell differentiation	0.01803821	19.33696	38	1.965148	0.03544776	9.612596e-05	0.00936978894548148	191	17.59759	33	1.875256	0.01907514	0.1727749	0.0003071711	0.0178064515634361
GO:0043549	regulation of kinase activity	0.09117723	97.74199	135	1.381187	0.1259328	9.833674e-05	0.0095148026592647	831	76.56335	115	1.502024	0.06647399	0.1383875	5.537637e-06	0.00086749720575
GO:0031056	regulation of histone modification	0.01293973	13.87139	30	2.162725	0.02798507	0.0001029995	0.00989321474817518	130	11.97742	23	1.92028	0.0132948	0.1769231	0.001707549	0.0638341968494318
GO:0044700	single organism signaling	0.4304258	461.4164	522	1.131299	0.4869403	0.0001113199	0.0106149171311594	5081	468.1328	539	1.151383	0.3115607	0.1060815	3.942904e-05	0.00387199057731343
GO:0045814	negative regulation of gene expression, epigenetic	0.005415112	5.805001	17	2.92851	0.01585821	0.0001128986	0.0106880048733813	114	10.50328	11	1.047292	0.006358382	0.09649123	0.4828145	1
GO:0023052	signaling	0.4306423	461.6485	522	1.13073	0.4869403	0.0001177848	0.0110114512	5085	468.5014	539	1.150477	0.3115607	0.105998	4.308931e-05	0.00410878427746377
GO:0031401	positive regulation of protein modification process	0.121032	129.7463	171	1.317957	0.1595149	0.0001187539	0.0110114512	1182	108.9024	153	1.404928	0.08843931	0.1294416	7.656231e-06	0.00110712465636264
GO:0042327	positive regulation of phosphorylation	0.1004996	107.7355	146	1.35517	0.136194	0.0001188256	0.0110114512	967	89.09357	132	1.481588	0.07630058	0.1365047	2.304711e-06	0.000443116738130435
GO:0002684	positive regulation of immune system process	0.07484244	80.23109	114	1.420895	0.1063433	0.0001226753	0.0112887012076923	897	82.64419	103	1.246307	0.05953757	0.1148272	0.01100764	0.198969141153846
GO:0033554	cellular response to stress	0.1263306	135.4264	177	1.306983	0.1651119	0.0001351088	0.0122594201157534	1590	146.4931	172	1.174117	0.09942197	0.1081761	0.01296029	0.219028261026958
GO:0030155	regulation of cell adhesion	0.07661976	82.13638	116	1.412285	0.108209	0.0001351767	0.0122594201157534	653	60.1635	98	1.628895	0.0566474	0.1500766	8.325564e-07	0.000225380826210204
GO:0042325	regulation of phosphorylation	0.1515009	162.4089	207	1.27456	0.193097	0.0001360191	0.0122594201157534	1466	135.0684	189	1.399291	0.1092486	0.1289222	7.857129e-07	0.000219982894704255
GO:0000302	response to reactive oxygen species	0.01572943	16.86195	34	2.016374	0.03171642	0.0001373971	0.0122993771353741	183	16.86052	29	1.719994	0.01676301	0.1584699	0.002711163	0.0859667323301205
GO:0051365	cellular response to potassium ion starvation	0.0002432515	0.2607656	4	15.33945	0.003731343	0.0001557697	0.0138178861436242	3	0.276402	2	7.235838	0.001156069	0.6666667	0.02389092	0.31226774183432
GO:0090304	nucleic acid metabolic process	0.3108041	333.182	389	1.16753	0.3628731	0.0001564606	0.0138178861436242	4010	369.4573	388	1.050189	0.2242775	0.0967581	0.1335333	0.717796035416667
GO:1903706	regulation of hemopoiesis	0.04134973	44.32691	70	1.579176	0.06529851	0.0001605578	0.0140852006013333	441	40.63109	61	1.501313	0.03526012	0.138322	0.0008641513	0.0394839130440972
GO:0008360	regulation of cell shape	0.01587723	17.0204	34	1.997603	0.03171642	0.0001628662	0.0141930882503311	142	13.08303	26	1.987308	0.0150289	0.1830986	0.0005199167	0.0267872879777344
GO:0030705	cytoskeleton-dependent intracellular transport	0.01145757	12.28252	27	2.198247	0.02518657	0.0001732768	0.014972671427451	149	13.72797	24	1.748256	0.01387283	0.1610738	0.004875297	0.121793511529412
GO:0043087	regulation of GTPase activity	0.05514401	59.11438	88	1.488639	0.08208955	0.0001740876	0.014972671427451	477	43.94792	71	1.615549	0.04104046	0.148847	3.509391e-05	0.00355231355146154
GO:1990830	cellular response to leukemia inhibitory factor	0.01211555	12.98787	28	2.155858	0.0261194	0.0001813493	0.0154959444071429	94	8.660595	23	2.655707	0.0132948	0.2446809	1.044658e-05	0.001447016276
GO:0010557	positive regulation of macromolecule biosynthetic process	0.1795945	192.5253	239	1.241395	0.2229478	0.0001828767	0.0155256419051613	1677	154.5087	220	1.423868	0.1271676	0.1311866	2.099872e-08	2.51201960436364e-05
GO:0009891	positive regulation of biosynthetic process	0.1945528	208.5606	256	1.227461	0.238806	0.0002032521	0.0170443665713376	1844	169.8951	239	1.406751	0.1381503	0.1296095	1.361491e-08	1.8569836051e-05
GO:0043154	negative regulation of cysteine-type endopeptidase activity involved in apoptotic process	0.007373302	7.904179	20	2.530307	0.01865672	0.0002033563	0.0170443665713376	90	8.292059	17	2.050154	0.00982659	0.1888889	0.003235322	0.0935683564791209
GO:0010970	transport along microtubule	0.009736311	10.43733	24	2.29944	0.02238806	0.0002046681	0.0170457438474684	128	11.79315	20	1.6959	0.01156069	0.15625	0.01325532	0.222767248888889
GO:0006979	response to oxidative stress	0.03357881	35.99648	59	1.639049	0.05503731	0.0002067162	0.0171080407283019	368	33.90531	50	1.474695	0.02890173	0.1358696	0.00347125	0.0986569735421166
GO:0001817	regulation of cytokine production	0.05093343	54.60064	82	1.501814	0.07649254	0.0002211481	0.018188049049375	610	56.20174	73	1.298892	0.04219653	0.1196721	0.0122242	0.213057281854305
GO:0051254	positive regulation of RNA metabolic process	0.1623916	174.0838	218	1.25227	0.2033582	0.0002362915	0.0193127940900621	1489	137.1875	199	1.450569	0.1150289	0.1336467	2.651511e-08	2.6360556206e-05
GO:1902275	regulation of chromatin organization	0.01491545	15.98936	32	2.001331	0.02985075	0.00024213	0.0196061477408537	157	14.46504	25	1.728305	0.01445087	0.1592357	0.004798607	0.120735888170172
GO:0010941	regulation of cell death	0.1522696	163.233	206	1.262	0.1921642	0.0002431234	0.0196061477408537	1599	147.3223	192	1.303265	0.1109827	0.120075	5.686583e-05	0.00516067211703448
GO:0048878	chemical homeostasis	0.08586548	92.04779	126	1.368854	0.1175373	0.0002443505	0.0196061477408537	925	85.22394	111	1.302451	0.06416185	0.12	0.00218439	0.0746607480779221
GO:0015711	organic anion transport	0.0352944	37.8356	61	1.612238	0.05690299	0.0002479527	0.0197746035109091	418	38.51201	53	1.376194	0.03063584	0.1267943	0.01064735	0.194056064612188
GO:0045637	regulation of myeloid cell differentiation	0.02379156	25.50455	45	1.764391	0.04197761	0.0002527876	0.0200387471590361	238	21.92789	40	1.824161	0.02312139	0.1680672	0.0001393202	0.0102419805128492
GO:0030851	granulocyte differentiation	0.001125256	1.206274	7	5.802993	0.006529851	0.0002556077	0.020140968408982	16	1.474144	5	3.391799	0.002890173	0.3125	0.0121436	0.211933199469496
GO:0030097	hemopoiesis	0.05352562	57.37946	85	1.481366	0.07929104	0.0002612042	0.0204594408797619	511	47.08047	73	1.550537	0.04219653	0.1428571	0.0001050312	0.00813003271058824
GO:0002521	leukocyte differentiation	0.03174011	34.02539	56	1.64583	0.05223881	0.0002690331	0.0209479678278107	301	27.73233	47	1.694773	0.02716763	0.1561462	0.000233367	0.0147638286201923
GO:0051338	regulation of transferase activity	0.1041883	111.6898	148	1.325098	0.1380597	0.0002871585	0.0222277570676471	995	91.67332	129	1.407171	0.07456647	0.1296482	3.760608e-05	0.00372073990015038
GO:0001934	positive regulation of protein phosphorylation	0.09684551	103.8184	139	1.338877	0.1296642	0.0002925744	0.0225145411087719	924	85.13181	127	1.491804	0.0734104	0.1374459	2.536127e-06	0.000476755645614286
GO:0045055	regulated exocytosis	0.05068204	54.33115	81	1.490858	0.0755597	0.0003006525	0.0228935718184971	680	62.65112	70	1.117299	0.04046243	0.1029412	0.1767608	0.776925615765018
GO:0048490	anterograde synaptic vesicle transport	0.0008202692	0.8793286	6	6.823388	0.005597015	0.0003009794	0.0228935718184971	17	1.566278	3	1.915369	0.001734104	0.1764706	0.2021477	0.840727428666245
GO:0098771	inorganic ion homeostasis	0.05845478	62.66352	91	1.4522	0.08488806	0.0003035651	0.0229575468442529	615	56.66241	79	1.394222	0.04566474	0.1284553	0.001519101	0.0591415682218935
GO:0033674	positive regulation of kinase activity	0.06010245	64.42983	93	1.443431	0.08675373	0.0003175014	0.0238004974384181	538	49.56809	79	1.593767	0.04566474	0.1468401	2.121292e-05	0.00234572112840336
GO:0043633	polyadenylation-dependent RNA catabolic process	0.0002942081	0.3153911	4	12.68267	0.003731343	0.0003192661	0.0238004974384181	8	0.7370719	3	4.070159	0.001734104	0.375	0.03069958	0.361337900912343
GO:0072384	organelle transport along microtubule	0.005381039	5.768473	16	2.773698	0.01492537	0.0003201374	0.0238004974384181	66	6.080844	12	1.97341	0.006936416	0.1818182	0.0164314	0.255882594792899
GO:0010467	gene expression	0.2974556	318.8724	371	1.163475	0.3460821	0.0003311011	0.0244772998589888	3749	345.4103	368	1.065399	0.2127168	0.09815951	0.08231168	0.586546286603774
GO:0050863	regulation of T cell activation	0.03058731	32.78959	54	1.646864	0.05037313	0.0003387063	0.0248996435849162	308	28.37727	46	1.621016	0.0265896	0.1493506	0.0007303003	0.0345684231931655
GO:0031328	positive regulation of cellular biosynthetic process	0.1910054	204.7578	250	1.220955	0.233209	0.0003417129	0.024981111395	1814	167.1311	234	1.400099	0.1352601	0.1289967	2.977755e-08	2.6360556206e-05
GO:0090407	organophosphate biosynthetic process	0.04176322	44.77018	69	1.541205	0.06436567	0.0003473951	0.0252561995629834	501	46.15913	58	1.256523	0.03352601	0.1157685	0.04115927	0.441326994402093
GO:0046474	glycerophospholipid biosynthetic process	0.02068511	22.17444	40	1.803879	0.03731343	0.0003564041	0.0257413625530055	233	21.46722	32	1.490645	0.01849711	0.1373391	0.0145504	0.235508872816728
GO:0010896	regulation of triglyceride catabolic process	0.0005486603	0.5881638	5	8.501033	0.004664179	0.0003579808	0.0257413625530055	12	1.105608	3	2.713439	0.001734104	0.25	0.09150861	0.586546286603774
GO:0044027	hypermethylation of CpG island	2.550826e-05	0.02734486	2	73.1399	0.001865672	0.0003667943	0.0261334752551351	2	0.184268	1	5.426879	0.0005780347	0.5	0.1757838	0.774402083762973
GO:0009991	response to extracellular stimulus	0.04336609	46.48845	71	1.527261	0.06623134	0.0003674058	0.0261334752551351	448	41.27603	64	1.550537	0.03699422	0.1428571	0.0002728487	0.0163200729240909
GO:0001843	neural tube closure	0.01018671	10.92015	24	2.197771	0.02238806	0.0003878401	0.027438644494086	86	7.923523	17	2.14551	0.00982659	0.1976744	0.001957647	0.0701875314130435
GO:0044267	cellular protein metabolic process	0.3052669	327.2461	379	1.15815	0.3535448	0.0003925059	0.0275375803196809	3731	343.7519	374	1.087994	0.216185	0.1002412	0.03083765	0.362638638382484
GO:0045935	positive regulation of nucleobase-containing compound metabolic process	0.1845414	197.8284	242	1.223283	0.2257463	0.0003934239	0.0275375803196809	1753	161.5109	226	1.399286	0.1306358	0.1289218	5.600186e-08	3.66873697577273e-05
GO:0046475	glycerophospholipid catabolic process	0.001213002	1.300338	7	5.383217	0.006529851	0.0003990009	0.0277801737730159	16	1.474144	4	2.713439	0.002312139	0.25	0.05322065	0.495283262623762
GO:0006839	mitochondrial transport	0.0153724	16.47921	32	1.94184	0.02985075	0.0004029729	0.02790905469	239	22.02002	27	1.226157	0.01560694	0.1129707	0.1564242	0.774402083762973
GO:0001666	response to hypoxia	0.0308534	33.07484	54	1.632661	0.05037313	0.0004135702	0.0283514287432292	335	30.86489	47	1.522766	0.02716763	0.1402985	0.002405447	0.0781869440197531
GO:0050801	ion homeostasis	0.06060079	64.96404	93	1.431561	0.08675373	0.0004136693	0.0283514287432292	642	59.15002	81	1.369399	0.04682081	0.1261682	0.002208839	0.0751062335943152
GO:0014070	response to organic cyclic compound	0.09446708	101.2687	135	1.333087	0.1259328	0.000428109	0.0291491689723077	899	82.82846	119	1.436704	0.06878613	0.1323693	3.032774e-05	0.00316732325920635
GO:0032269	negative regulation of cellular protein metabolic process	0.09530262	102.1644	136	1.331188	0.1268657	0.0004309352	0.0291491689723077	1038	95.63509	118	1.233857	0.06820809	0.1136802	0.009235237	0.176637330934593
GO:0019220	regulation of phosphate metabolic process	0.1762148	188.9023	232	1.228148	0.2164179	0.0004319544	0.0291491689723077	1701	156.7199	213	1.359112	0.1231214	0.1252205	1.246948e-06	0.000303862754296296
GO:0006820	anion transport	0.04442488	47.62347	72	1.51186	0.06716418	0.0004417502	0.0296581167438776	538	49.56809	66	1.331502	0.03815029	0.1226766	0.009936022	0.184933682458274
GO:0006887	exocytosis	0.05682718	60.91873	88	1.444547	0.08208955	0.0004482759	0.0299434648126904	762	70.2061	79	1.125258	0.04566474	0.1036745	0.1447741	0.763866231716119
GO:0045017	glycerolipid biosynthetic process	0.02164369	23.20204	41	1.767086	0.03824627	0.0004524974	0.0300727943767677	244	22.48069	33	1.467926	0.01907514	0.1352459	0.01636372	0.25543320460261
GO:0043281	regulation of cysteine-type endopeptidase activity involved in apoptotic process	0.01889149	20.25167	37	1.827009	0.03451493	0.0004627515	0.0305997336105528	203	18.7032	29	1.550537	0.01676301	0.1428571	0.0116841	0.207240771778976
GO:0010558	negative regulation of macromolecule biosynthetic process	0.1465104	157.0592	197	1.254304	0.1837687	0.000466821	0.030714487695	1435	132.2123	179	1.353883	0.1034682	0.1247387	1.208439e-05	0.00160624735363636
GO:0016192	vesicle-mediated transport	0.1338988	143.5396	182	1.267943	0.1697761	0.0004815902	0.0315285842875622	1648	151.8368	168	1.106451	0.09710983	0.1019417	0.08258578	0.586546286603774
GO:0002313	mature B cell differentiation involved in immune response	0.001653474	1.772524	8	4.513337	0.007462687	0.0005005324	0.0326064646118812	17	1.566278	4	2.553825	0.002312139	0.2352941	0.06469695	0.551033763786408
GO:0051174	regulation of phosphorus metabolic process	0.1775934	190.3801	233	1.223867	0.2173507	0.0005083037	0.0329495979719212	1715	158.0098	214	1.354346	0.1236994	0.1247813	1.509551e-06	0.000333619249733333
GO:0031667	response to nutrient levels	0.04094215	43.88999	67	1.526544	0.0625	0.0005395975	0.0348066838357843	417	38.41988	60	1.561692	0.03468208	0.1438849	0.0003454748	0.0195952710913793
GO:1902107	positive regulation of leukocyte differentiation	0.01634879	17.5259	33	1.882927	0.03078358	0.0005557922	0.0356764368770732	132	12.16169	26	2.137861	0.0150289	0.1969697	0.0001570333	0.0111096838424731
GO:0006811	ion transport	0.1183455	126.8664	163	1.284816	0.1520522	0.0005596525	0.0357498410072816	1295	119.3135	147	1.232048	0.0849711	0.1135135	0.004140807	0.110525110168357
GO:0046677	response to antibiotic	0.00405918	4.351441	13	2.987516	0.01212687	0.0005760707	0.0366208422285024	49	4.514566	11	2.436558	0.006358382	0.2244898	0.004291424	0.113168032897796
GO:0050878	regulation of body fluid levels	0.0465206	49.87008	74	1.483856	0.06902985	0.0006173099	0.0388795999338028	509	46.8962	69	1.471334	0.03988439	0.1355599	0.0007212942	0.0342653804252708
GO:0051173	positive regulation of nitrogen compound metabolic process	0.1938326	207.7885	251	1.207959	0.2341418	0.0006206964	0.0388795999338028	1867	172.0142	235	1.366167	0.1358382	0.1258704	2.12898e-07	9.03717671612903e-05
GO:1902262	apoptotic process involved in blood vessel morphogenesis	0.0003523466	0.3777155	4	10.58998	0.003731343	0.0006253046	0.0388795999338028	5	0.46067	3	6.512254	0.001734104	0.6	0.006770806	0.15093357414044
GO:0034614	cellular response to reactive oxygen species	0.01054989	11.30948	24	2.122113	0.02238806	0.0006276996	0.0388795999338028	120	11.05608	21	1.899408	0.01213873	0.175	0.00303463	0.0901594974379232
GO:0036293	response to decreased oxygen levels	0.03142986	33.69281	54	1.602716	0.05037313	0.0006288603	0.0388795999338028	343	31.60196	47	1.48725	0.02716763	0.1370262	0.003827026	0.103709138602881
GO:0046102	inosine metabolic process	0.0001513744	0.1622734	3	18.48732	0.002798507	0.0006293301	0.0388795999338028	4	0.368536	2	5.426879	0.001156069	0.5	0.04487389	0.441326994402093
GO:0023056	positive regulation of signaling	0.161985	173.648	214	1.232378	0.1996269	0.0006409084	0.0392566693762791	1606	147.9672	197	1.331376	0.1138728	0.122665	1.23586e-05	0.001626268174
GO:0051345	positive regulation of hydrolase activity	0.07505461	80.45855	110	1.367164	0.1026119	0.0006414001	0.0392566693762791	724	66.70501	91	1.364215	0.05260116	0.1256906	0.001373852	0.0551174343536585
GO:0043618	regulation of transcription from RNA polymerase II promoter in response to stress	0.006905222	7.402398	18	2.431644	0.01679104	0.0006491037	0.0395219589059908	113	10.41114	13	1.248662	0.007514451	0.1150442	0.2403201	0.895952683126685
GO:0031057	negative regulation of histone modification	0.003596917	3.855896	12	3.112117	0.01119403	0.0006517414	0.0395219589059908	38	3.501092	6	1.713751	0.003468208	0.1578947	0.1324815	0.713015974846626
GO:0001932	regulation of protein phosphorylation	0.1407291	150.8616	189	1.252804	0.176306	0.0006588544	0.0397700231633027	1341	123.5517	173	1.400224	0.1	0.1290082	2.305936e-06	0.000443116738130435
GO:0060606	tube closure	0.01059527	11.35812	24	2.113025	0.02238806	0.0006652757	0.039974259983105	87	8.015657	17	2.120849	0.00982659	0.1954023	0.002228503	0.0755795643737113
GO:0010647	positive regulation of cell communication	0.161278	172.89	213	1.231997	0.198694	0.000672479	0.0402234143681818	1599	147.3223	196	1.330417	0.1132948	0.1225766	1.362862e-05	0.00175822559392157
GO:0019371	cyclooxygenase pathway	0.0006382022	0.6841527	5	7.30831	0.004664179	0.0007048371	0.0419681058773756	11	1.013474	3	2.960116	0.001734104	0.2727273	0.07349195	0.580480534243698
GO:0010035	response to inorganic substance	0.04291641	46.00639	69	1.499792	0.06436567	0.0007105317	0.042045527620524	479	44.13218	61	1.382211	0.03526012	0.1273486	0.005934525	0.141000226144144
GO:0034203	glycolipid translocation	3.57599e-05	0.03833462	2	52.17217	0.001865672	0.0007156261	0.042045527620524	2	0.184268	2	10.85376	0.001156069	1	0.008484218	0.167633370363363
GO:0007596	blood coagulation	0.02575565	27.61006	46	1.666059	0.04291045	0.0007167486	0.042045527620524	306	28.193	42	1.489731	0.02427746	0.1372549	0.00583939	0.140219950748175
GO:0006357	regulation of transcription from RNA polymerase II promoter	0.2083136	223.3122	267	1.195636	0.2490672	0.0007251808	0.042045527620524	1970	181.504	250	1.37738	0.1445087	0.1269036	3.972966e-08	3.07530938788235e-05
GO:0042060	wound healing	0.0452582	48.51679	72	1.484022	0.06716418	0.0007260281	0.042045527620524	472	43.48725	65	1.494691	0.03757225	0.1377119	0.000670643	0.0326851527296296
GO:0080134	regulation of response to stress	0.1241035	133.039	169	1.270304	0.1576493	0.0007273545	0.042045527620524	1377	126.8685	157	1.237502	0.09075145	0.114016	0.002595861	0.0833144753634146
GO:0007179	transforming growth factor beta receptor signaling pathway	0.0100351	10.75762	23	2.138019	0.02145522	0.0007302861	0.042045527620524	93	8.568461	20	2.334141	0.01156069	0.2150538	0.0002603891	0.015942079762963
GO:0050817	coagulation	0.0257821	27.63841	46	1.66435	0.04291045	0.0007316989	0.042045527620524	308	28.37727	42	1.480058	0.02427746	0.1363636	0.006535765	0.148282985577586
GO:0051574	positive regulation of histone H3-K9 methylation	0.0009743285	1.04448	6	5.744485	0.005597015	0.0007361709	0.0421185777091304	9	0.8292059	2	2.411946	0.001156069	0.2222222	0.1983134	0.834806791618682
GO:2000117	negative regulation of cysteine-type endopeptidase activity	0.00818989	8.779562	20	2.278018	0.01865672	0.0007446168	0.0424173700051948	109	10.04261	17	1.692788	0.00982659	0.1559633	0.02158469	0.303453991143162
GO:0035195	gene silencing by miRNA	0.003151077	3.377954	11	3.256409	0.01026119	0.000750361	0.0424409466564103	44	4.053896	11	2.713439	0.006358382	0.25	0.001730521	0.0643274741214689
GO:0001841	neural tube formation	0.01263489	13.5446	27	1.993414	0.02518657	0.0007544777	0.0424409466564103	101	9.305533	19	2.041796	0.01098266	0.1881188	0.002013916	0.0714217743262032
GO:0035927	RNA import into mitochondrion	0.0003707458	0.3974395	4	10.06442	0.003731343	0.0007547064	0.0424409466564103	5	0.46067	2	4.341503	0.001156069	0.4	0.07027594	0.568193532737293
GO:0043537	negative regulation of blood vessel endothelial cell migration	0.003156937	3.384236	11	3.250364	0.01026119	0.0007616054	0.0426466615259574	27	2.487618	10	4.01991	0.005780347	0.3703704	8.353453e-05	0.00684506242882716
GO:0046635	positive regulation of alpha-beta T cell activation	0.006430852	6.893874	17	2.465958	0.01585821	0.0007781493	0.0431417102220833	50	4.6067	12	2.604902	0.006936416	0.24	0.00159041	0.0606644012550725
GO:0046061	dATP catabolic process	0.0001632066	0.1749575	3	17.14703	0.002798507	0.0007813553	0.0431417102220833	3	0.276402	2	7.235838	0.001156069	0.6666667	0.02389092	0.31226774183432
GO:0055114	oxidation-reduction process	0.07388744	79.20733	108	1.36351	0.1007463	0.0007858018	0.0431417102220833	927	85.40821	95	1.112305	0.05491329	0.1024811	0.1451118	0.765034525721154
GO:0048041	focal adhesion assembly	0.002214858	2.374328	9	3.790547	0.008395522	0.000785821	0.0431417102220833	24	2.211216	7	3.165679	0.004046243	0.2916667	0.00472759	0.119635301557692
GO:0006325	chromatin organization	0.06027632	64.61622	91	1.408315	0.08488806	0.0007868387	0.0431417102220833	693	63.84886	79	1.237297	0.04566474	0.1139971	0.02756034	0.340531938084507
GO:0015866	ADP transport	0.0003766233	0.4037401	4	9.907363	0.003731343	0.0007997422	0.0436560005625514	9	0.8292059	2	2.411946	0.001156069	0.2222222	0.1983134	0.834806791618682
GO:0008089	anterograde axonal transport	0.001780609	1.908813	8	4.191086	0.007462687	0.0008048544	0.0436560005625514	31	2.856154	5	1.750606	0.002890173	0.1612903	0.1518805	0.774402083762973
GO:0009967	positive regulation of signal transduction	0.1481485	158.8152	197	1.240435	0.1837687	0.0008061713	0.0436560005625514	1476	135.9898	183	1.345689	0.1057803	0.1239837	1.379671e-05	0.00176263016398058
GO:0043923	positive regulation by host of viral transcription	0.001370796	1.469493	7	4.763547	0.006529851	0.0008131683	0.0438544330315574	16	1.474144	5	3.391799	0.002890173	0.3125	0.0121436	0.211933199469496
GO:0048519	negative regulation of biological process	0.4201996	450.454	502	1.114431	0.4682836	0.000827078	0.0444225281714286	4747	437.3601	511	1.168374	0.2953757	0.1076469	1.422883e-05	0.00180035744201923
GO:0019725	cellular homeostasis	0.07320898	78.48002	107	1.363404	0.09981343	0.0008330502	0.0445614129341463	772	71.12744	92	1.293453	0.05317919	0.119171	0.006050957	0.14298467813465
GO:0031060	regulation of histone methylation	0.005897193	6.32179	16	2.530929	0.01492537	0.0008391046	0.0446935605385542	56	5.159504	10	1.938171	0.005780347	0.1785714	0.03042556	0.361337900912343
GO:0007599	hemostasis	0.0259662	27.83576	46	1.65255	0.04291045	0.0008436723	0.0446935605385542	311	28.65367	42	1.465781	0.02427746	0.1350482	0.007710598	0.164981722084553
GO:0035194	posttranscriptional gene silencing by RNA	0.003708723	3.975751	12	3.018297	0.01119403	0.0008457099	0.0446935605385542	51	4.698834	12	2.553825	0.006936416	0.2352941	0.001908273	0.0689861659532967
GO:0019471	4-hydroxyproline metabolic process	0.00138242	1.481954	7	4.723493	0.006529851	0.0008535871	0.0449294105956	12	1.105608	3	2.713439	0.001734104	0.25	0.09150861	0.586546286603774
GO:1903708	positive regulation of hemopoiesis	0.01956996	20.979	37	1.763669	0.03451493	0.0008659554	0.045398833101992	165	15.20211	30	1.97341	0.01734104	0.1818182	0.0002293235	0.01457810597343
GO:1903037	regulation of leukocyte cell-cell adhesion	0.03341127	35.81688	56	1.563509	0.05223881	0.0008841413	0.0460095436948617	323	29.75928	48	1.612942	0.02774566	0.1486068	0.0006345757	0.0313924121665414
GO:0046638	positive regulation of alpha-beta T cell differentiation	0.005358069	5.74385	15	2.611489	0.01399254	0.0008845972	0.0460095436948617	39	3.593226	10	2.783015	0.005780347	0.2564103	0.002261678	0.0756431823080808
GO:1901575	organic substance catabolic process	0.1188732	127.432	162	1.271266	0.1511194	0.0009192053	0.0476213485933071	1638	150.9155	150	0.9939338	0.0867052	0.09157509	0.5464384	1
GO:0050870	positive regulation of T cell activation	0.02035899	21.82484	38	1.741136	0.03544776	0.0009336519	0.0477199494346154	201	18.51893	33	1.78196	0.01907514	0.1641791	0.0007812371	0.0365858834074733
GO:0046683	response to organophosphorus	0.01216996	13.0462	26	1.992917	0.02425373	0.0009383112	0.0477199494346154	131	12.06955	18	1.491356	0.01040462	0.1374046	0.05580449	0.510463731863144
GO:0014020	primary neural tube formation	0.01087249	11.65531	24	2.059148	0.02238806	0.0009402479	0.0477199494346154	93	8.568461	17	1.98402	0.00982659	0.1827957	0.004592263	0.118489389837255
GO:0055082	cellular chemical homeostasis	0.06063628	65.00209	91	1.399955	0.08488806	0.0009402978	0.0477199494346154	637	58.68935	80	1.363109	0.04624277	0.1255887	0.00265426	0.0847752605339806
GO:1990569	UDP-N-acetylglucosamine transmembrane transport	0.0001741009	0.1866362	3	16.07405	0.002798507	0.0009403284	0.0477199494346154	2	0.184268	2	10.85376	0.001156069	1	0.008484218	0.167633370363363
GO:0016441	posttranscriptional gene silencing	0.003756836	4.027329	12	2.979643	0.01119403	0.000942867	0.0477199494346154	52	4.790968	12	2.504713	0.006936416	0.2307692	0.002276366	0.0756431823080808
GO:0055080	cation homeostasis	0.05747555	61.61379	87	1.412022	0.08115672	0.0009469709	0.0477440232685824	601	55.37253	76	1.372522	0.04393064	0.1264559	0.002798535	0.0876807668214286
GO:0015679	plasma membrane copper ion transport	4.157198e-05	0.04456516	2	44.8781	0.001865672	0.0009631647	0.0483751308675573	2	0.184268	2	10.85376	0.001156069	1	0.008484218	0.167633370363363
GO:0045860	positive regulation of protein kinase activity	0.05677696	60.86491	86	1.412965	0.08022388	0.0009924425	0.0495049989887218	505	46.52767	73	1.568959	0.04219653	0.1445545	7.199179e-05	0.00635798633966443
GO:0006082	organic acid metabolic process	0.07848114	84.13178	113	1.343131	0.1054104	0.0009960474	0.0495049989887218	965	88.9093	104	1.169731	0.06011561	0.107772	0.050016	0.476582580738595
GO:0001936	regulation of endothelial cell proliferation	0.01354831	14.52379	28	1.927871	0.0261194	0.0009977156	0.0495049989887218	100	9.213399	22	2.387827	0.01271676	0.22	9.197236e-05	0.00729074870626506
GO:0045785	positive regulation of cell adhesion	0.04504457	48.28778	71	1.470351	0.06623134	0.001000709	0.0495049989887218	379	34.91878	61	1.746911	0.03526012	0.1609499	1.168238e-05	0.00158482926206186
GO:0046689	response to mercury ion	0.0004012315	0.4301202	4	9.299727	0.003731343	0.001009017	0.0497290438314607	12	1.105608	2	1.80896	0.001156069	0.1666667	0.3046807	0.974131122760849
